[0, 1, 1, 1, dig, , null]
[1, 2, Już, już, qub, pospolita, null]
[2, 3, pora, porać, fin:sg:ter:imperf, pospolita, null]
[2, 3, pora, pora, subst:sg:nom:f, pospolita, null]
[2, 3, pora, por, subst:sg:acc:m2, pospolita, null]
[2, 3, pora, por, subst:sg:gen:m2, pospolita, null]
[2, 3, pora, por, subst:sg:gen:m3, pospolita, null]
[2, 3, pora, pora, pred, pospolita, null]
[3, 4, wstać, wstać, inf:perf, pospolita, null]
[4, 5, ,, ,, interp, , null]
[5, 6, wyruszyć, wyruszyć, inf:perf, pospolita, null]
[6, 7, z, z, prep:acc:nwok, pospolita, null]
[6, 7, z, z, prep:gen:nwok, pospolita, null]
[6, 7, z, z, prep:inst:nwok, pospolita, null]
[7, 8, domu, dom, subst:sg:gen:m3, pospolita, null]
[7, 8, domu, dom, subst:sg:loc:m3, pospolita, null]
[7, 8, domu, dom, subst:sg:voc:m3, pospolita, null]
[8, 9, ,, ,, interp, , null]
[9, 10, przyjaciela, przyjaciel, subst:sg:acc:m1, pospolita, null]
[9, 10, przyjaciela, przyjaciel, subst:sg:gen:m1, pospolita, null]
[10, 11, spotkać, spotkać, inf:perf, pospolita, null]
[11, 12, znów, znów, qub, pospolita, null]
[12, 13, ., ., interp, , null]
[13, 14, Miły, miły, subst:sg:nom:m1, pospolita, null]
[13, 14, Miły, miły, subst:sg:voc:m1, pospolita, null]
[13, 14, Miły, miły, adj:sg:acc:m3:pos, pospolita, null]
[13, 14, Miły, miły, adj:sg:nom.voc:m1.m2.m3:pos, pospolita, null]
[14, 15, ,, ,, interp, , null]
[15, 16, puchaty, puchaty, adj:sg:acc:m3:pos, pospolita, null]
[15, 16, puchaty, puchaty, adj:sg:nom.voc:m1.m2.m3:pos, pospolita, null]
[16, 17, ,, ,, interp, , null]
[17, 18, okrągły, okrągły, adj:sg:acc:m3:pos, pospolita, null]
[17, 18, okrągły, okrągły, adj:sg:nom.voc:m1.m2.m3:pos, pospolita, null]
[18, 19, ,, ,, interp, , null]
[19, 20, bo, bo, qub, pospolita, null]
[19, 20, bo, bo, comp, pospolita, null]
[20, 21, to, ten, adj:sg:acc:n1.n2:pos, pospolita, null]
[20, 21, to, ten, adj:sg:nom.voc:n1.n2:pos, pospolita, null]
[20, 21, to, to, qub, pospolita, null]
[20, 21, to, to, subst:sg:acc:n2, pospolita, null]
[20, 21, to, to, subst:sg:nom:n2, pospolita, null]
[20, 21, to, to, conj, pospolita, null]
[20, 21, to, to, pred, , null]
[21, 22, mój, mój, adj:sg:acc:m3:pos, pospolita, null]
[21, 22, mój, mój, adj:sg:nom.voc:m1.m2.m3:pos, pospolita, null]
[21, 22, mój, mój, subst:sg:nom:m1, pospolita, null]
[21, 22, mój, mój, subst:sg:voc:m1, pospolita, null]
[22, 23, jest, być, fin:sg:ter:imperf, pospolita, null]
[23, 24, ., ., interp, , null]
[24, 25, ., ., interp, , null]
[25, 26, ., ., interp, , null]
[26, 27, Kubuś, Kubuś, subst:sg:nom:m1, imię, null]
[27, 28, Puchatek, Puchatek, subst:sg:nom:m1, własna, null]
[28, 29, ,, ,, interp, , null]
[29, 30, Kubuś, Kubuś, subst:sg:nom:m1, imię, null]
[30, 31, ., ., interp, , null]
[31, 32, Wśród, wśród, prep:gen, pospolita, null]
[32, 33, roju, rój, subst:sg:gen:m3, pospolita, null]
[32, 33, roju, rój, subst:sg:loc:m3, pospolita, null]
[32, 33, roju, rój, subst:sg:voc:m3, pospolita, null]
[33, 34, pszczół, pszczoła, subst:pl:gen:f, pospolita, null]
[33, 34, pszczół, pszczoły, subst:pl:gen:p3, pospolita, null]
[34, 35, ,, ,, interp, , null]
[35, 36, jak, jak, adv, pospolita, null]
[35, 36, jak, jak, conj, pospolita, null]
[35, 36, jak, jak, prep:nom, pospolita, null]
[35, 36, jak, jak, adv:pos, pospolita, null]
[35, 36, jak, jak, subst:sg:nom:m2, pospolita, null]
[35, 36, jak, jaka, subst:pl:gen:f, pospolita, null]
[36, 37, to, ten, adj:sg:acc:n1.n2:pos, pospolita, null]
[36, 37, to, ten, adj:sg:nom.voc:n1.n2:pos, pospolita, null]
[36, 37, to, to, qub, pospolita, null]
[36, 37, to, to, subst:sg:acc:n2, pospolita, null]
[36, 37, to, to, subst:sg:nom:n2, pospolita, null]
[36, 37, to, to, conj, pospolita, null]
[36, 37, to, to, pred, , null]
[37, 38, niedźwiadków, niedźwiadek, subst:pl:gen:m2, pospolita, null]
[38, 39, ród, ród, subst:sg:acc:m3, pospolita, null]
[38, 39, ród, ród, subst:sg:nom:m3, pospolita, null]
[39, 40, ., ., interp, , null]
[40, 41, Kubuś, Kubuś, subst:sg:nom:m1, imię, null]
[41, 42, włazi, włazić, fin:sg:ter:imperf, pospolita, null]
[42, 43, bez, bez, subst:sg:acc:m3, pospolita, null]
[42, 43, bez, bez, subst:sg:nom:m3, pospolita, null]
[42, 43, bez, beza, subst:pl:gen:f, pospolita, null]
[42, 43, bez, bez, prep:gen:nwok, pospolita, null]
[43, 44, trudu, trud, subst:sg:gen:m3, pospolita, null]
[44, 45, ,, ,, interp, , null]
[45, 46, ramboli, ramboli, ign, , null]
[46, 47, –, –, interp, , null]
[47, 48, bamboli, bamboli, ign, , null]
[48, 49, ,, ,, interp, , null]
[49, 50, na, na, interj, pospolita, null]
[49, 50, na, na, prep:acc, pospolita, null]
[49, 50, na, na, prep:loc, pospolita, null]
[50, 51, dąb, dębić, impt:sg:sec:imperf, pospolita, null]
[50, 51, dąb, dąb, subst:sg:acc:m3, pospolita, null]
[50, 51, dąb, dąb, subst:sg:nom:m2, pospolita, null]
[50, 51, dąb, dąb, subst:sg:nom:m3, pospolita, null]
[51, 52, łasować, łasować, inf:imperf, pospolita, null]
[52, 53, miód, miód, subst:sg:acc:m3, pospolita, null]
[52, 53, miód, miód, subst:sg:nom:m3, pospolita, null]
[53, 54, ., ., interp, , null]
[54, 55, Zabawa, zabawa, subst:sg:nom:f, pospolita, null]
[54, 55, Zabawa, Zabawa, subst:sg:nom:f, określenie dodatkowe, null]
[54, 55, Zabawa, Zabawa, subst:sg:nom:f, geograficzna, null]
[54, 55, Zabawa, Zabawa, subst:sg:nom:f, nazwisko, null]
[54, 55, Zabawa, Zabawa, subst:sg:nom:m1, nazwisko, null]
[55, 56, -, -, interp, , null]
[56, 57, stały, stać, praet:pl:m2.m3.f.n1.n2.p2.p3:imperf, pospolita, null]
[56, 57, stały, stać, praet:pl:m2.m3.f.n1.n2.p2.p3:perf, pospolita, null]
[56, 57, stały, stały, adj:sg:acc:m3:pos, pospolita, null]
[56, 57, stały, stały, adj:sg:nom.voc:m1.m2.m3:pos, pospolita, null]
[57, 58, gość, gościć, impt:sg:sec:imperf, pospolita, null]
[57, 58, gość, gość, subst:sg:nom:m1, pospolita, null]
[57, 58, gość, gościa, subst:pl:gen:f, pospolita, null]
[58, 59, ,, ,, interp, , null]
[59, 60, a, a, conj, pospolita, null]
[59, 60, a, a, interj, pospolita, null]
[59, 60, a, a, prep:nom, pospolita, null]
[59, 60, a, a, qub, pospolita, null]
[60, 61, przygód, przygoda, subst:pl:gen:f, pospolita, null]
[61, 62, mu, mu, interj, pospolita, null]
[61, 62, mu, on, ppron3:sg:dat:m1.m2.m3:ter:nakc:npraep, pospolita, null]
[61, 62, mu, on, ppron3:sg:dat:n1.n2:ter:nakc:npraep, pospolita, null]
[62, 63, nigdy, nigdy, adv, pospolita, null]
[63, 64, dość, dość, qub, pospolita, null]
[63, 64, dość, dość, pred, pospolita, null]
[64, 65, ,, ,, interp, , null]
[65, 66, to, ten, adj:sg:acc:n1.n2:pos, pospolita, null]
[65, 66, to, ten, adj:sg:nom.voc:n1.n2:pos, pospolita, null]
[65, 66, to, to, qub, pospolita, null]
[65, 66, to, to, subst:sg:acc:n2, pospolita, null]
[65, 66, to, to, subst:sg:nom:n2, pospolita, null]
[65, 66, to, to, conj, pospolita, null]
[65, 66, to, to, pred, , null]
[66, 67, jest, być, fin:sg:ter:imperf, pospolita, null]
[67, 68, raz, raz, subst:sg:acc:m3, pospolita, null]
[67, 68, raz, raz, subst:sg:nom:m3, pospolita, null]
[68, 69, na, na, interj, pospolita, null]
[68, 69, na, na, prep:acc, pospolita, null]
[68, 69, na, na, prep:loc, pospolita, null]
[69, 70, jakiś, jakiś, adj:sg:acc:m3:pos, pospolita, null]
[69, 70, jakiś, jakiś, adj:sg:nom.voc:m1.m2.m3:pos, pospolita, null]
[70, 71, czas, czas, subst:sg:acc:m3, pospolita, null]
[70, 71, czas, czas, subst:sg:nom:m3, pospolita, null]
[70, 71, czas, czas, pred, pospolita, null]
[71, 72, ., ., interp, , null]
[72, 73, A, a, conj, pospolita, null]
[72, 73, A, a, interj, pospolita, null]
[72, 73, A, a, prep:nom, pospolita, null]
[72, 73, A, a, qub, pospolita, null]
[73, 74, gdy, gdy, adv, pospolita, null]
[74, 75, jesteś, być, fin:sg:sec:imperf, pospolita, null]
[75, 76, sam, sam, subst:sg:acc:m3, pospolita, null]
[75, 76, sam, sam, subst:sg:nom:m3, pospolita, null]
[75, 76, sam, sam, adj:sg:acc:m3:pos, pospolita, null]
[75, 76, sam, sam, adj:sg:nom.voc:m1.m2.m3:pos, pospolita, null]
[75, 76, sam, sam, adv, pospolita, null]
[76, 77, w, w, prep:acc:nwok, pospolita, null]
[76, 77, w, w, prep:loc:nwok, pospolita, null]
[77, 78, domu, dom, subst:sg:gen:m3, pospolita, null]
[77, 78, domu, dom, subst:sg:loc:m3, pospolita, null]
[77, 78, domu, dom, subst:sg:voc:m3, pospolita, null]
[78, 79, wśród, wśród, prep:gen, pospolita, null]
[79, 80, czterech, cztery, num:pl:acc:m1:rec, pospolita, null]
[79, 80, czterech, cztery, num:pl:gen.loc:m1.m2.m3.n2.f:congr, pospolita, null]
[79, 80, czterech, cztery, num:pl:nom.voc:m1:rec, pospolita, null]
[80, 81, ścian, ściana, subst:pl:gen:f, pospolita, null]
[81, 82, ,, ,, interp, , null]
[82, 83, gdy, gdy, adv, pospolita, null]
[83, 84, co, co, comp, pospolita, null]
[83, 84, co, co, subst:sg:acc:n2, pospolita, null]
[83, 84, co, co, subst:sg:gen:n2, pospolita, null]
[83, 84, co, co, subst:sg:nom:n2, pospolita, null]
[83, 85, coś, coś, qub, pospolita, null]
[83, 85, coś, coś, subst:sg:acc:n2, pospolita, null]
[83, 85, coś, coś, subst:sg:gen:n2, pospolita, null]
[83, 85, coś, coś, subst:sg:nom:n2, pospolita, null]
[84, 85, ś, być, aglt:sg:sec:imperf:nwok, pospolita, null]
[85, 86, ci, ten, adj:pl:nom.voc:m1.p1:pos, pospolita, null]
[85, 86, ci, ci, qub, pospolita, null]
[85, 86, ci, ty, ppron12:sg:dat:m1.m2.m3.f.n1.n2:sec:nakc, pospolita, null]
[86, 87, doskwiera, doskwierać, fin:sg:ter:imperf, pospolita, null]
[87, 88, to, ten, adj:sg:acc:n1.n2:pos, pospolita, null]
[87, 88, to, ten, adj:sg:nom.voc:n1.n2:pos, pospolita, null]
[87, 88, to, to, qub, pospolita, null]
[87, 88, to, to, subst:sg:acc:n2, pospolita, null]
[87, 88, to, to, subst:sg:nom:n2, pospolita, null]
[87, 88, to, to, conj, pospolita, null]
[87, 88, to, to, pred, , null]
[88, 89, masz, mieć, fin:sg:sec:imperf, pospolita, null]
[89, 90, przyjaciela, przyjaciel, subst:sg:acc:m1, pospolita, null]
[89, 90, przyjaciela, przyjaciel, subst:sg:gen:m1, pospolita, null]
[90, 91, !, !, interp, , null]
[91, 92, Kubuś, Kubuś, subst:sg:nom:m1, imię, null]
[92, 93, Puchatek, Puchatek, subst:sg:nom:m1, własna, null]
[93, 94, ,, ,, interp, , null]
[94, 95, Kubuś, Kubuś, subst:sg:nom:m1, imię, null]
[95, 96, ., ., interp, , null]
[96, 97, Gdziekolwiek, gdziekolwiek, adv, pospolita, null]
[97, 98, by, by, qub, pospolita, null]
[97, 98, by, by, comp, pospolita, null]
[98, 99, ś, być, aglt:sg:sec:imperf:nwok, pospolita, null]
[99, 100, szedł, iść, praet:sg:m1.m2.m3:imperf, pospolita, null]
[100, 101, ,, ,, interp, , null]
[101, 102, hej, hej, interj, pospolita, null]
[102, 103, !, !, interp, , null]
[103, 104, Pójdę, pójść, fin:sg:pri:perf, pospolita, null]
[104, 105, tam, tama, subst:pl:gen:f, pospolita, null]
[104, 105, tam, tam, adv, pospolita, null]
[104, 105, tam, tam, qub, pospolita, null]
[105, 106, i, i, interj, pospolita, null]
[105, 106, i, i, qub, pospolita, null]
[105, 106, i, i, conj, pospolita, null]
[106, 107, ja, ja, ppron12:sg:voc:m1.m2.m3.f.n1.n2:pri, pospolita, null]
[106, 107, ja, ja, ppron12:sg:nom:m1.m2.m3.f.n1.n2:pri, pospolita, null]
[107, 108, !, !, interp, , null]
[108, 109, Kubuś, Kubuś, subst:sg:nom:m1, imię, null]
[109, 110, i, i, interj, pospolita, null]
[109, 110, i, i, qub, pospolita, null]
[109, 110, i, i, conj, pospolita, null]
[110, 111, nie, nie, conj, pospolita, null]
[110, 111, nie, nie, qub, pospolita, null]
[110, 111, nie, on, ppron3:pl:acc:m2.m3.f.n1.n2.p2.p3:ter:_:praep, pospolita, null]
[110, 111, nie, on, ppron3:sg:acc:n1.n2:ter:_:praep, pospolita, null]
[111, 112, ma, mój, adj:sg:nom.voc:f:pos, pospolita, null]
[111, 112, ma, mieć, fin:sg:ter:imperf, pospolita, null]
[112, 113, cudów, cud, subst:pl:gen:m3, pospolita, null]
[112, 113, cudów, cudo, subst:pl:gen:n2, pospolita, null]
[113, 114, ., ., interp, , null]
[114, 115, I, i, interj, pospolita, null]
[114, 115, I, i, qub, pospolita, null]
[114, 115, I, I, romandig, , null]
[114, 115, I, i, conj, pospolita, null]
[115, 116, jutro, jutro, subst:sg:acc:n2, pospolita, null]
[115, 116, jutro, jutro, subst:sg:nom:n2, pospolita, null]
[115, 116, jutro, jutro, subst:sg:voc:n2, pospolita, null]
[115, 116, jutro, jutro, adv, pospolita, null]
[116, 117, ,, ,, interp, , null]
[117, 118, i, i, interj, pospolita, null]
[117, 118, i, i, qub, pospolita, null]
[117, 118, i, i, conj, pospolita, null]
[118, 119, dziś, dziś, adv, pospolita, null]
[118, 119, dziś, dziś, subst:pl:acc:n2, pospolita, null]
[118, 119, dziś, dziś, subst:pl:dat:n2, pospolita, null]
[118, 119, dziś, dziś, subst:pl:gen:n2, pospolita, null]
[118, 119, dziś, dziś, subst:pl:inst:n2, pospolita, null]
[118, 119, dziś, dziś, subst:pl:loc:n2, pospolita, null]
[118, 119, dziś, dziś, subst:pl:nom:n2, pospolita, null]
[118, 119, dziś, dziś, subst:pl:voc:n2, pospolita, null]
[118, 119, dziś, dziś, subst:sg:acc:n2, pospolita, null]
[118, 119, dziś, dziś, subst:sg:dat:n2, pospolita, null]
[118, 119, dziś, dziś, subst:sg:gen:n2, pospolita, null]
[118, 119, dziś, dziś, subst:sg:inst:n2, pospolita, null]
[118, 119, dziś, dziś, subst:sg:loc:n2, pospolita, null]
[118, 119, dziś, dziś, subst:sg:nom:n2, pospolita, null]
[118, 119, dziś, dziś, subst:sg:voc:n2, pospolita, null]
[119, 120, ,, ,, interp, , null]
[120, 121, i, i, interj, pospolita, null]
[120, 121, i, i, qub, pospolita, null]
[120, 121, i, i, conj, pospolita, null]
[121, 122, ja, ja, ppron12:sg:voc:m1.m2.m3.f.n1.n2:pri, pospolita, null]
[121, 122, ja, ja, ppron12:sg:nom:m1.m2.m3.f.n1.n2:pri, pospolita, null]
[122, 123, i, i, interj, pospolita, null]
[122, 123, i, i, qub, pospolita, null]
[122, 123, i, i, conj, pospolita, null]
[123, 124, mój, mój, adj:sg:acc:m3:pos, pospolita, null]
[123, 124, mój, mój, adj:sg:nom.voc:m1.m2.m3:pos, pospolita, null]
[123, 124, mój, mój, subst:sg:nom:m1, pospolita, null]
[123, 124, mój, mój, subst:sg:voc:m1, pospolita, null]
[124, 125, puchaty, puchaty, adj:sg:acc:m3:pos, pospolita, null]
[124, 125, puchaty, puchaty, adj:sg:nom.voc:m1.m2.m3:pos, pospolita, null]
[125, 126, miś, misić, impt:sg:sec:imperf, pospolita, null]
[125, 126, miś, miś, subst:sg:nom:m2, pospolita, null]
[126, 127, !, !, interp, , null]
[127, 128, 2, 2, dig, , null]
[128, 129, Ależ, ależ, qub, pospolita, null]
[129, 130, moje, mój, adj:pl:acc:m2.m3.f.n1.n2.p2.p3:pos, pospolita, null]
[129, 130, moje, mój, adj:pl:nom.voc:m2.m3.f.n1.n2.p2.p3:pos, pospolita, null]
[129, 130, moje, mój, adj:sg:acc:n1.n2:pos, pospolita, null]
[129, 130, moje, mój, adj:sg:nom.voc:n1.n2:pos, pospolita, null]
[129, 130, moje, moje, subst:pl:acc:n2, pospolita, null]
[129, 130, moje, moje, subst:pl:nom:n2, pospolita, null]
[129, 130, moje, moje, subst:pl:voc:n2, pospolita, null]
[129, 130, moje, moje, subst:sg:acc:n2, pospolita, null]
[129, 130, moje, moje, subst:sg:nom:n2, pospolita, null]
[129, 130, moje, moje, subst:sg:voc:n2, pospolita, null]
[129, 130, moje, moja, subst:pl:acc:f, pospolita, null]
[129, 130, moje, moja, subst:pl:nom:f, pospolita, null]
[129, 130, moje, moja, subst:pl:voc:f, pospolita, null]
[129, 130, moje, mój, depr:pl:nom:m2, pospolita, null]
[129, 130, moje, mój, depr:pl:voc:m2, pospolita, null]
[130, 131, kochane, kochana, subst:pl:acc:f, pospolita, null]
[130, 131, kochane, kochana, subst:pl:nom:f, pospolita, null]
[130, 131, kochane, kochana, subst:pl:voc:f, pospolita, null]
[130, 131, kochane, kochany, depr:pl:nom:m2, pospolita, null]
[130, 131, kochane, kochany, depr:pl:voc:m2, pospolita, null]
[130, 131, kochane, kochać, ppas:pl:nom.acc.voc:m2.m3.f.n1.n2.p2.p3:imperf:aff, pospolita, null]
[130, 131, kochane, kochać, ppas:sg:nom.acc.voc:n1.n2:imperf:aff, pospolita, null]
[130, 131, kochane, kochany, adj:pl:acc:m2.m3.f.n1.n2.p2.p3:pos, pospolita, null]
[130, 131, kochane, kochany, adj:pl:nom.voc:m2.m3.f.n1.n2.p2.p3:pos, pospolita, null]
[130, 131, kochane, kochany, adj:sg:acc:n1.n2:pos, pospolita, null]
[130, 131, kochane, kochany, adj:sg:nom.voc:n1.n2:pos, pospolita, null]
[131, 132, maleństwo, maleństwo, subst:sg:acc:n2, pospolita, null]
[131, 132, maleństwo, maleństwo, subst:sg:nom:n2, pospolita, null]
[131, 132, maleństwo, maleństwo, subst:sg:voc:n2, pospolita, null]
[132, 133, ,, ,, interp, , null]
[133, 134, Przecież, przecież, qub, pospolita, null]
[134, 135, mama, mama, subst:sg:nom:f, pospolita, null]
[135, 136, zawsze, zawsze, adv, pospolita, null]
[136, 137, wie, wiedzieć, fin:sg:ter:imperf, pospolita, null]
[137, 138, co, co, prep:acc, pospolita, null]
[137, 138, co, co, prep:nom, pospolita, null]
[137, 138, co, co, qub, pospolita, null]
[137, 138, co, co, comp, pospolita, null]
[137, 138, co, co, subst:sg:acc:n2, pospolita, null]
[137, 138, co, co, subst:sg:gen:n2, pospolita, null]
[137, 138, co, co, subst:sg:nom:n2, pospolita, null]
[138, 139, jest, być, fin:sg:ter:imperf, pospolita, null]
[139, 140, najlepsze, dobry, adj:pl:acc:m2.m3.f.n1.n2.p2.p3:sup, pospolita, null]
[139, 140, najlepsze, dobry, adj:pl:nom.voc:m2.m3.f.n1.n2.p2.p3:sup, pospolita, null]
[139, 140, najlepsze, dobry, adj:sg:acc:n1.n2:sup, pospolita, null]
[139, 140, najlepsze, dobry, adj:sg:nom.voc:n1.n2:sup, pospolita, null]
[140, 141, dla, dla, prep:gen, pospolita, null]
[141, 142, jej, jej, interj, pospolita, null]
[141, 142, jej, on, ppron3:sg:dat:f:ter:_:npraep, pospolita, null]
[141, 142, jej, on, ppron3:sg:gen:f:ter:_:npraep, pospolita, null]
[142, 143, dziecka, dziecko, subst:sg:gen:n1, pospolita, null]
[142, 143, dziecka, dziecki, adj:sg:nom.voc:f:pos, pospolita, null]
[143, 144, To, ten, adj:sg:acc:n1.n2:pos, pospolita, null]
[143, 144, To, ten, adj:sg:nom.voc:n1.n2:pos, pospolita, null]
[143, 144, To, to, qub, pospolita, null]
[143, 144, To, to, subst:sg:acc:n2, pospolita, null]
[143, 144, To, to, subst:sg:nom:n2, pospolita, null]
[143, 144, To, to, conj, pospolita, null]
[143, 144, To, to, pred, , null]
[144, 145, matczyna, matczyny, adj:sg:nom.voc:f:pos, pospolita, null]
[145, 146, intuicja, intuicja, subst:sg:nom:f, pospolita, null]
[146, 147, Twój, twój, subst:sg:nom:m1, pospolita, null]
[146, 147, Twój, twój, subst:sg:voc:m1, pospolita, null]
[146, 147, Twój, twój, adj:sg:acc:m3:pos, pospolita, null]
[146, 147, Twój, twój, adj:sg:nom.voc:m1.m2.m3:pos, pospolita, null]
[147, 148, każdy, każdy, adj:sg:acc:m3:pos, pospolita, null]
[147, 148, każdy, każdy, adj:sg:nom.voc:m1.m2.m3:pos, pospolita, null]
[148, 149, śledzi, śledź, subst:pl:gen:m2, pospolita, null]
[148, 149, śledzi, śledzić, fin:sg:ter:imperf, pospolita, null]
[149, 150, krok, krok, subst:sg:acc:m3, pospolita, null]
[149, 150, krok, krok, subst:sg:nom:m3, pospolita, null]
[150, 151, To, ten, adj:sg:acc:n1.n2:pos, pospolita, null]
[150, 151, To, ten, adj:sg:nom.voc:n1.n2:pos, pospolita, null]
[150, 151, To, to, qub, pospolita, null]
[150, 151, To, to, subst:sg:acc:n2, pospolita, null]
[150, 151, To, to, subst:sg:nom:n2, pospolita, null]
[150, 151, To, to, conj, pospolita, null]
[150, 151, To, to, pred, , null]
[151, 152, jej, jej, interj, pospolita, null]
[151, 152, jej, on, ppron3:sg:dat:f:ter:_:npraep, pospolita, null]
[151, 152, jej, on, ppron3:sg:gen:f:ter:_:npraep, pospolita, null]
[152, 153, cicha, cichy, adj:sg:nom.voc:f:pos, pospolita, null]
[153, 154, misja, misja, subst:sg:nom:f, pospolita, null]
[154, 155, W, w, prep:acc:nwok, pospolita, null]
[154, 155, W, w, prep:loc:nwok, pospolita, null]
[155, 156, twe, twój, adj:pl:acc:m2.m3.f.n1.n2.p2.p3:pos, pospolita, null]
[155, 156, twe, twój, adj:pl:nom.voc:m2.m3.f.n1.n2.p2.p3:pos, pospolita, null]
[155, 156, twe, twój, adj:sg:acc:n1.n2:pos, pospolita, null]
[155, 156, twe, twój, adj:sg:nom.voc:n1.n2:pos, pospolita, null]
[156, 157, serce, serce, subst:sg:acc:n2, pospolita, null]
[156, 157, serce, serce, subst:sg:nom:n2, pospolita, null]
[156, 157, serce, serce, subst:sg:voc:n2, pospolita, null]
[157, 158, wbijać, wbijać, inf:imperf, pospolita, null]
[158, 159, wzrok, wzrok, subst:sg:acc:m3, pospolita, null]
[158, 159, wzrok, wzrok, subst:sg:nom:m3, pospolita, null]
[159, 160, Matczyną, matczyny, adj:sg:acc:f:pos, pospolita, null]
[159, 160, Matczyną, matczyny, adj:sg:inst:f:pos, pospolita, null]
[160, 161, intuicję, intuicja, subst:sg:acc:f, pospolita, null]
[161, 162, kangurza, kangurzy, adj:sg:nom.voc:f:pos, pospolita, null]
[162, 163, matka, matka, subst:sg:nom:f, pospolita, null]
[163, 164, zna, znać, fin:sg:ter:imperf, pospolita, null]
[164, 165, I, i, interj, pospolita, null]
[164, 165, I, i, qub, pospolita, null]
[164, 165, I, I, romandig, , null]
[164, 165, I, i, conj, pospolita, null]
[165, 166, często, często, adv:pos, pospolita, null]
[166, 167, tak, tak, qub, pospolita, null]
[166, 167, tak, tak, adv:pos, pospolita, null]
[166, 167, tak, taka, subst:pl:gen:f, pospolita, null]
[167, 168, wyraźny, wyraźny, adj:sg:acc:m3:pos, pospolita, null]
[167, 168, wyraźny, wyraźny, adj:sg:nom.voc:m1.m2.m3:pos, pospolita, null]
[168, 169, znak, znak, subst:sg:acc:m3, pospolita, null]
[168, 169, znak, znak, subst:sg:nom:m3, pospolita, null]
[169, 170, o, o, prep:acc, pospolita, null]
[169, 170, o, o, prep:loc, pospolita, null]
[169, 170, o, o, interj, pospolita, null]
[170, 171, jej, jej, interj, pospolita, null]
[170, 171, jej, on, ppron3:sg:dat:f:ter:_:npraep, pospolita, null]
[170, 171, jej, on, ppron3:sg:gen:f:ter:_:npraep, pospolita, null]
[171, 172, istnieniu, istnienie, subst:sg:dat:n2, pospolita, null]
[171, 172, istnieniu, istnienie, subst:sg:loc:n2, pospolita, null]
[171, 172, istnieniu, istnieć, ger:sg:dat.loc:n2:imperf:aff, pospolita, null]
[172, 173, da, dać, fin:sg:ter:perf, pospolita, null]
[172, 173, da, da, interj, pospolita, null]
[173, 174, Bo, bo, qub, pospolita, null]
[173, 174, Bo, bo, comp, pospolita, null]
[174, 175, ona, on, adj:sg:nom.voc:f:pos, pospolita, null]
[174, 175, ona, on, ppron3:sg:nom:f:ter:_:_, pospolita, null]
[175, 176, ze, z, prep:acc:wok, pospolita, null]
[175, 176, ze, z, prep:gen:wok, pospolita, null]
[175, 176, ze, z, prep:inst:wok, pospolita, null]
[176, 177, swą, swój, adj:sg:acc:f:pos, pospolita, null]
[176, 177, swą, swój, adj:sg:inst:f:pos, pospolita, null]
[177, 178, intuicją, intuicja, subst:sg:inst:f, pospolita, null]
[178, 179, Na, na, interj, pospolita, null]
[178, 179, Na, na, prep:acc, pospolita, null]
[178, 179, Na, na, prep:loc, pospolita, null]
[179, 180, wszystko, wszystko, subst:sg:acc:n2, pospolita, null]
[179, 180, wszystko, wszystko, subst:sg:nom:n2, pospolita, null]
[179, 180, wszystko, wszystko, adv, pospolita, null]
[180, 181, radę, rada, subst:sg:acc:f, pospolita, null]
[181, 182, ma, mój, adj:sg:nom.voc:f:pos, pospolita, null]
[181, 182, ma, mieć, fin:sg:ter:imperf, pospolita, null]
[182, 183, To, ten, adj:sg:acc:n1.n2:pos, pospolita, null]
[182, 183, To, ten, adj:sg:nom.voc:n1.n2:pos, pospolita, null]
[182, 183, To, to, qub, pospolita, null]
[182, 183, To, to, subst:sg:acc:n2, pospolita, null]
[182, 183, To, to, subst:sg:nom:n2, pospolita, null]
[182, 183, To, to, conj, pospolita, null]
[182, 183, To, to, pred, , null]
[183, 184, matczyna, matczyny, adj:sg:nom.voc:f:pos, pospolita, null]
[184, 185, intuicja, intuicja, subst:sg:nom:f, pospolita, null]
[185, 186, nakaże, nakazać, fin:sg:ter:perf, pospolita, null]
[186, 187, dziecko, dziecko, subst:sg:acc:n1, pospolita, null]
[186, 187, dziecko, dziecko, subst:sg:nom:n1, pospolita, null]
[186, 187, dziecko, dziecko, subst:sg:voc:n1, pospolita, null]
[187, 188, myć, myć, inf:imperf, pospolita, null]
[187, 188, myć, mycie, subst:pl:gen:n2, pospolita, null]
[188, 189, ,, ,, interp, , null]
[189, 190, By, by, qub, pospolita, null]
[189, 190, By, by, comp, pospolita, null]
[190, 191, były, być, praet:pl:m2.m3.f.n1.n2.p2.p3:imperf, pospolita, null]
[190, 191, były, były, subst:sg:nom:m1, pospolita, null]
[190, 191, były, były, subst:sg:voc:m1, pospolita, null]
[190, 191, były, były, adj:sg:acc:m3:pos, pospolita, null]
[190, 191, były, były, adj:sg:nom.voc:m1.m2.m3:pos, pospolita, null]
[191, 192, czyste, czysta, subst:pl:acc:f, pospolita, null]
[191, 192, czyste, czysta, subst:pl:nom:f, pospolita, null]
[191, 192, czyste, czysta, subst:pl:voc:f, pospolita, null]
[191, 192, czyste, czysty, adj:pl:acc:m2.m3.f.n1.n2.p2.p3:pos, pospolita, null]
[191, 192, czyste, czysty, adj:pl:nom.voc:m2.m3.f.n1.n2.p2.p3:pos, pospolita, null]
[191, 192, czyste, czysty, adj:sg:acc:n1.n2:pos, pospolita, null]
[191, 192, czyste, czysty, adj:sg:nom.voc:n1.n2:pos, pospolita, null]
[192, 193, uszy, ucho, subst:pl:acc:n1, pospolita, null]
[192, 193, uszy, ucho, subst:pl:nom:n1, pospolita, null]
[192, 193, uszy, ucho, subst:pl:voc:n1, pospolita, null]
[193, 194, a, a, conj, pospolita, null]
[193, 194, a, a, interj, pospolita, null]
[193, 194, a, a, prep:nom, pospolita, null]
[193, 194, a, a, qub, pospolita, null]
[194, 195, i, i, interj, pospolita, null]
[194, 195, i, i, qub, pospolita, null]
[194, 195, i, i, conj, pospolita, null]
[195, 196, ogonek, ogonek, subst:sg:acc:m3, pospolita, null]
[195, 196, ogonek, ogonek, subst:sg:nom:m3, pospolita, null]
[196, 197, także, także, qub, pospolita, null]
[197, 198, musi, musieć, fin:sg:ter:imperf, pospolita, null]
[197, 198, musi, musić, fin:sg:ter:imperf, pospolita, null]
[197, 198, musi, muszy, adj:pl:nom.voc:m1.p1:pos, pospolita, null]
[198, 199, lśnić, lśnić, inf:imperf, pospolita, null]
[199, 200, Gdy, gdy, adv, pospolita, null]
[200, 201, zacznie, zacząć, fin:sg:ter:perf, pospolita, null]
[201, 202, szorowanie, szorować, ger:sg:nom.acc:n2:imperf:aff, pospolita, null]
[202, 203, to, ten, adj:sg:acc:n1.n2:pos, pospolita, null]
[202, 203, to, ten, adj:sg:nom.voc:n1.n2:pos, pospolita, null]
[202, 203, to, to, qub, pospolita, null]
[202, 203, to, to, subst:sg:acc:n2, pospolita, null]
[202, 203, to, to, subst:sg:nom:n2, pospolita, null]
[202, 203, to, to, conj, pospolita, null]
[202, 203, to, to, pred, , null]
[203, 204, wszystko, wszystko, subst:sg:acc:n2, pospolita, null]
[203, 204, wszystko, wszystko, subst:sg:nom:n2, pospolita, null]
[203, 204, wszystko, wszystko, adv, pospolita, null]
[204, 205, z, z, prep:acc:nwok, pospolita, null]
[204, 205, z, z, prep:gen:nwok, pospolita, null]
[204, 205, z, z, prep:inst:nwok, pospolita, null]
[205, 206, siebie, siebie, siebie:acc, , null]
[205, 206, siebie, siebie, siebie:gen, , null]
[206, 207, Jej, jej, interj, pospolita, null]
[206, 207, Jej, on, ppron3:sg:dat:f:ter:_:npraep, pospolita, null]
[206, 207, Jej, on, ppron3:sg:gen:f:ter:_:npraep, pospolita, null]
[207, 208, każdy, każdy, adj:sg:acc:m3:pos, pospolita, null]
[207, 208, każdy, każdy, adj:sg:nom.voc:m1.m2.m3:pos, pospolita, null]
[208, 209, gest, gest, subst:sg:acc:m3, pospolita, null]
[208, 209, gest, gest, subst:sg:nom:m3, pospolita, null]
[209, 210, dokładny, dokładny, adj:sg:acc:m3:pos, pospolita, null]
[209, 210, dokładny, dokładny, adj:sg:nom.voc:m1.m2.m3:pos, pospolita, null]
[210, 211, jest, być, fin:sg:ter:imperf, pospolita, null]
[211, 212, tak, tak, qub, pospolita, null]
[211, 212, tak, tak, adv:pos, pospolita, null]
[211, 212, tak, taka, subst:pl:gen:f, pospolita, null]
[212, 213, jak, jak, adv, pospolita, null]
[212, 213, jak, jak, conj, pospolita, null]
[212, 213, jak, jak, prep:nom, pospolita, null]
[212, 213, jak, jak, adv:pos, pospolita, null]
[212, 213, jak, jak, subst:sg:nom:m2, pospolita, null]
[212, 213, jak, jaka, subst:pl:gen:f, pospolita, null]
[213, 214, dwa, dwa, num:pl:nom.acc.voc:m2.m3.n2:congr, pospolita, null]
[214, 215, razy, raz, subst:pl:acc:m3, pospolita, null]
[214, 215, razy, raz, subst:pl:gen:m3, pospolita, null]
[214, 215, razy, raz, subst:pl:nom:m3, pospolita, null]
[214, 215, razy, raz, subst:pl:voc:m3, pospolita, null]
[215, 216, dwa, dwa, num:pl:nom.acc.voc:m2.m3.n2:congr, pospolita, null]
[216, 217, Bo, bo, qub, pospolita, null]
[216, 217, Bo, bo, comp, pospolita, null]
[217, 218, ona, on, adj:sg:nom.voc:f:pos, pospolita, null]
[217, 218, ona, on, ppron3:sg:nom:f:ter:_:_, pospolita, null]
[218, 219, ze, z, prep:acc:wok, pospolita, null]
[218, 219, ze, z, prep:gen:wok, pospolita, null]
[218, 219, ze, z, prep:inst:wok, pospolita, null]
[219, 220, swą, swój, adj:sg:acc:f:pos, pospolita, null]
[219, 220, swą, swój, adj:sg:inst:f:pos, pospolita, null]
[220, 221, intuicją, intuicja, subst:sg:inst:f, pospolita, null]
[221, 222, Na, na, interj, pospolita, null]
[221, 222, Na, na, prep:acc, pospolita, null]
[221, 222, Na, na, prep:loc, pospolita, null]
[222, 223, wszystko, wszystko, subst:sg:acc:n2, pospolita, null]
[222, 223, wszystko, wszystko, subst:sg:nom:n2, pospolita, null]
[222, 223, wszystko, wszystko, adv, pospolita, null]
[223, 224, radę, rada, subst:sg:acc:f, pospolita, null]
[224, 225, ma, mój, adj:sg:nom.voc:f:pos, pospolita, null]
[224, 225, ma, mieć, fin:sg:ter:imperf, pospolita, null]
[225, 226, Wspaniale, wspaniale, adv:pos, pospolita, null]
[226, 227, matka, matka, subst:sg:nom:f, pospolita, null]
[227, 228, czuje, czuć, fin:sg:ter:imperf, pospolita, null]
[227, 228, czuje, czuj, subst:pl:acc:m2, pospolita, null]
[227, 228, czuje, czuj, subst:pl:nom:m2, pospolita, null]
[227, 228, czuje, czuj, subst:pl:voc:m2, pospolita, null]
[227, 228, czuje, czuja, subst:pl:acc:f, pospolita, null]
[227, 228, czuje, czuja, subst:pl:nom:f, pospolita, null]
[227, 228, czuje, czuja, subst:pl:voc:f, pospolita, null]
[228, 229, i, i, interj, pospolita, null]
[228, 229, i, i, qub, pospolita, null]
[228, 229, i, i, conj, pospolita, null]
[229, 230, w, w, prep:acc:nwok, pospolita, null]
[229, 230, w, w, prep:loc:nwok, pospolita, null]
[230, 231, mig, mig, subst:sg:acc:m3, pospolita, null]
[230, 231, mig, mig, subst:sg:nom:m3, pospolita, null]
[230, 231, mig, mig, interj, pospolita, null]
[231, 232, zwróci, zwrócić, fin:sg:ter:perf, pospolita, null]
[232, 233, uwagę, uwaga, subst:sg:acc:f, pospolita, null]
[233, 234, ,, ,, interp, , null]
[234, 235, Że, że, comp, pospolita, null]
[234, 235, Że, że, qub, pospolita, null]
[235, 236, kto, kto, subst:sg:nom:m1, pospolita, null]
[235, 237, ktoś, ktoś, subst:sg:nom:m1, pospolita, null]
[236, 237, ś, być, aglt:sg:sec:imperf:nwok, pospolita, null]
[237, 238, co, co, comp, pospolita, null]
[237, 238, co, co, subst:sg:acc:n2, pospolita, null]
[237, 238, co, co, subst:sg:gen:n2, pospolita, null]
[237, 238, co, co, subst:sg:nom:n2, pospolita, null]
[237, 239, coś, coś, qub, pospolita, null]
[237, 239, coś, coś, subst:sg:acc:n2, pospolita, null]
[237, 239, coś, coś, subst:sg:gen:n2, pospolita, null]
[237, 239, coś, coś, subst:sg:nom:n2, pospolita, null]
[238, 239, ś, być, aglt:sg:sec:imperf:nwok, pospolita, null]
[239, 240, kombinuje, kombinować, fin:sg:ter:imperf, pospolita, null]
[240, 241, ,, ,, interp, , null]
[241, 242, że, że, comp, pospolita, null]
[241, 242, że, że, qub, pospolita, null]
[242, 243, ukryć, ukryć, inf:perf, pospolita, null]
[242, 243, ukryć, ukrycie, subst:pl:gen:n2, pospolita, null]
[243, 244, pragnie, pragnąć, fin:sg:ter:imperf, pospolita, null]
[244, 245, co, co, comp, pospolita, null]
[244, 245, co, co, subst:sg:acc:n2, pospolita, null]
[244, 245, co, co, subst:sg:gen:n2, pospolita, null]
[244, 245, co, co, subst:sg:nom:n2, pospolita, null]
[244, 246, coś, coś, qub, pospolita, null]
[244, 246, coś, coś, subst:sg:acc:n2, pospolita, null]
[244, 246, coś, coś, subst:sg:gen:n2, pospolita, null]
[244, 246, coś, coś, subst:sg:nom:n2, pospolita, null]
[245, 246, ś, być, aglt:sg:sec:imperf:nwok, pospolita, null]
[246, 247, Wykruszy, wykruszyć, fin:sg:ter:perf, pospolita, null]
[247, 248, z, z, prep:acc:nwok, pospolita, null]
[247, 248, z, z, prep:gen:nwok, pospolita, null]
[247, 248, z, z, prep:inst:nwok, pospolita, null]
[248, 249, duszy, dusza, subst:sg:dat:f, pospolita, null]
[248, 249, duszy, dusza, subst:sg:gen:f, pospolita, null]
[248, 249, duszy, dusza, subst:sg:loc:f, pospolita, null]
[249, 250, tajemnicę, tajemnica, subst:sg:acc:f, pospolita, null]
[250, 251, ,, ,, interp, , null]
[251, 252, Aż, aż, comp, pospolita, null]
[251, 252, Aż, aż, qub, pospolita, null]
[252, 253, prawdę, prawda, subst:sg:acc:f, pospolita, null]
[253, 254, wyzna, wyznać, fin:sg:ter:perf, pospolita, null]
[254, 255, kto, kto, subst:sg:nom:m1, pospolita, null]
[254, 256, ktoś, ktoś, subst:sg:nom:m1, pospolita, null]
[255, 256, ś, być, aglt:sg:sec:imperf:nwok, pospolita, null]
[256, 257, Potem, Pot, subst:sg:inst:m1, nazwisko, null]
[256, 257, Potem, pot, subst:sg:inst:m3, pospolita, null]
[256, 257, Potem, potem, adv, pospolita, null]
[257, 258, szczotki, szczotka, subst:pl:acc:f, pospolita, null]
[257, 258, szczotki, szczotka, subst:pl:nom:f, pospolita, null]
[257, 258, szczotki, szczotka, subst:pl:voc:f, pospolita, null]
[257, 258, szczotki, szczotka, subst:sg:gen:f, pospolita, null]
[258, 259, włos, włos, subst:sg:acc:m3, pospolita, null]
[258, 259, włos, włos, subst:sg:nom:m3, pospolita, null]
[259, 260, twym, twój, adj:pl:dat:m1.m2.m3.f.n1.n2.p1.p2.p3:pos, pospolita, null]
[259, 260, twym, twój, adj:sg:inst:m1.m2.m3.n1.n2:pos, pospolita, null]
[259, 260, twym, twój, adj:sg:loc:m1.m2.m3.n1.n2:pos, pospolita, null]
[260, 261, zębom, ząb, subst:pl:dat:m2, pospolita, null]
[260, 261, zębom, ząb, subst:pl:dat:m3, pospolita, null]
[261, 262, połysk, połysk, subst:sg:acc:m3, pospolita, null]
[261, 262, połysk, połysk, subst:sg:nom:m3, pospolita, null]
[262, 263, da, dać, fin:sg:ter:perf, pospolita, null]
[262, 263, da, da, interj, pospolita, null]
[263, 264, Aż, aż, comp, pospolita, null]
[263, 264, Aż, aż, qub, pospolita, null]
[264, 265, cały, cały, adj:sg:acc:m3:pos, pospolita, null]
[264, 265, cały, cały, adj:sg:nom.voc:m1.m2.m3:pos, pospolita, null]
[265, 266, rozpromienisz, rozpromienić, fin:sg:sec:perf, pospolita, null]
[266, 267, się, się, qub, , null]
[266, 267, się, się, qub, pospolita, null]
[267, 268, i, i, interj, pospolita, null]
[267, 268, i, i, qub, pospolita, null]
[267, 268, i, i, conj, pospolita, null]
[268, 269, właśnie, właśnie, adv, pospolita, null]
[268, 269, właśnie, właśnie, qub, pospolita, null]
[269, 270, wtedy, wtedy, adv, pospolita, null]
[270, 271, poznasz, poznać, fin:sg:sec:perf, pospolita, null]
[271, 272, Swoje, swoje, subst:pl:acc:n2, pospolita, null]
[271, 272, Swoje, swoje, subst:pl:nom:n2, pospolita, null]
[271, 272, Swoje, swoje, subst:pl:voc:n2, pospolita, null]
[271, 272, Swoje, swoje, subst:sg:acc:n2, pospolita, null]
[271, 272, Swoje, swoje, subst:sg:nom:n2, pospolita, null]
[271, 272, Swoje, swoje, subst:sg:voc:n2, pospolita, null]
[271, 272, Swoje, swój, adj:pl:acc:m2.m3.f.n1.n2.p2.p3:pos, pospolita, null]
[271, 272, Swoje, swój, adj:pl:nom.voc:m2.m3.f.n1.n2.p2.p3:pos, pospolita, null]
[271, 272, Swoje, swój, adj:sg:acc:n1.n2:pos, pospolita, null]
[271, 272, Swoje, swój, adj:sg:nom.voc:n1.n2:pos, pospolita, null]
[272, 273, ja, ja, ppron12:sg:voc:m1.m2.m3.f.n1.n2:pri, pospolita, null]
[272, 273, ja, ja, ppron12:sg:nom:m1.m2.m3.f.n1.n2:pri, pospolita, null]
[273, 274, Czy, czy, conj, pospolita, null]
[273, 274, Czy, czy, qub, pospolita, null]
[274, 275, to, ten, adj:sg:acc:n1.n2:pos, pospolita, null]
[274, 275, to, ten, adj:sg:nom.voc:n1.n2:pos, pospolita, null]
[274, 275, to, to, qub, pospolita, null]
[274, 275, to, to, subst:sg:acc:n2, pospolita, null]
[274, 275, to, to, subst:sg:nom:n2, pospolita, null]
[274, 275, to, to, conj, pospolita, null]
[274, 275, to, to, pred, , null]
[275, 276, nie, nie, conj, pospolita, null]
[275, 276, nie, nie, qub, pospolita, null]
[275, 276, nie, on, ppron3:pl:acc:m2.m3.f.n1.n2.p2.p3:ter:_:praep, pospolita, null]
[275, 276, nie, on, ppron3:sg:acc:n1.n2:ter:_:praep, pospolita, null]
[276, 277, piękne, piękne, subst:pl:acc:n2, pospolita, null]
[276, 277, piękne, piękne, subst:pl:nom:n2, pospolita, null]
[276, 277, piękne, piękne, subst:pl:voc:n2, pospolita, null]
[276, 277, piękne, piękne, subst:sg:acc:n2, pospolita, null]
[276, 277, piękne, piękne, subst:sg:nom:n2, pospolita, null]
[276, 277, piękne, piękne, subst:sg:voc:n2, pospolita, null]
[276, 277, piękne, piękny, adj:pl:acc:m2.m3.f.n1.n2.p2.p3:pos, pospolita, null]
[276, 277, piękne, piękny, adj:pl:nom.voc:m2.m3.f.n1.n2.p2.p3:pos, pospolita, null]
[276, 277, piękne, piękny, adj:sg:acc:n1.n2:pos, pospolita, null]
[276, 277, piękne, piękny, adj:sg:nom.voc:n1.n2:pos, pospolita, null]
[277, 278, ?, ?, interp, , null]
[278, 279, Mamusia, mamusia, subst:sg:nom:f, pospolita, null]
[279, 280, i, i, interj, pospolita, null]
[279, 280, i, i, qub, pospolita, null]
[279, 280, i, i, conj, pospolita, null]
[280, 281, maleństwem, maleństwo, subst:sg:inst:n2, pospolita, null]
[281, 282, swym, swój, adj:pl:dat:m1.m2.m3.f.n1.n2.p1.p2.p3:pos, pospolita, null]
[281, 282, swym, swój, adj:sg:inst:m1.m2.m3.n1.n2:pos, pospolita, null]
[281, 282, swym, swój, adj:sg:loc:m1.m2.m3.n1.n2:pos, pospolita, null]
[282, 283, Świeżym, świeży, adj:pl:dat:m1.m2.m3.f.n1.n2.p1.p2.p3:pos, pospolita, null]
[282, 283, Świeżym, świeży, adj:sg:inst:m1.m2.m3.n1.n2:pos, pospolita, null]
[282, 283, Świeżym, świeży, adj:sg:loc:m1.m2.m3.n1.n2:pos, pospolita, null]
[283, 284, jak, jak, adv, pospolita, null]
[283, 284, jak, jak, conj, pospolita, null]
[283, 284, jak, jak, prep:nom, pospolita, null]
[283, 284, jak, jak, adv:pos, pospolita, null]
[283, 284, jak, jak, subst:sg:nom:m2, pospolita, null]
[283, 284, jak, jaka, subst:pl:gen:f, pospolita, null]
[284, 285, kwiatek, kwiatek, subst:sg:acc:m3, pospolita, null]
[284, 285, kwiatek, kwiatek, subst:sg:nom:m2, pospolita, null]
[284, 285, kwiatek, kwiatek, subst:sg:nom:m3, pospolita, null]
[285, 286, Z, z, prep:acc:nwok, pospolita, null]
[285, 286, Z, z, prep:gen:nwok, pospolita, null]
[285, 286, Z, z, prep:inst:nwok, pospolita, null]
[286, 287, rosy, rosa, subst:pl:acc:f, pospolita, null]
[286, 287, rosy, rosa, subst:pl:nom:f, pospolita, null]
[286, 287, rosy, rosa, subst:pl:voc:f, pospolita, null]
[286, 287, rosy, rosa, subst:sg:gen:f, pospolita, null]
[287, 288, kropelką, kropelka, subst:sg:inst:f, pospolita, null]
[288, 289, w, w, prep:acc:nwok, pospolita, null]
[288, 289, w, w, prep:loc:nwok, pospolita, null]
[289, 290, nim, nim, comp, pospolita, null]
[289, 290, nim, on, ppron3:pl:dat:_:ter:_:praep, pospolita, null]
[289, 290, nim, on, ppron3:sg:inst:m1.m2.m3:ter:_:_, pospolita, null]
[289, 290, nim, on, ppron3:sg:inst:n1.n2:ter:_:_, pospolita, null]
[289, 290, nim, on, ppron3:sg:loc:m1.m2.m3:ter:_:_, pospolita, null]
[289, 290, nim, on, ppron3:sg:loc:n1.n2:ter:_:_, pospolita, null]
[290, 291, To, ten, adj:sg:acc:n1.n2:pos, pospolita, null]
[290, 291, To, ten, adj:sg:nom.voc:n1.n2:pos, pospolita, null]
[290, 291, To, to, qub, pospolita, null]
[290, 291, To, to, subst:sg:acc:n2, pospolita, null]
[290, 291, To, to, subst:sg:nom:n2, pospolita, null]
[290, 291, To, to, conj, pospolita, null]
[290, 291, To, to, pred, , null]
[291, 292, matczyna, matczyny, adj:sg:nom.voc:f:pos, pospolita, null]
[292, 293, intuicja, intuicja, subst:sg:nom:f, pospolita, null]
[293, 294, To, ten, adj:sg:acc:n1.n2:pos, pospolita, null]
[293, 294, To, ten, adj:sg:nom.voc:n1.n2:pos, pospolita, null]
[293, 294, To, to, qub, pospolita, null]
[293, 294, To, to, subst:sg:acc:n2, pospolita, null]
[293, 294, To, to, subst:sg:nom:n2, pospolita, null]
[293, 294, To, to, conj, pospolita, null]
[293, 294, To, to, pred, , null]
[294, 295, matczyna, matczyny, adj:sg:nom.voc:f:pos, pospolita, null]
[295, 296, intuicja, intuicja, subst:sg:nom:f, pospolita, null]
[296, 297, To, ten, adj:sg:acc:n1.n2:pos, pospolita, null]
[296, 297, To, ten, adj:sg:nom.voc:n1.n2:pos, pospolita, null]
[296, 297, To, to, qub, pospolita, null]
[296, 297, To, to, subst:sg:acc:n2, pospolita, null]
[296, 297, To, to, subst:sg:nom:n2, pospolita, null]
[296, 297, To, to, conj, pospolita, null]
[296, 297, To, to, pred, , null]
[297, 298, matczyna, matczyny, adj:sg:nom.voc:f:pos, pospolita, null]
[298, 299, intuicja, intuicja, subst:sg:nom:f, pospolita, null]
