[0, 1, Słyszał, słyszeć, praet:sg:m1.m2.m3:imperf, pospolita, null]
[1, 2, em, być, aglt:sg:pri:imperf:wok, pospolita, null]
[2, 3, ,, ,, interp, , null]
[3, 4, że, że, comp, pospolita, null]
[3, 4, że, że, qub, pospolita, null]
[4, 5, po, po, prep:acc, pospolita, null]
[4, 5, po, po, prep:loc, pospolita, null]
[5, 6, zdobyciu, zdobycie, subst:sg:dat:n2, pospolita, null]
[5, 6, zdobyciu, zdobycie, subst:sg:loc:n2, pospolita, null]
[5, 6, zdobyciu, zdobyć, ger:sg:dat.loc:n2:perf:aff, pospolita, null]
[6, 7, Oskara, Oskar, subst:sg:acc:m1, imię, null]
[6, 7, Oskara, Oskar, subst:sg:gen:m1, imię, null]
[7, 8, nie, nie, conj, pospolita, null]
[7, 8, nie, nie, qub, pospolita, null]
[7, 8, nie, on, ppron3:pl:acc:m2.m3.f.n1.n2.p2.p3:ter:_:praep, pospolita, null]
[7, 8, nie, on, ppron3:sg:acc:n1.n2:ter:_:praep, pospolita, null]
[8, 9, można, możny, adj:sg:nom.voc:f:pos, pospolita, null]
[8, 9, można, można, pred, pospolita, null]
[9, 10, się, się, qub, , null]
[9, 10, się, się, qub, pospolita, null]
[10, 11, już, już, qub, pospolita, null]
[11, 12, ", ", interp, , null]
[12, 13, Idą, iść, fin:pl:ter:imperf, pospolita, null]
[12, 13, Idą, Ida, subst:sg:inst:f, imię, null]
[13, 14, ", ", interp, , null]
[14, 15, nie, nie, conj, pospolita, null]
[14, 15, nie, nie, qub, pospolita, null]
[14, 15, nie, on, ppron3:pl:acc:m2.m3.f.n1.n2.p2.p3:ter:_:praep, pospolita, null]
[14, 15, nie, on, ppron3:sg:acc:n1.n2:ter:_:praep, pospolita, null]
[15, 16, zachwycić, zachwycić, inf:perf, pospolita, null]
[16, 17, ., ., interp, , null]
[17, 18, I, i, interj, pospolita, null]
[17, 18, I, i, qub, pospolita, null]
[17, 18, I, I, romandig, , null]
[17, 18, I, i, conj, pospolita, null]
[18, 19, faktycznie, faktycznie, adv:pos, pospolita, null]
[19, 20, ,, ,, interp, , null]
[20, 21, film, film, subst:sg:acc:m3, pospolita, null]
[20, 21, film, film, subst:sg:nom:m3, pospolita, null]
[21, 22, sam, sam, subst:sg:acc:m3, pospolita, null]
[21, 22, sam, sam, subst:sg:nom:m3, pospolita, null]
[21, 22, sam, sam, adj:sg:acc:m3:pos, pospolita, null]
[21, 22, sam, sam, adj:sg:nom.voc:m1.m2.m3:pos, pospolita, null]
[21, 22, sam, sam, adv, pospolita, null]
[22, 23, w, w, prep:acc:nwok, pospolita, null]
[22, 23, w, w, prep:loc:nwok, pospolita, null]
[23, 24, sobie, siebie, siebie:dat, , null]
[23, 24, sobie, siebie, siebie:loc, , null]
[24, 25, porusza, poruszać, fin:sg:ter:perf, pospolita, null]
[24, 25, porusza, poruszać, fin:sg:ter:imperf, pospolita, null]
[25, 26, i, i, interj, pospolita, null]
[25, 26, i, i, qub, pospolita, null]
[25, 26, i, i, conj, pospolita, null]
[26, 27, urzeka, urzekać, fin:sg:ter:imperf, pospolita, null]
[27, 28, zdjęciami, zdjęcia, subst:pl:inst:p3, pospolita, null]
[27, 28, zdjęciami, zdjęcie, subst:pl:inst:n2, pospolita, null]
[28, 29, ., ., interp, , null]
[29, 30, Bez, bez, subst:sg:acc:m3, pospolita, null]
[29, 30, Bez, bez, subst:sg:nom:m3, pospolita, null]
[29, 30, Bez, beza, subst:pl:gen:f, pospolita, null]
[29, 30, Bez, bez, prep:gen:nwok, pospolita, null]
[30, 31, kontekstu, kontekst, subst:sg:gen:m3, pospolita, null]
[31, 32, historycznego, historyczny, adj:sg:acc:m1.m2:pos, pospolita, null]
[31, 32, historycznego, historyczny, adj:sg:gen:m1.m2.m3.n1.n2:pos, pospolita, null]
[32, 33, ,, ,, interp, , null]
[33, 34, to, ten, adj:sg:acc:n1.n2:pos, pospolita, null]
[33, 34, to, ten, adj:sg:nom.voc:n1.n2:pos, pospolita, null]
[33, 34, to, to, qub, pospolita, null]
[33, 34, to, to, subst:sg:acc:n2, pospolita, null]
[33, 34, to, to, subst:sg:nom:n2, pospolita, null]
[33, 34, to, to, conj, pospolita, null]
[33, 34, to, to, pred, , null]
[34, 35, jednak, jednak, conj, pospolita, null]
[34, 35, jednak, jednak, qub, pospolita, null]
[35, 36, zbiór, zbiór, subst:sg:acc:m3, pospolita, null]
[35, 36, zbiór, zbiór, subst:sg:nom:m3, pospolita, null]
[36, 37, pięknych, piękne, subst:pl:gen:n2, pospolita, null]
[36, 37, pięknych, piękne, subst:pl:loc:n2, pospolita, null]
[36, 37, pięknych, piękny, adj:pl:acc:m1.p1:pos, pospolita, null]
[36, 37, pięknych, piękny, adj:pl:gen:m1.m2.m3.f.n1.n2.p1.p2.p3:pos, pospolita, null]
[36, 37, pięknych, piękny, adj:pl:loc:m1.m2.m3.f.n1.n2.p1.p2.p3:pos, pospolita, null]
[37, 38, pocztówek, pocztówka, subst:pl:gen:f, pospolita, null]
[38, 39, ., ., interp, , null]
[39, 40, A, a, conj, pospolita, null]
[39, 40, A, a, interj, pospolita, null]
[39, 40, A, a, prep:nom, pospolita, null]
[39, 40, A, a, qub, pospolita, null]
[40, 41, niestety, niestety, qub, pospolita, null]
[41, 42, ,, ,, interp, , null]
[42, 43, właśnie, właśnie, adv, pospolita, null]
[42, 43, właśnie, właśnie, qub, pospolita, null]
[43, 44, kontekstu, kontekst, subst:sg:gen:m3, pospolita, null]
[44, 45, w, w, prep:acc:nwok, pospolita, null]
[44, 45, w, w, prep:loc:nwok, pospolita, null]
[45, 46, ", ", interp, , null]
[46, 47, Idzie, id, subst:sg:loc:m3, pospolita, null]
[46, 47, Idzie, id, subst:sg:voc:m3, pospolita, null]
[46, 47, Idzie, Ida, subst:sg:dat:f, imię, null]
[46, 47, Idzie, Ida, subst:sg:loc:f, imię, null]
[46, 47, Idzie, Idzi, depr:pl:nom:m2, imię, null]
[46, 47, Idzie, Idzi, depr:pl:voc:m2, imię, null]
[46, 47, Idzie, iść, fin:sg:ter:imperf, pospolita, null]
[47, 48, ", ", interp, , null]
[48, 49, brakuje, brakować, fin:sg:ter:imperf, pospolita, null]
[49, 50, najbardziej, najbardziej, adv, pospolita, null]
[50, 51, ., ., interp, , null]
[51, 52, ", ", interp, , null]
[52, 53, Ida, Ida, subst:sg:nom:f, imię, null]
[53, 54, ", ", interp, , null]
[54, 55, -, -, interp, , null]
[55, 56, ten, ten, adj:sg:acc:m3:pos, pospolita, null]
[55, 56, ten, ten, adj:sg:nom.voc:m1.m2.m3:pos, pospolita, null]
[56, 57, tytuł, tytuł, subst:sg:acc:m3, pospolita, null]
[56, 57, tytuł, tytuł, subst:sg:nom:m3, pospolita, null]
[57, 58, od, od, prep:gen:nwok, pospolita, null]
[58, 59, kilku, kilka, num:pl:acc:m1:rec, pospolita, null]
[58, 59, kilku, kilka, num:pl:gen.dat.inst.loc:m1.m2.m3.f.n2:congr, pospolita, null]
[58, 59, kilku, kilka, num:pl:nom.voc:m1:rec, pospolita, null]
[59, 60, miesięcy, miesiąc, subst:pl:gen:m3, pospolita, null]
[60, 61, odmieniany, odmieniać, ppas:sg:acc:m3:imperf:aff, pospolita, null]
[60, 61, odmieniany, odmieniać, ppas:sg:nom.voc:m1.m2.m3:imperf:aff, pospolita, null]
[61, 62, jest, być, fin:sg:ter:imperf, pospolita, null]
[62, 63, przez, przez, prep:acc:nwok, pospolita, null]
[63, 64, wszystkie, wszystek, adj:pl:acc:m2.m3.f.n1.n2.p2.p3:pos, pospolita, null]
[63, 64, wszystkie, wszystek, adj:pl:nom.voc:m2.m3.f.n1.n2.p2.p3:pos, pospolita, null]
[63, 64, wszystkie, wszystek, adj:sg:acc:n1.n2:pos, pospolita, null]
[63, 64, wszystkie, wszystek, adj:sg:nom.voc:n1.n2:pos, pospolita, null]
[64, 65, przypadki, przypadek, subst:pl:acc:m3, pospolita, null]
[64, 65, przypadki, przypadek, subst:pl:nom:m3, pospolita, null]
[64, 65, przypadki, przypadek, subst:pl:voc:m3, pospolita, null]
[65, 66, ., ., interp, , null]
[66, 67, I, i, interj, pospolita, null]
[66, 67, I, i, qub, pospolita, null]
[66, 67, I, I, romandig, , null]
[66, 67, I, i, conj, pospolita, null]
[67, 68, będzie, być, bedzie:sg:ter:imperf, pospolita, null]
[68, 69, jeszcze, jeszcze, qub, pospolita, null]
[69, 70, przez, przez, prep:acc:nwok, pospolita, null]
[70, 71, długie, długi, adj:pl:acc:m2.m3.f.n1.n2.p2.p3:pos, pospolita, null]
[70, 71, długie, długi, adj:pl:nom.voc:m2.m3.f.n1.n2.p2.p3:pos, pospolita, null]
[70, 71, długie, długi, adj:sg:acc:n1.n2:pos, pospolita, null]
[70, 71, długie, długi, adj:sg:nom.voc:n1.n2:pos, pospolita, null]
[71, 72, lata, latać, fin:sg:ter:imperf, pospolita, null]
[71, 72, lata, lato, subst:pl:acc:n2, pospolita, null]
[71, 72, lata, lato, subst:pl:nom:n2, pospolita, null]
[71, 72, lata, lato, subst:pl:voc:n2, pospolita, null]
[71, 72, lata, lato, subst:sg:gen:n2, pospolita, null]
[71, 72, lata, rok, subst:pl:acc:m3, pospolita, null]
[71, 72, lata, rok, subst:pl:nom:m3, pospolita, null]
[71, 72, lata, rok, subst:pl:voc:m3, pospolita, null]
[72, 73, ., ., interp, , null]
[73, 74, W, w, prep:acc:nwok, pospolita, null]
[73, 74, W, w, prep:loc:nwok, pospolita, null]
[74, 75, końcu, koniec, subst:sg:loc:m3, pospolita, null]
[74, 75, końcu, koniec, subst:sg:voc:m3, pospolita, null]
[75, 76, po, po, prep:acc, pospolita, null]
[75, 76, po, po, prep:loc, pospolita, null]
[76, 77, raz, raz, subst:sg:acc:m3, pospolita, null]
[76, 77, raz, raz, subst:sg:nom:m3, pospolita, null]
[77, 78, pierwszy, pierwszy, subst:sg:acc:m3, pospolita, null]
[77, 78, pierwszy, pierwszy, subst:sg:nom:m3, pospolita, null]
[77, 78, pierwszy, pierwszy, subst:sg:voc:m3, pospolita, null]
[77, 78, pierwszy, pierwszy, adj:sg:acc:m3:pos, pospolita, null]
[77, 78, pierwszy, pierwszy, adj:sg:nom.voc:m1.m2.m3:pos, pospolita, null]
[78, 79, od, od, prep:gen:nwok, pospolita, null]
[79, 80, 1957, 1957, dig, , null]
[80, 81, ,, ,, interp, , null]
[81, 82, kiedy, kiedy, adv, pospolita, null]
[81, 82, kiedy, kiedy, comp, pospolita, null]
[82, 83, do, do, subst:pl:acc:n2, pospolita, null]
[82, 83, do, do, subst:pl:dat:n2, pospolita, null]
[82, 83, do, do, subst:pl:gen:n2, pospolita, null]
[82, 83, do, do, subst:pl:inst:n2, pospolita, null]
[82, 83, do, do, subst:pl:loc:n2, pospolita, null]
[82, 83, do, do, subst:pl:nom:n2, pospolita, null]
[82, 83, do, do, subst:pl:voc:n2, pospolita, null]
[82, 83, do, do, subst:sg:acc:n2, pospolita, null]
[82, 83, do, do, subst:sg:dat:n2, pospolita, null]
[82, 83, do, do, subst:sg:gen:n2, pospolita, null]
[82, 83, do, do, subst:sg:inst:n2, pospolita, null]
[82, 83, do, do, subst:sg:loc:n2, pospolita, null]
[82, 83, do, do, subst:sg:nom:n2, pospolita, null]
[82, 83, do, do, subst:sg:voc:n2, pospolita, null]
[82, 83, do, do, prep:gen, pospolita, null]
[83, 84, wyścigu, wyścig, subst:sg:gen:m3, pospolita, null]
[83, 84, wyścigu, wyścig, subst:sg:loc:m3, pospolita, null]
[83, 84, wyścigu, wyścig, subst:sg:voc:m3, pospolita, null]
[84, 85, o, o, prep:acc, pospolita, null]
[84, 85, o, o, prep:loc, pospolita, null]
[84, 85, o, o, interj, pospolita, null]
[85, 86, Oscara, oscar, subst:sg:acc:m2, pospolita, null]
[85, 86, Oscara, oscar, subst:sg:gen:m2, pospolita, null]
[85, 86, Oscara, Oscar, subst:sg:acc:m1, imię, null]
[85, 86, Oscara, Oscar, subst:sg:acc:m2, własna, null]
[85, 86, Oscara, Oscar, subst:sg:gen:m1, imię, null]
[85, 86, Oscara, Oscar, subst:sg:gen:m2, własna, null]
[86, 87, zgłosili, zgłosić, praet:pl:m1.p1:perf, pospolita, null]
[87, 88, śmy, być, aglt:pl:pri:imperf:nwok, pospolita, null]
[88, 89, ", ", interp, , null]
[89, 90, Kanał, kanał, subst:sg:acc:m3, pospolita, null]
[89, 90, Kanał, kanał, subst:sg:nom:m3, pospolita, null]
[90, 91, ", ", interp, , null]
[91, 92, Andrzej, Andrzej, subst:sg:nom:m1, imię, null]
[92, 93, Wajdy, Wajda, subst:sg:gen:m1, nazwisko, null]
[92, 93, Wajdy, Wajda, depr:pl:nom:m2, nazwisko, null]
[92, 93, Wajdy, Wajda, depr:pl:voc:m2, nazwisko, null]
[93, 94, ,, ,, interp, , null]
[94, 95, wreszcie, wreszcie, qub, pospolita, null]
[95, 96, udało, udać, praet:sg:n1.n2:perf, pospolita, null]
[96, 97, się, się, qub, , null]
[96, 97, się, się, qub, pospolita, null]
[97, 98, wygrać, wygrać, inf:perf, pospolita, null]
[98, 99, tą, ten, adj:sg:inst:f:pos, pospolita, null]
[99, 100, niepozorną, niepozorny, adj:sg:acc:f:pos, pospolita, null]
[99, 100, niepozorną, niepozorny, adj:sg:inst:f:pos, pospolita, null]
[100, 101, złotą, złoty, adj:sg:acc:f:pos, pospolita, null]
[100, 101, złotą, złoty, adj:sg:inst:f:pos, pospolita, null]
[101, 102, statuetkę, statuetka, subst:sg:acc:f, pospolita, null]
[102, 103, ., ., interp, , null]
[103, 104, Nie, nie, conj, pospolita, null]
[103, 104, Nie, nie, qub, pospolita, null]
[103, 104, Nie, on, ppron3:pl:acc:m2.m3.f.n1.n2.p2.p3:ter:_:praep, pospolita, null]
[103, 104, Nie, on, ppron3:sg:acc:n1.n2:ter:_:praep, pospolita, null]
[104, 105, wyszło, wyjść, praet:sg:n1.n2:perf, pospolita, null]
[104, 105, wyszło, wynijść, praet:sg:n1.n2:perf, pospolita, null]
[104, 105, wyszło, wyniść, praet:sg:n1.n2:perf, pospolita, null]
[105, 106, wielkim, wielki, subst:pl:dat:m1, pospolita, null]
[105, 106, wielkim, wielki, subst:sg:inst:m1, pospolita, null]
[105, 106, wielkim, wielki, subst:sg:loc:m1, pospolita, null]
[105, 106, wielkim, wielki, adj:pl:dat:m1.m2.m3.f.n1.n2.p1.p2.p3:pos, pospolita, null]
[105, 106, wielkim, wielki, adj:sg:inst:m1.m2.m3.n1.n2:pos, pospolita, null]
[105, 106, wielkim, wielki, adj:sg:loc:m1.m2.m3.n1.n2:pos, pospolita, null]
[106, 107, :, :, interp, , null]
[107, 108, Kieślowskiemu, Kieślowski, subst:sg:dat:m1, nazwisko, null]
[108, 109, ,, ,, interp, , null]
[109, 110, Antczakowi, Antczak, subst:sg:dat:m1, nazwisko, null]
[110, 111, ,, ,, interp, , null]
[111, 112, Kawalerowiczowi, Kawalerowicz, subst:sg:dat:m1, , null]
[112, 113, ,, ,, interp, , null]
[113, 114, Kutzowi, Kutz, subst:sg:dat:m1, nazwisko, null]
[114, 115, ,, ,, interp, , null]
[115, 116, Zanussiemu, zanussi, subst:sg:dat:m1, pospolita, null]
[115, 116, Zanussiemu, Zanussi, subst:sg:dat:m1, nazwisko, null]
[116, 117, ,, ,, interp, , null]
[117, 118, Machulskiemu, Machulski, subst:sg:dat:m1, , null]
[118, 119, ,, ,, interp, , null]
[119, 120, Holland, Holland, subst:sg:nom:m1, nazwisko, null]
[120, 121, -, -, interp, , null]
[121, 122, wyszło, wyjść, praet:sg:n1.n2:perf, pospolita, null]
[121, 122, wyszło, wynijść, praet:sg:n1.n2:perf, pospolita, null]
[121, 122, wyszło, wyniść, praet:sg:n1.n2:perf, pospolita, null]
[122, 123, Pawlikowskiemu, Pawlikowski, subst:sg:dat:m1, nazwisko, null]
[123, 124, ., ., interp, , null]
[124, 125, Przez, przez, prep:acc:nwok, pospolita, null]
[125, 126, chwilę, chwila, subst:sg:acc:f, pospolita, null]
[126, 127, oczy, oczyć, fin:sg:ter:imperf, pospolita, null]
[126, 127, oczy, oko, subst:pl:acc:n1, pospolita, null]
[126, 127, oczy, oko, subst:pl:nom:n1, pospolita, null]
[126, 127, oczy, oko, subst:pl:voc:n1, pospolita, null]
[127, 128, całego, cały, adj:sg:acc:m1.m2:pos, pospolita, null]
[127, 128, całego, cały, adj:sg:gen:m1.m2.m3.n1.n2:pos, pospolita, null]
[128, 129, filmowego, filmowy, adj:sg:acc:m1.m2:pos, pospolita, null]
[128, 129, filmowego, filmowy, adj:sg:gen:m1.m2.m3.n1.n2:pos, pospolita, null]
[129, 130, świata, świat, subst:sg:gen:m3, pospolita, null]
[130, 131, skierowane, skierować, ppas:pl:nom.acc.voc:m2.m3.f.n1.n2.p2.p3:perf:aff, pospolita, null]
[130, 131, skierowane, skierować, ppas:sg:nom.acc.voc:n1.n2:perf:aff, pospolita, null]
[131, 132, zostaną, zostać, fin:pl:ter:perf, pospolita, null]
[132, 133, na, na, interj, pospolita, null]
[132, 133, na, na, prep:acc, pospolita, null]
[132, 133, na, na, prep:loc, pospolita, null]
[133, 134, Polskę, Polska, subst:sg:acc:f, geograficzna, null]
[134, 135, ., ., interp, , null]
[135, 136, Co, co, prep:acc, pospolita, null]
[135, 136, Co, co, prep:nom, pospolita, null]
[135, 136, Co, co, qub, pospolita, null]
[135, 136, Co, co, comp, pospolita, null]
[135, 136, Co, co, subst:sg:acc:n2, pospolita, null]
[135, 136, Co, co, subst:sg:gen:n2, pospolita, null]
[135, 136, Co, co, subst:sg:nom:n2, pospolita, null]
[136, 137, zobaczą, zobaczyć, fin:pl:ter:perf, pospolita, null]
[137, 138, pod, pod, prep:acc:nwok, pospolita, null]
[137, 138, pod, pod, prep:inst:nwok, pospolita, null]
[138, 139, pięknymi, piękne, subst:pl:inst:n2, pospolita, null]
[138, 139, pięknymi, piękny, adj:pl:inst:m1.m2.m3.f.n1.n2.p1.p2.p3:pos, pospolita, null]
[139, 140, czarno, czarny, adja, pospolita, null]
[140, 141, -, -, interp, , null]
[141, 142, białymi, biały, adj:pl:inst:m1.m2.m3.f.n1.n2.p1.p2.p3:pos, pospolita, null]
[142, 143, zdjęciami, zdjęcia, subst:pl:inst:p3, pospolita, null]
[142, 143, zdjęciami, zdjęcie, subst:pl:inst:n2, pospolita, null]
[143, 144, ?, ?, interp, , null]
[144, 145, Opowieść, opowieść, subst:sg:acc:f, pospolita, null]
[144, 145, Opowieść, opowieść, subst:sg:nom:f, pospolita, null]
[145, 146, poruszającą, poruszać, pact:sg:acc.inst:f:imperf:aff, pospolita, null]
[145, 146, poruszającą, poruszający, adj:sg:acc:f:pos, pospolita, null]
[145, 146, poruszającą, poruszający, adj:sg:inst:f:pos, pospolita, null]
[146, 147, ,, ,, interp, , null]
[147, 148, ale, ale, conj, pospolita, null]
[147, 148, ale, ale, qub, pospolita, null]
[148, 149, pełną, pełny, adj:sg:acc:f:pos, pospolita, null]
[148, 149, pełną, pełny, adj:sg:inst:f:pos, pospolita, null]
[149, 150, niedopowiedzeń, niedopowiedzenie, subst:pl:gen:n2, pospolita, null]
[150, 151, ., ., interp, , null]
[151, 152, I, i, interj, pospolita, null]
[151, 152, I, i, qub, pospolita, null]
[151, 152, I, I, romandig, , null]
[151, 152, I, i, conj, pospolita, null]
[152, 153, co, co, prep:acc, pospolita, null]
[152, 153, co, co, prep:nom, pospolita, null]
[152, 153, co, co, qub, pospolita, null]
[152, 153, co, co, comp, pospolita, null]
[152, 153, co, co, subst:sg:acc:n2, pospolita, null]
[152, 153, co, co, subst:sg:gen:n2, pospolita, null]
[152, 153, co, co, subst:sg:nom:n2, pospolita, null]
[153, 154, gorsze, zły, adj:pl:acc:m2.m3.f.n1.n2.p2.p3:com, pospolita, null]
[153, 154, gorsze, zły, adj:pl:nom.voc:m2.m3.f.n1.n2.p2.p3:com, pospolita, null]
[153, 154, gorsze, zły, adj:sg:acc:n1.n2:com, pospolita, null]
[153, 154, gorsze, zły, adj:sg:nom.voc:n1.n2:com, pospolita, null]
[154, 155, ,, ,, interp, , null]
[155, 156, wyjętą, wyjąć, ppas:sg:acc.inst:f:perf:aff, pospolita, null]
[156, 157, z, z, prep:acc:nwok, pospolita, null]
[156, 157, z, z, prep:gen:nwok, pospolita, null]
[156, 157, z, z, prep:inst:nwok, pospolita, null]
[157, 158, historycznej, historyczny, adj:sg:dat:f:pos, pospolita, null]
[157, 158, historycznej, historyczny, adj:sg:gen:f:pos, pospolita, null]
[157, 158, historycznej, historyczny, adj:sg:loc:f:pos, pospolita, null]
[158, 159, perspektywy, perspektywa, subst:pl:acc:f, pospolita, null]
[158, 159, perspektywy, perspektywa, subst:pl:nom:f, pospolita, null]
[158, 159, perspektywy, perspektywa, subst:pl:voc:f, pospolita, null]
[158, 159, perspektywy, perspektywa, subst:sg:gen:f, pospolita, null]
[159, 160, ., ., interp, , null]
[160, 161, Kolejny, kolejny, adj:sg:acc:m3:pos, pospolita, null]
[160, 161, Kolejny, kolejny, adj:sg:nom.voc:m1.m2.m3:pos, pospolita, null]
[161, 162, raz, raz, subst:sg:acc:m3, pospolita, null]
[161, 162, raz, raz, subst:sg:nom:m3, pospolita, null]
[162, 163, zmarnowali, zmarnować, praet:pl:m1.p1:perf, pospolita, null]
[163, 164, śmy, być, aglt:pl:pri:imperf:nwok, pospolita, null]
[164, 165, szansę, szansa, subst:sg:acc:f, pospolita, null]
[165, 166, ,, ,, interp, , null]
[166, 167, aby, aby, qub, pospolita, null]
[166, 167, aby, aby, comp, pospolita, null]
[167, 168, o, o, prep:acc, pospolita, null]
[167, 168, o, o, prep:loc, pospolita, null]
[167, 168, o, o, interj, pospolita, null]
[168, 169, trudnym, trudny, adj:pl:dat:m1.m2.m3.f.n1.n2.p1.p2.p3:pos, pospolita, null]
[168, 169, trudnym, trudny, adj:sg:inst:m1.m2.m3.n1.n2:pos, pospolita, null]
[168, 169, trudnym, trudny, adj:sg:loc:m1.m2.m3.n1.n2:pos, pospolita, null]
[169, 170, wieku, wiek, subst:sg:gen:m3, pospolita, null]
[169, 170, wieku, wiek, subst:sg:loc:m3, pospolita, null]
[169, 170, wieku, wiek, subst:sg:voc:m3, pospolita, null]
[169, 170, wieku, wieko, subst:sg:dat:n2, pospolita, null]
[169, 170, wieku, wieko, subst:sg:loc:n2, pospolita, null]
[170, 171, XX, XX, romandig, , null]
[171, 172, opowiedzieć, opowiedzieć, inf:perf, pospolita, null]
[172, 173, inaczej, inaczej, adv, pospolita, null]
[172, 173, inaczej, inaczej, conj, pospolita, null]
[173, 174, ,, ,, interp, , null]
[174, 175, niż, niż, subst:sg:acc:m3, pospolita, null]
[174, 175, niż, niż, subst:sg:nom:m3, pospolita, null]
[174, 175, niż, niża, subst:pl:gen:f, pospolita, null]
[174, 175, niż, niżyć, impt:sg:sec:imperf, pospolita, null]
[174, 175, niż, nizać, impt:sg:sec:imperf, pospolita, null]
[174, 175, niż, niż, conj, pospolita, null]
[174, 175, niż, niż, prep:nom, pospolita, null]
[175, 176, przez, przez, prep:acc:nwok, pospolita, null]
[176, 177, pryzmat, pryzmat, subst:sg:acc:m3, pospolita, null]
[176, 177, pryzmat, pryzmat, subst:sg:nom:m3, pospolita, null]
[177, 178, ", ", interp, , null]
[178, 179, rozliczania, rozliczać, ger:sg:gen:n2:imperf:aff, pospolita, null]
[179, 180, się, się, qub, , null]
[179, 180, się, się, qub, pospolita, null]
[180, 181, z, z, prep:acc:nwok, pospolita, null]
[180, 181, z, z, prep:gen:nwok, pospolita, null]
[180, 181, z, z, prep:inst:nwok, pospolita, null]
[181, 182, przeszłością, przeszłość, subst:sg:inst:f, pospolita, null]
[182, 183, ", ", interp, , null]
[183, 184, ., ., interp, , null]
[184, 185, Sukces, sukces, subst:sg:acc:m3, pospolita, null]
[184, 185, Sukces, sukces, subst:sg:nom:m3, pospolita, null]
[185, 186, Pawlikowskiego, Pawlikowski, subst:sg:acc:m1, nazwisko, null]
[185, 186, Pawlikowskiego, Pawlikowski, subst:sg:gen:m1, nazwisko, null]
[186, 187, tylko, tylko, conj, pospolita, null]
[186, 187, tylko, tylko, qub, pospolita, null]
[187, 188, utwierdził, utwierdzić, praet:sg:m1.m2.m3:perf, pospolita, null]
[188, 189, mnie, miąć, fin:sg:ter:imperf, pospolita, null]
[188, 189, mnie, ja, ppron12:sg:acc:m1.m2.m3.f.n1.n2:pri:akc, pospolita, null]
[188, 189, mnie, ja, ppron12:sg:dat:m1.m2.m3.f.n1.n2:pri:akc, pospolita, null]
[188, 189, mnie, ja, ppron12:sg:gen:m1.m2.m3.f.n1.n2:pri:akc, pospolita, null]
[188, 189, mnie, ja, ppron12:sg:loc:m1.m2.m3.f.n1.n2:pri, pospolita, null]
[189, 190, w, w, prep:acc:nwok, pospolita, null]
[189, 190, w, w, prep:loc:nwok, pospolita, null]
[190, 191, przekonaniu, przekonanie, subst:sg:dat:n2, pospolita, null]
[190, 191, przekonaniu, przekonanie, subst:sg:loc:n2, pospolita, null]
[190, 191, przekonaniu, przekonać, ger:sg:dat.loc:n2:perf:aff, pospolita, null]
[191, 192, ,, ,, interp, , null]
[192, 193, że, że, comp, pospolita, null]
[192, 193, że, że, qub, pospolita, null]
[193, 194, owe, ow, adj:pl:acc:m2.m3.f.n1.n2.p2.p3:pos, pospolita, null]
[193, 194, owe, ow, adj:pl:nom.voc:m2.m3.f.n1.n2.p2.p3:pos, pospolita, null]
[193, 194, owe, ów, adj:pl:acc:m2.m3.f.n1.n2.p2.p3:pos, pospolita, null]
[193, 194, owe, ów, adj:pl:nom.voc:m2.m3.f.n1.n2.p2.p3:pos, pospolita, null]
[193, 194, owe, +owa, subst:pl:acc:f, nazwisko, null]
[193, 194, owe, +owa, subst:pl:nom:f, nazwisko, null]
[193, 194, owe, +owa, subst:pl:voc:f, nazwisko, null]
[194, 195, historyczne, historyczny, adj:pl:acc:m2.m3.f.n1.n2.p2.p3:pos, pospolita, null]
[194, 195, historyczne, historyczny, adj:pl:nom.voc:m2.m3.f.n1.n2.p2.p3:pos, pospolita, null]
[194, 195, historyczne, historyczny, adj:sg:acc:n1.n2:pos, pospolita, null]
[194, 195, historyczne, historyczny, adj:sg:nom.voc:n1.n2:pos, pospolita, null]
[195, 196, wiwisekcje, wiwisekcja, subst:pl:acc:f, pospolita, null]
[195, 196, wiwisekcje, wiwisekcja, subst:pl:nom:f, pospolita, null]
[195, 196, wiwisekcje, wiwisekcja, subst:pl:voc:f, pospolita, null]
[196, 197, to, ten, adj:sg:acc:n1.n2:pos, pospolita, null]
[196, 197, to, ten, adj:sg:nom.voc:n1.n2:pos, pospolita, null]
[196, 197, to, to, qub, pospolita, null]
[196, 197, to, to, subst:sg:acc:n2, pospolita, null]
[196, 197, to, to, subst:sg:nom:n2, pospolita, null]
[196, 197, to, to, conj, pospolita, null]
[196, 197, to, to, pred, , null]
[197, 198, jedyna, jedyna, subst:sg:nom:f, pospolita, null]
[197, 198, jedyna, jedyna, subst:sg:voc:f, pospolita, null]
[197, 198, jedyna, jedyny, adj:sg:nom.voc:f:pos, pospolita, null]
[198, 199, rzecz, rzecz, subst:sg:acc:f, pospolita, null]
[198, 199, rzecz, rzecz, subst:sg:nom:f, pospolita, null]
[198, 199, rzecz, rzec, impt:sg:sec:perf, pospolita, null]
[198, 199, rzecz, rzec, impt:sg:sec:imperf, pospolita, null]
[199, 200, ,, ,, interp, , null]
[200, 201, jaka, jaka, subst:sg:nom:f, pospolita, null]
[200, 201, jaka, jak, subst:sg:acc:m2, pospolita, null]
[200, 201, jaka, jak, subst:sg:gen:m2, pospolita, null]
[200, 201, jaka, jaki, adj:sg:nom.voc:f:pos, pospolita, null]
[201, 202, w, w, prep:acc:nwok, pospolita, null]
[201, 202, w, w, prep:loc:nwok, pospolita, null]
[202, 203, polskim, polski, subst:pl:dat:m3, pospolita, null]
[202, 203, polskim, polski, subst:sg:inst:m3, pospolita, null]
[202, 203, polskim, polski, subst:sg:loc:m3, pospolita, null]
[202, 203, polskim, polskie, subst:pl:dat:n2, pospolita, null]
[202, 203, polskim, polskie, subst:sg:inst:n2, pospolita, null]
[202, 203, polskim, polskie, subst:sg:loc:n2, pospolita, null]
[202, 203, polskim, polski, adj:pl:dat:m1.m2.m3.f.n1.n2.p1.p2.p3:pos, pospolita, null]
[202, 203, polskim, polski, adj:sg:inst:m1.m2.m3.n1.n2:pos, pospolita, null]
[202, 203, polskim, polski, adj:sg:loc:m1.m2.m3.n1.n2:pos, pospolita, null]
[203, 204, kinie, kinąć, fin:sg:ter:perf, pospolita, null]
[203, 204, kinie, kin, subst:sg:loc:m3, pospolita, null]
[203, 204, kinie, kin, subst:sg:voc:m3, pospolita, null]
[203, 204, kinie, kina, subst:sg:dat:f, pospolita, null]
[203, 204, kinie, kina, subst:sg:loc:f, pospolita, null]
[203, 204, kinie, kino, subst:sg:loc:n2, pospolita, null]
[204, 205, lepiej, dobrze, adv:com, pospolita, null]
[204, 205, lepiej, lepiej, subst:sg:acc:m3, pospolita, null]
[204, 205, lepiej, lepiej, subst:sg:nom:m3, pospolita, null]
[205, 206, lub, lubić, impt:sg:sec:imperf, pospolita, null]
[205, 206, lub, lub, conj, pospolita, null]
[206, 207, gorzej, źle, adv:com, pospolita, null]
[206, 207, gorzej, gorzeć, impt:sg:sec:imperf, pospolita, null]
[207, 208, wychodzi, wychodzić, fin:sg:ter:perf, pospolita, null]
[207, 208, wychodzi, wychodzić, fin:sg:ter:imperf, pospolita, null]
[208, 209, ., ., interp, , null]
[209, 210, ", ", interp, , null]
[210, 211, Katyń, Katyń, subst:sg:acc:m3, geograficzna, null]
[210, 211, Katyń, Katyń, subst:sg:nom:m3, geograficzna, null]
[211, 212, ", ", interp, , null]
[212, 213, ,, ,, interp, , null]
[213, 214, ", ", interp, , null]
[214, 215, W, w, prep:acc:nwok, pospolita, null]
[214, 215, W, w, prep:loc:nwok, pospolita, null]
[215, 216, ciemności, ciemności, subst:pl:acc:p3, pospolita, null]
[215, 216, ciemności, ciemności, subst:pl:gen:p3, pospolita, null]
[215, 216, ciemności, ciemności, subst:pl:nom:p3, pospolita, null]
[215, 216, ciemności, ciemności, subst:pl:voc:p3, pospolita, null]
[215, 216, ciemności, ciemność, subst:pl:acc:f, pospolita, null]
[215, 216, ciemności, ciemność, subst:pl:gen:f, pospolita, null]
[215, 216, ciemności, ciemność, subst:pl:nom:f, pospolita, null]
[215, 216, ciemności, ciemność, subst:pl:voc:f, pospolita, null]
[215, 216, ciemności, ciemność, subst:sg:dat:f, pospolita, null]
[215, 216, ciemności, ciemność, subst:sg:gen:f, pospolita, null]
[215, 216, ciemności, ciemność, subst:sg:loc:f, pospolita, null]
[215, 216, ciemności, ciemność, subst:sg:voc:f, pospolita, null]
[216, 217, ", ", interp, , null]
[217, 218, ,, ,, interp, , null]
[218, 219, wcześniej, wcześnie, adv:com, pospolita, null]
[218, 219, wcześniej, wczesno, adv:com, pospolita, null]
[219, 220, ,, ,, interp, , null]
[220, 221, choć, choć, comp, pospolita, null]
[220, 221, choć, choć, qub, pospolita, null]
[221, 222, trudno, trudno, adv:pos, pospolita, null]
[222, 223, uznać, uznać, inf:perf, pospolita, null]
[223, 224, go, go, subst:pl:acc:n2, pospolita, null]
[223, 224, go, go, subst:pl:dat:n2, pospolita, null]
[223, 224, go, go, subst:pl:gen:n2, pospolita, null]
[223, 224, go, go, subst:pl:inst:n2, pospolita, null]
[223, 224, go, go, subst:pl:loc:n2, pospolita, null]
[223, 224, go, go, subst:pl:nom:n2, pospolita, null]
[223, 224, go, go, subst:pl:voc:n2, pospolita, null]
[223, 224, go, go, subst:sg:acc:n2, pospolita, null]
[223, 224, go, go, subst:sg:dat:n2, pospolita, null]
[223, 224, go, go, subst:sg:gen:n2, pospolita, null]
[223, 224, go, go, subst:sg:inst:n2, pospolita, null]
[223, 224, go, go, subst:sg:loc:n2, pospolita, null]
[223, 224, go, go, subst:sg:nom:n2, pospolita, null]
[223, 224, go, go, subst:sg:voc:n2, pospolita, null]
[223, 224, go, on, ppron3:sg:acc:m1.m2.m3:ter:nakc:npraep, pospolita, null]
[223, 224, go, on, ppron3:sg:gen:m1.m2.m3:ter:nakc:npraep, pospolita, null]
[223, 224, go, on, ppron3:sg:gen:n1.n2:ter:nakc:npraep, pospolita, null]
[224, 225, za, za, prep:acc, pospolita, null]
[224, 225, za, za, prep:gen, pospolita, null]
[224, 225, za, za, prep:inst, pospolita, null]
[224, 225, za, za, qub, pospolita, null]
[225, 226, wybitnie, wybitnie, adv:pos, pospolita, null]
[226, 227, polski, polski, subst:sg:acc:m3, pospolita, null]
[226, 227, polski, polski, subst:sg:nom:m3, pospolita, null]
[226, 227, polski, polski, subst:sg:voc:m3, pospolita, null]
[226, 227, polski, polski, adj:sg:acc:m3:pos, pospolita, null]
[226, 227, polski, polski, adj:sg:nom.voc:m1.m2.m3:pos, pospolita, null]
[227, 228, film, film, subst:sg:acc:m3, pospolita, null]
[227, 228, film, film, subst:sg:nom:m3, pospolita, null]
[228, 229, -, -, interp, , null]
[229, 230, ", ", interp, , null]
[230, 231, Pianista, pianista, subst:sg:nom:m1, pospolita, null]
[231, 232, ", ", interp, , null]
[232, 233, ., ., interp, , null]
[233, 234, Co, co, prep:acc, pospolita, null]
[233, 234, Co, co, prep:nom, pospolita, null]
[233, 234, Co, co, qub, pospolita, null]
[233, 234, Co, co, comp, pospolita, null]
[233, 234, Co, co, subst:sg:acc:n2, pospolita, null]
[233, 234, Co, co, subst:sg:gen:n2, pospolita, null]
[233, 234, Co, co, subst:sg:nom:n2, pospolita, null]
[234, 235, łączy, łącze, subst:pl:gen:n2, pospolita, null]
[234, 235, łączy, łączyć, fin:sg:ter:imperf, pospolita, null]
[235, 236, te, ten, adj:pl:acc:m2.m3.f.n1.n2.p2.p3:pos, pospolita, null]
[235, 236, te, ten, adj:pl:nom.voc:m2.m3.f.n1.n2.p2.p3:pos, pospolita, null]
[235, 236, te, te, subst:pl:acc:n2, pospolita, null]
[235, 236, te, te, subst:pl:dat:n2, pospolita, null]
[235, 236, te, te, subst:pl:gen:n2, pospolita, null]
[235, 236, te, te, subst:pl:inst:n2, pospolita, null]
[235, 236, te, te, subst:pl:loc:n2, pospolita, null]
[235, 236, te, te, subst:pl:nom:n2, pospolita, null]
[235, 236, te, te, subst:pl:voc:n2, pospolita, null]
[235, 236, te, te, subst:sg:acc:n2, pospolita, null]
[235, 236, te, te, subst:sg:dat:n2, pospolita, null]
[235, 236, te, te, subst:sg:gen:n2, pospolita, null]
[235, 236, te, te, subst:sg:inst:n2, pospolita, null]
[235, 236, te, te, subst:sg:loc:n2, pospolita, null]
[235, 236, te, te, subst:sg:nom:n2, pospolita, null]
[235, 236, te, te, subst:sg:voc:n2, pospolita, null]
[235, 236, te, ty, ppron12:sg:voc:m1.m2.m3.f.n1.n2:sec, pospolita, null]
[236, 237, obrazy, obraz, subst:pl:acc:m3, pospolita, null]
[236, 237, obrazy, obraz, subst:pl:nom:m3, pospolita, null]
[236, 237, obrazy, obraz, subst:pl:voc:m3, pospolita, null]
[236, 237, obrazy, obraza, subst:pl:acc:f, pospolita, null]
[236, 237, obrazy, obraza, subst:pl:nom:f, pospolita, null]
[236, 237, obrazy, obraza, subst:pl:voc:f, pospolita, null]
[236, 237, obrazy, obraza, subst:sg:gen:f, pospolita, null]
[237, 238, z, z, prep:acc:nwok, pospolita, null]
[237, 238, z, z, prep:gen:nwok, pospolita, null]
[237, 238, z, z, prep:inst:nwok, pospolita, null]
[238, 239, ", ", interp, , null]
[239, 240, Idą, iść, fin:pl:ter:imperf, pospolita, null]
[239, 240, Idą, Ida, subst:sg:inst:f, imię, null]
[240, 241, ", ", interp, , null]
[241, 242, ?, ?, interp, , null]
[242, 243, Poza, poza, prep:acc, pospolita, null]
[242, 243, Poza, poza, prep:inst, pospolita, null]
[242, 243, Poza, poza, subst:sg:nom:f, pospolita, null]
[243, 244, wyróżnieniami, wyróżnienie, subst:pl:inst:n2, pospolita, null]
[244, 245, Akademii, akademia, subst:pl:gen:f, pospolita, null]
[244, 245, Akademii, akademia, subst:sg:dat:f, pospolita, null]
[244, 245, Akademii, akademia, subst:sg:gen:f, pospolita, null]
[244, 245, Akademii, akademia, subst:sg:loc:f, pospolita, null]
[245, 246, Filmowej, filmowy, adj:sg:dat:f:pos, pospolita, null]
[245, 246, Filmowej, filmowy, adj:sg:gen:f:pos, pospolita, null]
[245, 246, Filmowej, filmowy, adj:sg:loc:f:pos, pospolita, null]
[246, 247, -, -, interp, , null]
[247, 248, oczywiste, oczywisty, adj:pl:acc:m2.m3.f.n1.n2.p2.p3:pos, pospolita, null]
[247, 248, oczywiste, oczywisty, adj:pl:nom.voc:m2.m3.f.n1.n2.p2.p3:pos, pospolita, null]
[247, 248, oczywiste, oczywisty, adj:sg:acc:n1.n2:pos, pospolita, null]
[247, 248, oczywiste, oczywisty, adj:sg:nom.voc:n1.n2:pos, pospolita, null]
[248, 249, uwikłanie, uwikłać, ger:sg:nom.acc:n2:perf:aff, pospolita, null]
[249, 250, w, w, prep:acc:nwok, pospolita, null]
[249, 250, w, w, prep:loc:nwok, pospolita, null]
[250, 251, przeszłość, przeszłość, subst:sg:acc:f, pospolita, null]
[250, 251, przeszłość, przeszłość, subst:sg:nom:f, pospolita, null]
[251, 252, ., ., interp, , null]
[252, 253, Są, być, fin:pl:ter:imperf, pospolita, null]
[253, 254, wzruszenia, wzruszenie, subst:pl:acc:n2, pospolita, null]
[253, 254, wzruszenia, wzruszenie, subst:pl:nom:n2, pospolita, null]
[253, 254, wzruszenia, wzruszenie, subst:pl:voc:n2, pospolita, null]
[253, 254, wzruszenia, wzruszenie, subst:sg:gen:n2, pospolita, null]
[253, 254, wzruszenia, wzruszyć, ger:sg:gen:n2:perf:aff, pospolita, null]
[254, 255, ,, ,, interp, , null]
[255, 256, emocje, emocje, subst:pl:acc:p3, pospolita, null]
[255, 256, emocje, emocje, subst:pl:nom:p3, pospolita, null]
[255, 256, emocje, emocje, subst:pl:voc:p3, pospolita, null]
[255, 256, emocje, emocja, subst:pl:acc:f, pospolita, null]
[255, 256, emocje, emocja, subst:pl:nom:f, pospolita, null]
[255, 256, emocje, emocja, subst:pl:voc:f, pospolita, null]
[256, 257, ,, ,, interp, , null]
[257, 258, wojna, wojna, subst:sg:nom:f, pospolita, null]
[258, 259, ,, ,, interp, , null]
[259, 260, cierpienie, cierpienie, subst:sg:acc:n2, pospolita, null]
[259, 260, cierpienie, cierpienie, subst:sg:nom:n2, pospolita, null]
[259, 260, cierpienie, cierpienie, subst:sg:voc:n2, pospolita, null]
[259, 260, cierpienie, cierpieć, ger:sg:nom.acc:n2:imperf:aff, pospolita, null]
[260, 261, ,, ,, interp, , null]
[261, 262, ludzka, ludzki, adj:sg:nom.voc:f:pos, pospolita, null]
[262, 263, podłość, podłość, subst:sg:acc:f, pospolita, null]
[262, 263, podłość, podłość, subst:sg:nom:f, pospolita, null]
[263, 264, ,, ,, interp, , null]
[264, 265, Holocaust, holocaust, subst:sg:acc:m3, pospolita, null]
[264, 265, Holocaust, holocaust, subst:sg:nom:m3, pospolita, null]
[265, 266, i, i, interj, pospolita, null]
[265, 266, i, i, qub, pospolita, null]
[265, 266, i, i, conj, pospolita, null]
[266, 267, potworne, potworny, adj:pl:acc:m2.m3.f.n1.n2.p2.p3:pos, pospolita, null]
[266, 267, potworne, potworny, adj:pl:nom.voc:m2.m3.f.n1.n2.p2.p3:pos, pospolita, null]
[266, 267, potworne, potworny, adj:sg:acc:n1.n2:pos, pospolita, null]
[266, 267, potworne, potworny, adj:sg:nom.voc:n1.n2:pos, pospolita, null]
[267, 268, zbrodnie, zbrodnia, subst:pl:acc:f, pospolita, null]
[267, 268, zbrodnie, zbrodnia, subst:pl:nom:f, pospolita, null]
[267, 268, zbrodnie, zbrodnia, subst:pl:voc:f, pospolita, null]
[267, 268, zbrodnie, zbrodzień, subst:pl:nom:m1, pospolita, null]
[267, 268, zbrodnie, zbrodzień, subst:pl:voc:m1, pospolita, null]
[267, 268, zbrodnie, zbrodzień, depr:pl:nom:m2, pospolita, null]
[267, 268, zbrodnie, zbrodzień, depr:pl:voc:m2, pospolita, null]
[268, 269, ., ., interp, , null]
[269, 270, Z, z, prep:acc:nwok, pospolita, null]
[269, 270, Z, z, prep:gen:nwok, pospolita, null]
[269, 270, Z, z, prep:inst:nwok, pospolita, null]
[270, 271, jedną, jeden, adj:sg:acc:f:pos, pospolita, null]
[270, 271, jedną, jeden, adj:sg:inst:f:pos, pospolita, null]
[271, 272, różnicą, różnica, subst:sg:inst:f, pospolita, null]
[272, 273, -, -, interp, , null]
[273, 274, w, w, prep:acc:nwok, pospolita, null]
[273, 274, w, w, prep:loc:nwok, pospolita, null]
[274, 275, ", ", interp, , null]
[275, 276, Idzie, id, subst:sg:loc:m3, pospolita, null]
[275, 276, Idzie, id, subst:sg:voc:m3, pospolita, null]
[275, 276, Idzie, Ida, subst:sg:dat:f, imię, null]
[275, 276, Idzie, Ida, subst:sg:loc:f, imię, null]
[275, 276, Idzie, Idzi, depr:pl:nom:m2, imię, null]
[275, 276, Idzie, Idzi, depr:pl:voc:m2, imię, null]
[275, 276, Idzie, iść, fin:sg:ter:imperf, pospolita, null]
[276, 277, ", ", interp, , null]
[277, 278, oglądamy, oglądać, fin:pl:pri:imperf, pospolita, null]
[278, 279, te, ten, adj:pl:acc:m2.m3.f.n1.n2.p2.p3:pos, pospolita, null]
[278, 279, te, ten, adj:pl:nom.voc:m2.m3.f.n1.n2.p2.p3:pos, pospolita, null]
[278, 279, te, te, subst:pl:acc:n2, pospolita, null]
[278, 279, te, te, subst:pl:dat:n2, pospolita, null]
[278, 279, te, te, subst:pl:gen:n2, pospolita, null]
[278, 279, te, te, subst:pl:inst:n2, pospolita, null]
[278, 279, te, te, subst:pl:loc:n2, pospolita, null]
[278, 279, te, te, subst:pl:nom:n2, pospolita, null]
[278, 279, te, te, subst:pl:voc:n2, pospolita, null]
[278, 279, te, te, subst:sg:acc:n2, pospolita, null]
[278, 279, te, te, subst:sg:dat:n2, pospolita, null]
[278, 279, te, te, subst:sg:gen:n2, pospolita, null]
[278, 279, te, te, subst:sg:inst:n2, pospolita, null]
[278, 279, te, te, subst:sg:loc:n2, pospolita, null]
[278, 279, te, te, subst:sg:nom:n2, pospolita, null]
[278, 279, te, te, subst:sg:voc:n2, pospolita, null]
[278, 279, te, ty, ppron12:sg:voc:m1.m2.m3.f.n1.n2:sec, pospolita, null]
[279, 280, wydarzenia, wydarzenie, subst:pl:acc:n2, pospolita, null]
[279, 280, wydarzenia, wydarzenie, subst:pl:nom:n2, pospolita, null]
[279, 280, wydarzenia, wydarzenie, subst:pl:voc:n2, pospolita, null]
[279, 280, wydarzenia, wydarzenie, subst:sg:gen:n2, pospolita, null]
[279, 280, wydarzenia, wydarzyć, ger:sg:gen:n2:perf:aff, pospolita, null]
[280, 281, z, z, prep:acc:nwok, pospolita, null]
[280, 281, z, z, prep:gen:nwok, pospolita, null]
[280, 281, z, z, prep:inst:nwok, pospolita, null]
[281, 282, perspektywy, perspektywa, subst:pl:acc:f, pospolita, null]
[281, 282, perspektywy, perspektywa, subst:pl:nom:f, pospolita, null]
[281, 282, perspektywy, perspektywa, subst:pl:voc:f, pospolita, null]
[281, 282, perspektywy, perspektywa, subst:sg:gen:f, pospolita, null]
[282, 283, czasu, czas, subst:sg:gen:m3, pospolita, null]
[283, 284, i, i, interj, pospolita, null]
[283, 284, i, i, qub, pospolita, null]
[283, 284, i, i, conj, pospolita, null]
[284, 285, powojennego, powojenny, adj:sg:acc:m1.m2:pos, pospolita, null]
[284, 285, powojennego, powojenny, adj:sg:gen:m1.m2.m3.n1.n2:pos, pospolita, null]
[285, 286, przemilczenia, przemilczenie, subst:pl:acc:n2, pospolita, null]
[285, 286, przemilczenia, przemilczenie, subst:pl:nom:n2, pospolita, null]
[285, 286, przemilczenia, przemilczenie, subst:pl:voc:n2, pospolita, null]
[285, 286, przemilczenia, przemilczenie, subst:sg:gen:n2, pospolita, null]
[285, 286, przemilczenia, przemilczeć, ger:sg:gen:n2:perf:aff, pospolita, null]
[286, 287, ., ., interp, , null]
[287, 288, Nic, nic, subst:sg:acc:n2, pospolita, null]
[287, 288, Nic, nic, subst:sg:gen:n2, pospolita, null]
[287, 288, Nic, nic, subst:sg:nom:n2, pospolita, null]
[287, 288, Nic, nica, subst:pl:gen:f, pospolita, null]
[288, 289, nie, nie, conj, pospolita, null]
[288, 289, nie, nie, qub, pospolita, null]
[288, 289, nie, on, ppron3:pl:acc:m2.m3.f.n1.n2.p2.p3:ter:_:praep, pospolita, null]
[288, 289, nie, on, ppron3:sg:acc:n1.n2:ter:_:praep, pospolita, null]
[289, 290, eksploduje, eksplodować, fin:sg:ter:imperf.perf, pospolita, null]
[290, 291, ,, ,, interp, , null]
[291, 292, nikt, nikt, subst:sg:nom:m1, pospolita, null]
[292, 293, nie, nie, conj, pospolita, null]
[292, 293, nie, nie, qub, pospolita, null]
[292, 293, nie, on, ppron3:pl:acc:m2.m3.f.n1.n2.p2.p3:ter:_:praep, pospolita, null]
[292, 293, nie, on, ppron3:sg:acc:n1.n2:ter:_:praep, pospolita, null]
[293, 294, poświęca, poświęcać, fin:sg:ter:imperf, pospolita, null]
[294, 295, życia, życie, subst:pl:acc:n2, pospolita, null]
[294, 295, życia, życie, subst:pl:nom:n2, pospolita, null]
[294, 295, życia, życie, subst:pl:voc:n2, pospolita, null]
[294, 295, życia, życie, subst:sg:gen:n2, pospolita, null]
[294, 295, życia, żyć, ger:sg:gen:n2:imperf:aff, pospolita, null]
[295, 296, ,, ,, interp, , null]
[296, 297, co, co, prep:acc, pospolita, null]
[296, 297, co, co, prep:nom, pospolita, null]
[296, 297, co, co, qub, pospolita, null]
[296, 297, co, co, comp, pospolita, null]
[296, 297, co, co, subst:sg:acc:n2, pospolita, null]
[296, 297, co, co, subst:sg:gen:n2, pospolita, null]
[296, 297, co, co, subst:sg:nom:n2, pospolita, null]
[297, 298, zostało, zostać, praet:sg:n1.n2:perf, pospolita, null]
[298, 299, zawinione, zawinić, ppas:pl:nom.acc.voc:m2.m3.f.n1.n2.p2.p3:perf:aff, pospolita, null]
[298, 299, zawinione, zawinić, ppas:sg:nom.acc.voc:n1.n2:perf:aff, pospolita, null]
[298, 299, zawinione, zawiniony, adj:pl:acc:m2.m3.f.n1.n2.p2.p3:pos, pospolita, null]
[298, 299, zawinione, zawiniony, adj:pl:nom.voc:m2.m3.f.n1.n2.p2.p3:pos, pospolita, null]
[298, 299, zawinione, zawiniony, adj:sg:acc:n1.n2:pos, pospolita, null]
[298, 299, zawinione, zawiniony, adj:sg:nom.voc:n1.n2:pos, pospolita, null]
[299, 300, ,, ,, interp, , null]
[300, 301, przez, przez, prep:acc:nwok, pospolita, null]
[301, 302, dwadzieścia, dwadzieścia, num:pl:nom.acc.voc:m2.m3.f.n2:rec, pospolita, null]
[302, 303, lat, lato, subst:pl:gen:n2, pospolita, null]
[302, 303, lat, rok, subst:pl:gen:m3, pospolita, null]
[303, 304, pozornie, pozornie, adv:pos, pospolita, null]
[304, 305, oswojono, oswoić, imps:perf, pospolita, null]
[305, 306, i, i, interj, pospolita, null]
[305, 306, i, i, qub, pospolita, null]
[305, 306, i, i, conj, pospolita, null]
[306, 307, wyparto, wyprzeć, imps:perf, pospolita, null]
[307, 308, ., ., interp, , null]
[308, 309, Właśnie, właśnie, adv, pospolita, null]
[308, 309, Właśnie, właśnie, qub, pospolita, null]
[309, 310, w, w, prep:acc:nwok, pospolita, null]
[309, 310, w, w, prep:loc:nwok, pospolita, null]
[310, 311, taki, taki, adj:sg:acc:m3:pos, pospolita, null]
[310, 311, taki, taki, adj:sg:nom.voc:m1.m2.m3:pos, pospolita, null]
[310, 311, taki, taka, subst:pl:acc:f, pospolita, null]
[310, 311, taki, taka, subst:pl:nom:f, pospolita, null]
[310, 311, taki, taka, subst:pl:voc:f, pospolita, null]
[310, 311, taki, taka, subst:sg:gen:f, pospolita, null]
[310, 311, taki, taki, adv, pospolita, null]
[311, 312, świat, świat, subst:sg:acc:m3, pospolita, null]
[311, 312, świat, świat, subst:sg:nom:m3, pospolita, null]
[312, 313, Pawlikowski, Pawlikowski, subst:sg:nom:m1, nazwisko, null]
[312, 313, Pawlikowski, Pawlikowski, subst:sg:voc:m1, nazwisko, null]
[313, 314, wprowadza, wprowadzać, fin:sg:ter:imperf, pospolita, null]
[314, 315, widza, widz, subst:sg:acc:m1, pospolita, null]
[314, 315, widza, widz, subst:sg:gen:m1, pospolita, null]
[315, 316, w, w, prep:acc:nwok, pospolita, null]
[315, 316, w, w, prep:loc:nwok, pospolita, null]
[316, 317, ", ", interp, , null]
[317, 318, Idzie, id, subst:sg:loc:m3, pospolita, null]
[317, 318, Idzie, id, subst:sg:voc:m3, pospolita, null]
[317, 318, Idzie, Ida, subst:sg:dat:f, imię, null]
[317, 318, Idzie, Ida, subst:sg:loc:f, imię, null]
[317, 318, Idzie, Idzi, depr:pl:nom:m2, imię, null]
[317, 318, Idzie, Idzi, depr:pl:voc:m2, imię, null]
[317, 318, Idzie, iść, fin:sg:ter:imperf, pospolita, null]
[318, 319, ", ", interp, , null]
[319, 320, ., ., interp, , null]
[320, 321, To, ten, adj:sg:acc:n1.n2:pos, pospolita, null]
[320, 321, To, ten, adj:sg:nom.voc:n1.n2:pos, pospolita, null]
[320, 321, To, to, qub, pospolita, null]
[320, 321, To, to, subst:sg:acc:n2, pospolita, null]
[320, 321, To, to, subst:sg:nom:n2, pospolita, null]
[320, 321, To, to, conj, pospolita, null]
[320, 321, To, to, pred, , null]
[321, 322, swoisty, swoisty, adj:sg:acc:m3:pos, pospolita, null]
[321, 322, swoisty, swoisty, adj:sg:nom.voc:m1.m2.m3:pos, pospolita, null]
[322, 323, emocjonalny, emocjonalny, adj:sg:acc:m3:pos, pospolita, null]
[322, 323, emocjonalny, emocjonalny, adj:sg:nom.voc:m1.m2.m3:pos, pospolita, null]
[323, 324, ", ", interp, , null]
[324, 325, krajobraz, krajobraz, subst:sg:acc:m3, pospolita, null]
[324, 325, krajobraz, krajobraz, subst:sg:nom:m3, pospolita, null]
[325, 326, po, po, prep:acc, pospolita, null]
[325, 326, po, po, prep:loc, pospolita, null]
[326, 327, bitwie, bitwa, subst:sg:dat:f, pospolita, null]
[326, 327, bitwie, bitwa, subst:sg:loc:f, pospolita, null]
[327, 328, ", ", interp, , null]
[328, 329, w, w, prep:acc:nwok, pospolita, null]
[328, 329, w, w, prep:loc:nwok, pospolita, null]
[329, 330, którym, który, adj:pl:dat:m1.m2.m3.f.n1.n2.p1.p2.p3:pos, pospolita, null]
[329, 330, którym, który, adj:sg:inst:m1.m2.m3.n1.n2:pos, pospolita, null]
[329, 330, którym, który, adj:sg:loc:m1.m2.m3.n1.n2:pos, pospolita, null]
[330, 331, główni, głównia, subst:pl:gen:f, pospolita, null]
[330, 331, główni, głównia, subst:sg:dat:f, pospolita, null]
[330, 331, główni, głównia, subst:sg:gen:f, pospolita, null]
[330, 331, główni, głównia, subst:sg:loc:f, pospolita, null]
[330, 331, główni, główny, adj:pl:nom.voc:m1.p1:pos, pospolita, null]
[331, 332, bohaterzy, bohater, subst:pl:nom:m1, pospolita, null]
[331, 332, bohaterzy, bohater, subst:pl:voc:m1, pospolita, null]
[332, 333, choć, choć, comp, pospolita, null]
[332, 333, choć, choć, qub, pospolita, null]
[333, 334, poranieni, poranić, ppas:pl:nom.voc:m1.p1:perf:aff, pospolita, null]
[334, 335, ,, ,, interp, , null]
[335, 336, zdążyli, zdążyć, praet:pl:m1.p1:perf, pospolita, null]
[336, 337, już, już, qub, pospolita, null]
[337, 338, pozabliźniać, pozabliźniać, inf:perf, pospolita, null]
[338, 339, rany, rany, interj, pospolita, null]
[338, 339, rany, rana, subst:pl:acc:f, pospolita, null]
[338, 339, rany, rana, subst:pl:nom:f, pospolita, null]
[338, 339, rany, rana, subst:pl:voc:f, pospolita, null]
[338, 339, rany, rana, subst:sg:gen:f, pospolita, null]
[338, 339, rany, rany, adj:sg:acc:m3:pos, pospolita, null]
[338, 339, rany, rany, adj:sg:nom.voc:m1.m2.m3:pos, pospolita, null]
[339, 340, ., ., interp, , null]
[340, 341, W, w, prep:acc:nwok, pospolita, null]
[340, 341, W, w, prep:loc:nwok, pospolita, null]
[341, 342, życiu, życie, subst:sg:dat:n2, pospolita, null]
[341, 342, życiu, życie, subst:sg:loc:n2, pospolita, null]
[341, 342, życiu, żyć, ger:sg:dat.loc:n2:imperf:aff, pospolita, null]
[342, 343, nigdy, nigdy, adv, pospolita, null]
[343, 344, jednak, jednak, conj, pospolita, null]
[343, 344, jednak, jednak, qub, pospolita, null]
[344, 345, nie, nie, conj, pospolita, null]
[344, 345, nie, nie, qub, pospolita, null]
[344, 345, nie, on, ppron3:pl:acc:m2.m3.f.n1.n2.p2.p3:ter:_:praep, pospolita, null]
[344, 345, nie, on, ppron3:sg:acc:n1.n2:ter:_:praep, pospolita, null]
[345, 346, jest, być, fin:sg:ter:imperf, pospolita, null]
[346, 347, tak, tak, qub, pospolita, null]
[346, 347, tak, tak, adv:pos, pospolita, null]
[346, 347, tak, taka, subst:pl:gen:f, pospolita, null]
[347, 348, łatwo, łatwo, adv:pos, pospolita, null]
[348, 349, ,, ,, interp, , null]
[349, 350, a, a, conj, pospolita, null]
[349, 350, a, a, interj, pospolita, null]
[349, 350, a, a, prep:nom, pospolita, null]
[349, 350, a, a, qub, pospolita, null]
[350, 351, historia, historia, subst:sg:nom:f, pospolita, null]
[351, 352, lubi, lubić, fin:sg:ter:imperf, pospolita, null]
[351, 352, lubi, luby, subst:pl:nom:m1, pospolita, null]
[351, 352, lubi, luby, subst:pl:voc:m1, pospolita, null]
[351, 352, lubi, luby, adj:pl:nom.voc:m1.p1:pos, pospolita, null]
[352, 353, się, się, qub, , null]
[352, 353, się, się, qub, pospolita, null]
[353, 354, o, o, prep:acc, pospolita, null]
[353, 354, o, o, prep:loc, pospolita, null]
[353, 354, o, o, interj, pospolita, null]
[354, 355, siebie, siebie, siebie:acc, , null]
[354, 355, siebie, siebie, siebie:gen, , null]
[355, 356, upominać, upominać, inf:imperf, pospolita, null]
[356, 357, ., ., interp, , null]
[357, 358, I, i, interj, pospolita, null]
[357, 358, I, i, qub, pospolita, null]
[357, 358, I, I, romandig, , null]
[357, 358, I, i, conj, pospolita, null]
[358, 359, to, ten, adj:sg:acc:n1.n2:pos, pospolita, null]
[358, 359, to, ten, adj:sg:nom.voc:n1.n2:pos, pospolita, null]
[358, 359, to, to, qub, pospolita, null]
[358, 359, to, to, subst:sg:acc:n2, pospolita, null]
[358, 359, to, to, subst:sg:nom:n2, pospolita, null]
[358, 359, to, to, conj, pospolita, null]
[358, 359, to, to, pred, , null]
[359, 360, w, w, prep:acc:nwok, pospolita, null]
[359, 360, w, w, prep:loc:nwok, pospolita, null]
[360, 361, najmniej, mało, adv:sup, pospolita, null]
[360, 361, najmniej, najmniej, num:pl:nom.acc:m1.m2.m3.f.n1.n2.p1.p2:rec, pospolita, null]
[360, 361, najmniej, najmniej, qub, pospolita, null]
[361, 362, odpowiednich, odpowiedni, adj:pl:acc:m1.p1:pos, pospolita, null]
[361, 362, odpowiednich, odpowiedni, adj:pl:gen:m1.m2.m3.f.n1.n2.p1.p2.p3:pos, pospolita, null]
[361, 362, odpowiednich, odpowiedni, adj:pl:loc:m1.m2.m3.f.n1.n2.p1.p2.p3:pos, pospolita, null]
[362, 363, momentach, moment, subst:pl:loc:m3, pospolita, null]
[363, 364, ., ., interp, , null]
[364, 365, ", ", interp, , null]
[365, 366, Ida, Ida, subst:sg:nom:f, imię, null]
[366, 367, ", ", interp, , null]
[367, 368, pokazuje, pokazować, fin:sg:ter:imperf, pospolita, null]
[367, 368, pokazuje, pokazywać, fin:sg:ter:imperf, pospolita, null]
[368, 369, właśnie, właśnie, adv, pospolita, null]
[368, 369, właśnie, właśnie, qub, pospolita, null]
[369, 370, taką, taki, adj:sg:acc:f:pos, pospolita, null]
[369, 370, taką, taki, adj:sg:inst:f:pos, pospolita, null]
[369, 370, taką, taka, subst:sg:inst:f, pospolita, null]
[370, 371, pozorność, pozorność, subst:sg:acc:f, pospolita, null]
[370, 371, pozorność, pozorność, subst:sg:nom:f, pospolita, null]
[371, 372, świata, świat, subst:sg:gen:m3, pospolita, null]
[372, 373, ,, ,, interp, , null]
[373, 374, w, w, prep:acc:nwok, pospolita, null]
[373, 374, w, w, prep:loc:nwok, pospolita, null]
[374, 375, którym, który, adj:pl:dat:m1.m2.m3.f.n1.n2.p1.p2.p3:pos, pospolita, null]
[374, 375, którym, który, adj:sg:inst:m1.m2.m3.n1.n2:pos, pospolita, null]
[374, 375, którym, który, adj:sg:loc:m1.m2.m3.n1.n2:pos, pospolita, null]
[375, 376, totalitaryzmy, totalitaryzm, subst:pl:acc:m3, pospolita, null]
[375, 376, totalitaryzmy, totalitaryzm, subst:pl:nom:m3, pospolita, null]
[375, 376, totalitaryzmy, totalitaryzm, subst:pl:voc:m3, pospolita, null]
[376, 377, i, i, interj, pospolita, null]
[376, 377, i, i, qub, pospolita, null]
[376, 377, i, i, conj, pospolita, null]
[377, 378, pierwotne, pierwotny, adj:pl:acc:m2.m3.f.n1.n2.p2.p3:pos, pospolita, null]
[377, 378, pierwotne, pierwotny, adj:pl:nom.voc:m2.m3.f.n1.n2.p2.p3:pos, pospolita, null]
[377, 378, pierwotne, pierwotny, adj:sg:acc:n1.n2:pos, pospolita, null]
[377, 378, pierwotne, pierwotny, adj:sg:nom.voc:n1.n2:pos, pospolita, null]
[378, 379, ludzkie, ludzki, adj:pl:acc:m2.m3.f.n1.n2.p2.p3:pos, pospolita, null]
[378, 379, ludzkie, ludzki, adj:pl:nom.voc:m2.m3.f.n1.n2.p2.p3:pos, pospolita, null]
[378, 379, ludzkie, ludzki, adj:sg:acc:n1.n2:pos, pospolita, null]
[378, 379, ludzkie, ludzki, adj:sg:nom.voc:n1.n2:pos, pospolita, null]
[379, 380, instynkty, instynkt, subst:pl:acc:m3, pospolita, null]
[379, 380, instynkty, instynkt, subst:pl:nom:m3, pospolita, null]
[379, 380, instynkty, instynkt, subst:pl:voc:m3, pospolita, null]
[380, 381, dokonały, dokonać, praet:pl:m2.m3.f.n1.n2.p2.p3:perf, pospolita, null]
[381, 382, głębokiego, głęboki, adj:sg:acc:m1.m2:pos, pospolita, null]
[381, 382, głębokiego, głęboki, adj:sg:gen:m1.m2.m3.n1.n2:pos, pospolita, null]
[382, 383, spustoszenia, spustoszenie, subst:pl:acc:n2, pospolita, null]
[382, 383, spustoszenia, spustoszenie, subst:pl:nom:n2, pospolita, null]
[382, 383, spustoszenia, spustoszenie, subst:pl:voc:n2, pospolita, null]
[382, 383, spustoszenia, spustoszenie, subst:sg:gen:n2, pospolita, null]
[382, 383, spustoszenia, spustoszeć, ger:sg:gen:n2:perf:aff, pospolita, null]
[382, 383, spustoszenia, spustoszyć, ger:sg:gen:n2:perf:aff, pospolita, null]
[383, 384, ., ., interp, , null]
[384, 385, Siostra, siostra, subst:sg:nom:f, pospolita, null]
[385, 386, Anna, Anna, subst:sg:nom:f, imię, null]
[386, 387, to, ten, adj:sg:acc:n1.n2:pos, pospolita, null]
[386, 387, to, ten, adj:sg:nom.voc:n1.n2:pos, pospolita, null]
[386, 387, to, to, qub, pospolita, null]
[386, 387, to, to, subst:sg:acc:n2, pospolita, null]
[386, 387, to, to, subst:sg:nom:n2, pospolita, null]
[386, 387, to, to, conj, pospolita, null]
[386, 387, to, to, pred, , null]
[387, 388, w, w, prep:acc:nwok, pospolita, null]
[387, 388, w, w, prep:loc:nwok, pospolita, null]
[388, 389, rzeczywistości, rzeczywistość, subst:pl:acc:f, pospolita, null]
[388, 389, rzeczywistości, rzeczywistość, subst:pl:gen:f, pospolita, null]
[388, 389, rzeczywistości, rzeczywistość, subst:pl:nom:f, pospolita, null]
[388, 389, rzeczywistości, rzeczywistość, subst:pl:voc:f, pospolita, null]
[388, 389, rzeczywistości, rzeczywistość, subst:sg:dat:f, pospolita, null]
[388, 389, rzeczywistości, rzeczywistość, subst:sg:gen:f, pospolita, null]
[388, 389, rzeczywistości, rzeczywistość, subst:sg:loc:f, pospolita, null]
[388, 389, rzeczywistości, rzeczywistość, subst:sg:voc:f, pospolita, null]
[389, 390, Ida, Ida, subst:sg:nom:f, imię, null]
[390, 391, Lebenstein, Lebenstein, subst:sg:nom:m1, , null]
[391, 392, -, -, interp, , null]
[392, 393, oddana, oddać, ppas:sg:nom.voc:f:perf:aff, pospolita, null]
[392, 393, oddana, oddany, adj:sg:nom.voc:f:pos, pospolita, null]
[393, 394, do, do, subst:pl:acc:n2, pospolita, null]
[393, 394, do, do, subst:pl:dat:n2, pospolita, null]
[393, 394, do, do, subst:pl:gen:n2, pospolita, null]
[393, 394, do, do, subst:pl:inst:n2, pospolita, null]
[393, 394, do, do, subst:pl:loc:n2, pospolita, null]
[393, 394, do, do, subst:pl:nom:n2, pospolita, null]
[393, 394, do, do, subst:pl:voc:n2, pospolita, null]
[393, 394, do, do, subst:sg:acc:n2, pospolita, null]
[393, 394, do, do, subst:sg:dat:n2, pospolita, null]
[393, 394, do, do, subst:sg:gen:n2, pospolita, null]
[393, 394, do, do, subst:sg:inst:n2, pospolita, null]
[393, 394, do, do, subst:sg:loc:n2, pospolita, null]
[393, 394, do, do, subst:sg:nom:n2, pospolita, null]
[393, 394, do, do, subst:sg:voc:n2, pospolita, null]
[393, 394, do, do, prep:gen, pospolita, null]
[394, 395, klasztoru, klasztor, subst:sg:gen:m3, pospolita, null]
[395, 396, sierota, sierota, subst:sg:nom:f, pospolita, null]
[395, 396, sierota, sierota, subst:sg:nom:m2, pospolita, null]
[396, 397, po, po, prep:acc, pospolita, null]
[396, 397, po, po, prep:loc, pospolita, null]
[397, 398, zamordowanych, zamordować, ppas:pl:acc:m1.p1:perf:aff, pospolita, null]
[397, 398, zamordowanych, zamordować, ppas:pl:gen.loc:m1.m2.m3.f.n1.n2.p1.p2.p3:perf:aff, pospolita, null]
[398, 399, przez, przez, prep:acc:nwok, pospolita, null]
[399, 400, Polaków, Polak, subst:pl:acc:m1, nazwisko, null]
[399, 400, Polaków, Polak, subst:pl:gen:m1, nazwisko, null]
[399, 400, Polaków, polak, subst:pl:gen:m2, pospolita, null]
[399, 400, Polaków, Polak, subst:pl:acc:m1, pospolita, null]
[399, 400, Polaków, Polak, subst:pl:gen:m1, pospolita, null]
[400, 401, rodzicach, rodzica, subst:pl:loc:f, pospolita, null]
[400, 401, rodzicach, rodzic, subst:pl:loc:m1, pospolita, null]
[400, 401, rodzicach, rodzice, subst:pl:loc:p1, pospolita, null]
[401, 402, ., ., interp, , null]
[402, 403, Gorliwa, gorliwy, adj:sg:nom.voc:f:pos, pospolita, null]
[403, 404, komunistka, komunistka, subst:sg:nom:f, pospolita, null]
[404, 405, Wanda, wanda, subst:sg:nom:f, pospolita, null]
[404, 405, Wanda, Wanda, subst:sg:nom:f, imię, null]
[405, 406, Gruz, gruz, subst:sg:acc:m3, pospolita, null]
[405, 406, Gruz, gruz, subst:sg:nom:m3, pospolita, null]
[406, 407, to, ten, adj:sg:acc:n1.n2:pos, pospolita, null]
[406, 407, to, ten, adj:sg:nom.voc:n1.n2:pos, pospolita, null]
[406, 407, to, to, qub, pospolita, null]
[406, 407, to, to, subst:sg:acc:n2, pospolita, null]
[406, 407, to, to, subst:sg:nom:n2, pospolita, null]
[406, 407, to, to, conj, pospolita, null]
[406, 407, to, to, pred, , null]
[407, 408, w, w, prep:acc:nwok, pospolita, null]
[407, 408, w, w, prep:loc:nwok, pospolita, null]
[408, 409, istocie, istota, subst:sg:dat:f, pospolita, null]
[408, 409, istocie, istota, subst:sg:loc:f, pospolita, null]
[409, 410, kobieta, kobieta, subst:sg:nom:f, pospolita, null]
[410, 411, bez, bez, subst:sg:acc:m3, pospolita, null]
[410, 411, bez, bez, subst:sg:nom:m3, pospolita, null]
[410, 411, bez, beza, subst:pl:gen:f, pospolita, null]
[410, 411, bez, bez, prep:gen:nwok, pospolita, null]
[411, 412, przyszłości, przyszłość, subst:pl:acc:f, pospolita, null]
[411, 412, przyszłości, przyszłość, subst:pl:gen:f, pospolita, null]
[411, 412, przyszłości, przyszłość, subst:pl:nom:f, pospolita, null]
[411, 412, przyszłości, przyszłość, subst:pl:voc:f, pospolita, null]
[411, 412, przyszłości, przyszłość, subst:sg:dat:f, pospolita, null]
[411, 412, przyszłości, przyszłość, subst:sg:gen:f, pospolita, null]
[411, 412, przyszłości, przyszłość, subst:sg:loc:f, pospolita, null]
[411, 412, przyszłości, przyszłość, subst:sg:voc:f, pospolita, null]
[412, 413, ,, ,, interp, , null]
[413, 414, potwornie, potwornie, adv:pos, pospolita, null]
[414, 415, zmęczona, zmęczyć, ppas:sg:nom.voc:f:perf:aff, pospolita, null]
[414, 415, zmęczona, zmęczony, adj:sg:nom.voc:f:pos, pospolita, null]
[415, 416, życiem, życie, subst:sg:inst:n2, pospolita, null]
[415, 416, życiem, żyć, ger:sg:inst:n2:imperf:aff, pospolita, null]
[416, 417, ,, ,, interp, , null]
[417, 418, pozbawiona, pozbawić, ppas:sg:nom.voc:f:perf:aff, pospolita, null]
[418, 419, ideowych, ideowy, adj:pl:acc:m1.p1:pos, pospolita, null]
[418, 419, ideowych, ideowy, adj:pl:gen:m1.m2.m3.f.n1.n2.p1.p2.p3:pos, pospolita, null]
[418, 419, ideowych, ideowy, adj:pl:loc:m1.m2.m3.f.n1.n2.p1.p2.p3:pos, pospolita, null]
[419, 420, złudzeń, złudzenie, subst:pl:gen:n2, pospolita, null]
[420, 421, ., ., interp, , null]
