[0, 1, Jak, jak, adv, pospolita, null]
[0, 1, Jak, jak, conj, pospolita, null]
[0, 1, Jak, jak, prep:nom, pospolita, null]
[0, 1, Jak, jak, adv:pos, pospolita, null]
[0, 1, Jak, jak, subst:sg:nom:m2, pospolita, null]
[0, 1, Jak, jaka, subst:pl:gen:f, pospolita, null]
[1, 2, radzić, radzić, inf:imperf, pospolita, null]
[2, 3, sobie, siebie, siebie:dat, , null]
[2, 3, sobie, siebie, siebie:loc, , null]
[3, 4, ze, z, prep:acc:wok, pospolita, null]
[3, 4, ze, z, prep:gen:wok, pospolita, null]
[3, 4, ze, z, prep:inst:wok, pospolita, null]
[4, 5, stresem, stres, subst:sg:inst:m3, pospolita, null]
[5, 6, i, i, interj, pospolita, null]
[5, 6, i, i, qub, pospolita, null]
[5, 6, i, i, conj, pospolita, null]
[6, 7, jak, jak, adv, pospolita, null]
[6, 7, jak, jak, conj, pospolita, null]
[6, 7, jak, jak, prep:nom, pospolita, null]
[6, 7, jak, jak, adv:pos, pospolita, null]
[6, 7, jak, jak, subst:sg:nom:m2, pospolita, null]
[6, 7, jak, jaka, subst:pl:gen:f, pospolita, null]
[7, 8, uczyć, uczyć, inf:imperf, pospolita, null]
[8, 9, się, się, qub, , null]
[8, 9, się, się, qub, pospolita, null]
[9, 10, w, w, prep:acc:nwok, pospolita, null]
[9, 10, w, w, prep:loc:nwok, pospolita, null]
[10, 11, ostatnich, ostatni, subst:pl:acc:m1, pospolita, null]
[10, 11, ostatnich, ostatni, subst:pl:gen:m1, pospolita, null]
[10, 11, ostatnich, ostatni, subst:pl:loc:m1, pospolita, null]
[10, 11, ostatnich, ostatnie, subst:pl:gen:n2, pospolita, null]
[10, 11, ostatnich, ostatnie, subst:pl:loc:n2, pospolita, null]
[10, 11, ostatnich, ostatni, adj:pl:acc:m1.p1:pos, pospolita, null]
[10, 11, ostatnich, ostatni, adj:pl:gen:m1.m2.m3.f.n1.n2.p1.p2.p3:pos, pospolita, null]
[10, 11, ostatnich, ostatni, adj:pl:loc:m1.m2.m3.f.n1.n2.p1.p2.p3:pos, pospolita, null]
[11, 12, dniach, dzień, subst:pl:loc:m3, pospolita, null]
[12, 13, przed, przed, prep:acc:nwok, pospolita, null]
[12, 13, przed, przed, prep:inst:nwok, pospolita, null]
[13, 14, egzaminem, egzamin, subst:sg:inst:m3, pospolita, null]
[14, 15, ?, ?, interp, , null]
[15, 16, –, –, interp, , null]
[16, 17, radzi, rad, winien:pl:m1.p1:imperf, pospolita, null]
[16, 17, radzi, radzić, fin:sg:ter:imperf, pospolita, null]
[16, 17, radzi, rad, adj:pl:nom:m1.p1:pos, pospolita, null]
[17, 18, Jolanta, Jolanta, subst:sg:nom:f, imię, null]
[18, 19, Lubowiecka, Lubowiecka, subst:sg:nom:f, , null]
[18, 19, Lubowiecka, Lubowiecka, subst:sg:voc:f, , null]
[19, 20, -, -, interp, , null]
[20, 21, Zduniak, Zduniak, subst:sg:nom:m1, , null]
[21, 22, ,, ,, interp, , null]
[22, 23, pedagog, pedagog, subst:sg:nom:m1, pospolita, null]
[23, 24, z, z, prep:acc:nwok, pospolita, null]
[23, 24, z, z, prep:gen:nwok, pospolita, null]
[23, 24, z, z, prep:inst:nwok, pospolita, null]
[24, 25, II, II, romandig, , null]
[24, 25, II, ii, interj, pospolita, null]
[25, 26, Liceum, liceum, subst:sg:acc:n2, pospolita, null]
[25, 26, Liceum, liceum, subst:sg:dat:n2, pospolita, null]
[25, 26, Liceum, liceum, subst:sg:gen:n2, pospolita, null]
[25, 26, Liceum, liceum, subst:sg:inst:n2, pospolita, null]
[25, 26, Liceum, liceum, subst:sg:loc:n2, pospolita, null]
[25, 26, Liceum, liceum, subst:sg:nom:n2, pospolita, null]
[25, 26, Liceum, liceum, subst:sg:voc:n2, pospolita, null]
[26, 27, Ogólnokształcącego, ogólnokształcący, adj:sg:acc:m1.m2:pos, pospolita, null]
[26, 27, Ogólnokształcącego, ogólnokształcący, adj:sg:gen:m1.m2.m3.n1.n2:pos, pospolita, null]
[27, 28, w, w, prep:acc:nwok, pospolita, null]
[27, 28, w, w, prep:loc:nwok, pospolita, null]
[28, 29, Olszynie, Olszyna, subst:sg:dat:f, geograficzna, null]
[28, 29, Olszynie, Olszyna, subst:sg:loc:f, geograficzna, null]
[28, 29, Olszynie, olszyna, subst:sg:dat:f, pospolita, null]
[28, 29, Olszynie, olszyna, subst:sg:loc:f, pospolita, null]
[29, 30, ., ., interp, , null]
[30, 31, Po, po, prep:acc, pospolita, null]
[30, 31, Po, po, prep:loc, pospolita, null]
[31, 32, pierwsze, pierwsze, subst:pl:acc:n2, pospolita, null]
[31, 32, pierwsze, pierwsze, subst:pl:nom:n2, pospolita, null]
[31, 32, pierwsze, pierwsze, subst:pl:voc:n2, pospolita, null]
[31, 32, pierwsze, pierwsze, subst:sg:acc:n2, pospolita, null]
[31, 32, pierwsze, pierwsze, subst:sg:nom:n2, pospolita, null]
[31, 32, pierwsze, pierwsze, subst:sg:voc:n2, pospolita, null]
[31, 32, pierwsze, pierwsza, subst:pl:acc:f, pospolita, null]
[31, 32, pierwsze, pierwsza, subst:pl:nom:f, pospolita, null]
[31, 32, pierwsze, pierwsza, subst:pl:voc:f, pospolita, null]
[31, 32, pierwsze, pierwszy, subst:pl:acc:m3, pospolita, null]
[31, 32, pierwsze, pierwszy, subst:pl:nom:m3, pospolita, null]
[31, 32, pierwsze, pierwszy, subst:pl:voc:m3, pospolita, null]
[31, 32, pierwsze, pierwszy, adj:pl:acc:m2.m3.f.n1.n2.p2.p3:pos, pospolita, null]
[31, 32, pierwsze, pierwszy, adj:pl:nom.voc:m2.m3.f.n1.n2.p2.p3:pos, pospolita, null]
[31, 32, pierwsze, pierwszy, adj:sg:acc:n1.n2:pos, pospolita, null]
[31, 32, pierwsze, pierwszy, adj:sg:nom.voc:n1.n2:pos, pospolita, null]
[32, 33, ruch, ruch, subst:sg:acc:m3, pospolita, null]
[32, 33, ruch, ruch, subst:sg:nom:m3, pospolita, null]
[32, 33, ruch, rucho, subst:pl:gen:n2, pospolita, null]
[33, 34, ., ., interp, , null]
[34, 35, Jest, być, fin:sg:ter:imperf, pospolita, null]
[35, 36, kilka, kilka, num:pl:nom.acc.voc:m2.m3.f.n2:rec, pospolita, null]
[35, 36, kilka, kilka, subst:sg:nom:f, pospolita, null]
[36, 37, sposobów, sposób, subst:pl:gen:m3, pospolita, null]
[37, 38, które, który, adj:pl:acc:m2.m3.f.n1.n2.p2.p3:pos, pospolita, null]
[37, 38, które, który, adj:pl:nom.voc:m2.m3.f.n1.n2.p2.p3:pos, pospolita, null]
[37, 38, które, który, adj:sg:acc:n1.n2:pos, pospolita, null]
[37, 38, które, który, adj:sg:nom.voc:n1.n2:pos, pospolita, null]
[38, 39, każdy, każdy, adj:sg:acc:m3:pos, pospolita, null]
[38, 39, każdy, każdy, adj:sg:nom.voc:m1.m2.m3:pos, pospolita, null]
[39, 40, może, móc, fin:sg:ter:imperf, pospolita, null]
[39, 40, może, może, qub, pospolita, null]
[40, 41, wypróbować, wypróbować, inf:perf, pospolita, null]
[41, 42, :, :, interp, , null]
[42, 43, może, móc, fin:sg:ter:imperf, pospolita, null]
[42, 43, może, może, qub, pospolita, null]
[43, 44, to, ten, adj:sg:acc:n1.n2:pos, pospolita, null]
[43, 44, to, ten, adj:sg:nom.voc:n1.n2:pos, pospolita, null]
[43, 44, to, to, qub, pospolita, null]
[43, 44, to, to, subst:sg:acc:n2, pospolita, null]
[43, 44, to, to, subst:sg:nom:n2, pospolita, null]
[43, 44, to, to, conj, pospolita, null]
[43, 44, to, to, pred, , null]
[44, 45, być, być, inf:imperf, pospolita, null]
[44, 45, być, bycie, subst:pl:gen:n2, pospolita, null]
[45, 46, zwykły, zwyknąć, praet:pl:m2.m3.f.n1.n2.p2.p3:perf, pospolita, null]
[45, 46, zwykły, zwykły, adj:sg:acc:m3:pos, pospolita, null]
[45, 46, zwykły, zwykły, adj:sg:nom.voc:m1.m2.m3:pos, pospolita, null]
[46, 47, spacer, spacer, subst:sg:acc:m3, pospolita, null]
[46, 47, spacer, spacer, subst:sg:nom:m3, pospolita, null]
[47, 48, ,, ,, interp, , null]
[48, 49, ale, ale, conj, pospolita, null]
[48, 49, ale, ale, qub, pospolita, null]
[49, 50, również, również, qub, pospolita, null]
[50, 51, jazda, jazda, subst:sg:nom:f, pospolita, null]
[51, 52, na, na, interj, pospolita, null]
[51, 52, na, na, prep:acc, pospolita, null]
[51, 52, na, na, prep:loc, pospolita, null]
[52, 53, rowerze, rower, subst:sg:loc:m3, pospolita, null]
[52, 53, rowerze, rower, subst:sg:voc:m3, pospolita, null]
[53, 54, ,, ,, interp, , null]
[54, 55, ćwiczenia, ćwiczenia, subst:pl:acc:p3, pospolita, null]
[54, 55, ćwiczenia, ćwiczenia, subst:pl:nom:p3, pospolita, null]
[54, 55, ćwiczenia, ćwiczenia, subst:pl:voc:p3, pospolita, null]
[54, 55, ćwiczenia, ćwiczenie, subst:pl:acc:n2, pospolita, null]
[54, 55, ćwiczenia, ćwiczenie, subst:pl:nom:n2, pospolita, null]
[54, 55, ćwiczenia, ćwiczenie, subst:pl:voc:n2, pospolita, null]
[54, 55, ćwiczenia, ćwiczenie, subst:sg:gen:n2, pospolita, null]
[54, 55, ćwiczenia, ćwiczyć, ger:sg:gen:n2:imperf:aff, pospolita, null]
[55, 56, ,, ,, interp, , null]
[56, 57, sporty, sport, subst:pl:acc:m2, pospolita, null]
[56, 57, sporty, sport, subst:pl:acc:m3, pospolita, null]
[56, 57, sporty, sport, subst:pl:nom:m2, pospolita, null]
[56, 57, sporty, sport, subst:pl:nom:m3, pospolita, null]
[56, 57, sporty, sport, subst:pl:voc:m2, pospolita, null]
[56, 57, sporty, sport, subst:pl:voc:m3, pospolita, null]
[57, 58, walki, walka, subst:pl:acc:f, pospolita, null]
[57, 58, walki, walka, subst:pl:nom:f, pospolita, null]
[57, 58, walki, walka, subst:pl:voc:f, pospolita, null]
[57, 58, walki, walka, subst:sg:gen:f, pospolita, null]
[58, 59, ., ., interp, , null]
[59, 60, Spróbuj, spróbować, impt:sg:sec:perf, pospolita, null]
[60, 61, ćwiczeń, ćwiczenia, subst:pl:gen:p3, pospolita, null]
[60, 61, ćwiczeń, ćwiczenie, subst:pl:gen:n2, pospolita, null]
[61, 62, relaksacyjnych, relaksacyjny, adj:pl:acc:m1.p1:pos, pospolita, null]
[61, 62, relaksacyjnych, relaksacyjny, adj:pl:gen:m1.m2.m3.f.n1.n2.p1.p2.p3:pos, pospolita, null]
[61, 62, relaksacyjnych, relaksacyjny, adj:pl:loc:m1.m2.m3.f.n1.n2.p1.p2.p3:pos, pospolita, null]
[62, 63, ,, ,, interp, , null]
[63, 64, np, np, ign, , null]
[64, 65, ., ., interp, , null]
[65, 66, głębokiego, głęboki, adj:sg:acc:m1.m2:pos, pospolita, null]
[65, 66, głębokiego, głęboki, adj:sg:gen:m1.m2.m3.n1.n2:pos, pospolita, null]
[66, 67, oddychania, oddychanie, subst:pl:acc:n2, pospolita, null]
[66, 67, oddychania, oddychanie, subst:pl:nom:n2, pospolita, null]
[66, 67, oddychania, oddychanie, subst:pl:voc:n2, pospolita, null]
[66, 67, oddychania, oddychanie, subst:sg:gen:n2, pospolita, null]
[66, 67, oddychania, oddychać, ger:sg:gen:n2:imperf:aff, pospolita, null]
[67, 68, ., ., interp, , null]
[68, 69, Pij, pić, impt:sg:sec:imperf, pospolita, null]
[68, 69, Pij, Pia, subst:pl:gen:f, imię, null]
[69, 70, dużo, dużo, adv:pos, pospolita, null]
[69, 70, dużo, dużo, num:pl:nom.acc:m1.m2.m3.f.n1.n2.p1.p2:rec, pospolita, null]
[70, 71, wody, woda, subst:pl:acc:f, pospolita, null]
[70, 71, wody, woda, subst:pl:nom:f, pospolita, null]
[70, 71, wody, woda, subst:pl:voc:f, pospolita, null]
[70, 71, wody, woda, subst:sg:gen:f, pospolita, null]
[71, 72, ., ., interp, , null]
[72, 73, Zrób, zrobić, impt:sg:sec:perf, pospolita, null]
[72, 73, Zrób, zrób, subst:sg:acc:m3, pospolita, null]
[72, 73, Zrób, zrób, subst:sg:nom:m3, pospolita, null]
[73, 74, sobie, siebie, siebie:dat, , null]
[73, 74, sobie, siebie, siebie:loc, , null]
[74, 75, aromatyczną, aromatyczny, adj:sg:acc:f:pos, pospolita, null]
[74, 75, aromatyczną, aromatyczny, adj:sg:inst:f:pos, pospolita, null]
[75, 76, kąpiel, kąpiel, subst:sg:acc:f, pospolita, null]
[75, 76, kąpiel, kąpiel, subst:sg:nom:f, pospolita, null]
[76, 77, ., ., interp, , null]
[77, 78, Pij, pić, impt:sg:sec:imperf, pospolita, null]
[77, 78, Pij, Pia, subst:pl:gen:f, imię, null]
[78, 79, też, tenże, adj:pl:acc:m2.m3.f.n1.n2.p2.p3:pos, pospolita, null]
[78, 79, też, tenże, adj:pl:nom.voc:m2.m3.f.n1.n2.p2.p3:pos, pospolita, null]
[78, 79, też, też, qub, pospolita, null]
[79, 80, napary, napar, subst:pl:acc:m3, pospolita, null]
[79, 80, napary, napar, subst:pl:nom:m3, pospolita, null]
[79, 80, napary, napar, subst:pl:voc:m3, pospolita, null]
[80, 81, z, z, prep:acc:nwok, pospolita, null]
[80, 81, z, z, prep:gen:nwok, pospolita, null]
[80, 81, z, z, prep:inst:nwok, pospolita, null]
[81, 82, ziół, ziele, subst:pl:gen:n2, pospolita, null]
[81, 82, ziół, zioła, subst:pl:gen:p3, pospolita, null]
[81, 82, ziół, zioło, subst:pl:gen:n2, pospolita, null]
[82, 83, uspokajających, uspokajać, pact:pl:acc:m1.p1:imperf:aff, pospolita, null]
[82, 83, uspokajających, uspokajać, pact:pl:gen.loc:m1.m2.m3.f.n1.n2.p1.p2.p3:imperf:aff, pospolita, null]
[82, 83, uspokajających, uspokajający, adj:pl:acc:m1.p1:pos, pospolita, null]
[82, 83, uspokajających, uspokajający, adj:pl:gen:m1.m2.m3.f.n1.n2.p1.p2.p3:pos, pospolita, null]
[82, 83, uspokajających, uspokajający, adj:pl:loc:m1.m2.m3.f.n1.n2.p1.p2.p3:pos, pospolita, null]
[83, 84, ,, ,, interp, , null]
[84, 85, np, np, ign, , null]
[85, 86, ., ., interp, , null]
[86, 87, melisy, melisa, subst:pl:acc:f, pospolita, null]
[86, 87, melisy, melisa, subst:pl:nom:f, pospolita, null]
[86, 87, melisy, melisa, subst:pl:voc:f, pospolita, null]
[86, 87, melisy, melisa, subst:sg:gen:f, pospolita, null]
[87, 88, ., ., interp, , null]
[88, 89, Naturalne, naturalny, adj:pl:acc:m2.m3.f.n1.n2.p2.p3:pos, pospolita, null]
[88, 89, Naturalne, naturalny, adj:pl:nom.voc:m2.m3.f.n1.n2.p2.p3:pos, pospolita, null]
[88, 89, Naturalne, naturalny, adj:sg:acc:n1.n2:pos, pospolita, null]
[88, 89, Naturalne, naturalny, adj:sg:nom.voc:n1.n2:pos, pospolita, null]
[89, 90, metody, metoda, subst:pl:acc:f, pospolita, null]
[89, 90, metody, metoda, subst:pl:nom:f, pospolita, null]
[89, 90, metody, metoda, subst:pl:voc:f, pospolita, null]
[89, 90, metody, metoda, subst:sg:gen:f, pospolita, null]
[90, 91, są, być, fin:pl:ter:imperf, pospolita, null]
[91, 92, pewniejsze, pewny, adj:pl:acc:m2.m3.f.n1.n2.p2.p3:com, pospolita, null]
[91, 92, pewniejsze, pewny, adj:pl:nom.voc:m2.m3.f.n1.n2.p2.p3:com, pospolita, null]
[91, 92, pewniejsze, pewny, adj:sg:acc:n1.n2:com, pospolita, null]
[91, 92, pewniejsze, pewny, adj:sg:nom.voc:n1.n2:com, pospolita, null]
[92, 93, niż, niż, subst:sg:acc:m3, pospolita, null]
[92, 93, niż, niż, subst:sg:nom:m3, pospolita, null]
[92, 93, niż, niża, subst:pl:gen:f, pospolita, null]
[92, 93, niż, niżyć, impt:sg:sec:imperf, pospolita, null]
[92, 93, niż, nizać, impt:sg:sec:imperf, pospolita, null]
[92, 93, niż, niż, conj, pospolita, null]
[92, 93, niż, niż, prep:nom, pospolita, null]
[93, 94, środki, środki, subst:pl:acc:p3, pospolita, null]
[93, 94, środki, środki, subst:pl:nom:p3, pospolita, null]
[93, 94, środki, środki, subst:pl:voc:p3, pospolita, null]
[93, 94, środki, środek, subst:pl:acc:m3, pospolita, null]
[93, 94, środki, środek, subst:pl:nom:m3, pospolita, null]
[93, 94, środki, środek, subst:pl:voc:m3, pospolita, null]
[94, 95, chemiczne, chemiczny, adj:pl:acc:m2.m3.f.n1.n2.p2.p3:pos, pospolita, null]
[94, 95, chemiczne, chemiczny, adj:pl:nom.voc:m2.m3.f.n1.n2.p2.p3:pos, pospolita, null]
[94, 95, chemiczne, chemiczny, adj:sg:acc:n1.n2:pos, pospolita, null]
[94, 95, chemiczne, chemiczny, adj:sg:nom.voc:n1.n2:pos, pospolita, null]
[95, 96, i, i, interj, pospolita, null]
[95, 96, i, i, qub, pospolita, null]
[95, 96, i, i, conj, pospolita, null]
[96, 97, nie, nie, conj, pospolita, null]
[96, 97, nie, nie, qub, pospolita, null]
[96, 97, nie, on, ppron3:pl:acc:m2.m3.f.n1.n2.p2.p3:ter:_:praep, pospolita, null]
[96, 97, nie, on, ppron3:sg:acc:n1.n2:ter:_:praep, pospolita, null]
[97, 98, mają, maja, subst:sg:inst:f, pospolita, null]
[97, 98, mają, maić, fin:pl:ter:imperf, pospolita, null]
[97, 98, mają, mieć, fin:pl:ter:imperf, pospolita, null]
[98, 99, skutków, skutek, subst:pl:gen:m3, pospolita, null]
[99, 100, ubocznych, uboczny, adj:pl:acc:m1.p1:pos, pospolita, null]
[99, 100, ubocznych, uboczny, adj:pl:gen:m1.m2.m3.f.n1.n2.p1.p2.p3:pos, pospolita, null]
[99, 100, ubocznych, uboczny, adj:pl:loc:m1.m2.m3.f.n1.n2.p1.p2.p3:pos, pospolita, null]
[100, 101, ., ., interp, , null]
[101, 102, Poproś, poprosić, impt:sg:sec:perf, pospolita, null]
[102, 103, kogo, kto, subst:sg:acc:m1, pospolita, null]
[102, 103, kogo, kto, subst:sg:gen:m1, pospolita, null]
[102, 104, kogoś, ktoś, subst:sg:acc:m1, pospolita, null]
[102, 104, kogoś, ktoś, subst:sg:gen:m1, pospolita, null]
[103, 104, ś, być, aglt:sg:sec:imperf:nwok, pospolita, null]
[104, 105, o, o, prep:acc, pospolita, null]
[104, 105, o, o, prep:loc, pospolita, null]
[104, 105, o, o, interj, pospolita, null]
[105, 106, masaż, masaż, subst:sg:acc:m3, pospolita, null]
[105, 106, masaż, masaż, subst:sg:nom:m3, pospolita, null]
[106, 107, ,, ,, interp, , null]
[107, 108, zwłaszcza, zwłaszcza, conj, pospolita, null]
[107, 108, zwłaszcza, zwłaszcza, qub, pospolita, null]
[108, 109, górnych, górny, adj:pl:acc:m1.p1:pos, pospolita, null]
[108, 109, górnych, górny, adj:pl:gen:m1.m2.m3.f.n1.n2.p1.p2.p3:pos, pospolita, null]
[108, 109, górnych, górny, adj:pl:loc:m1.m2.m3.f.n1.n2.p1.p2.p3:pos, pospolita, null]
[109, 110, części, część, subst:pl:acc:f, pospolita, null]
[109, 110, części, część, subst:pl:gen:f, pospolita, null]
[109, 110, części, część, subst:pl:nom:f, pospolita, null]
[109, 110, części, część, subst:pl:voc:f, pospolita, null]
[109, 110, części, część, subst:sg:dat:f, pospolita, null]
[109, 110, części, część, subst:sg:gen:f, pospolita, null]
[109, 110, części, część, subst:sg:loc:f, pospolita, null]
[109, 110, części, część, subst:sg:voc:f, pospolita, null]
[109, 110, części, częsty, adj:pl:nom.voc:m1.p1:pos, pospolita, null]
[110, 111, ciała, ciało, subst:pl:acc:n2, pospolita, null]
[110, 111, ciała, ciało, subst:pl:nom:n2, pospolita, null]
[110, 111, ciała, ciało, subst:pl:voc:n2, pospolita, null]
[110, 111, ciała, ciało, subst:sg:gen:n2, pospolita, null]
[111, 112, :, :, interp, , null]
[112, 113, karku, kark, subst:sg:gen:m3, pospolita, null]
[112, 113, karku, kark, subst:sg:loc:m3, pospolita, null]
[112, 113, karku, kark, subst:sg:voc:m3, pospolita, null]
[112, 113, karku, karko, subst:sg:dat:n2, pospolita, null]
[112, 113, karku, karko, subst:sg:loc:n2, pospolita, null]
[113, 114, i, i, interj, pospolita, null]
[113, 114, i, i, qub, pospolita, null]
[113, 114, i, i, conj, pospolita, null]
[114, 115, ramion, ramię, subst:pl:gen:n2, pospolita, null]
[115, 116, ,, ,, interp, , null]
[116, 117, które, który, adj:pl:acc:m2.m3.f.n1.n2.p2.p3:pos, pospolita, null]
[116, 117, które, który, adj:pl:nom.voc:m2.m3.f.n1.n2.p2.p3:pos, pospolita, null]
[116, 117, które, który, adj:sg:acc:n1.n2:pos, pospolita, null]
[116, 117, które, który, adj:sg:nom.voc:n1.n2:pos, pospolita, null]
[117, 118, w, w, prep:acc:nwok, pospolita, null]
[117, 118, w, w, prep:loc:nwok, pospolita, null]
[118, 119, naturalny, naturalny, adj:sg:acc:m3:pos, pospolita, null]
[118, 119, naturalny, naturalny, adj:sg:nom.voc:m1.m2.m3:pos, pospolita, null]
[119, 120, sposób, sposób, subst:sg:acc:m3, pospolita, null]
[119, 120, sposób, sposób, subst:sg:nom:m3, pospolita, null]
[119, 120, sposób, sposobić, impt:sg:sec:imperf, pospolita, null]
[119, 120, sposób, sposób, pred, pospolita, null]
[120, 121, najszybciej, szybko, adv:sup, pospolita, null]
[121, 122, się, się, qub, , null]
[121, 122, się, się, qub, pospolita, null]
[122, 123, męczą, męczyć, fin:pl:ter:imperf, pospolita, null]
[123, 124, w, w, prep:acc:nwok, pospolita, null]
[123, 124, w, w, prep:loc:nwok, pospolita, null]
[124, 125, czasie, czas, subst:sg:loc:m3, pospolita, null]
[124, 125, czasie, czas, subst:sg:voc:m3, pospolita, null]
[125, 126, ślęczenia, ślęczeć, ger:sg:gen:n2:imperf:aff, pospolita, null]
[126, 127, nad, nad, prep:acc:nwok, pospolita, null]
[126, 127, nad, nad, prep:inst:nwok, pospolita, null]
[127, 128, książkami, książka, subst:pl:inst:f, pospolita, null]
[128, 129, ., ., interp, , null]
[129, 130, Zrób, zrobić, impt:sg:sec:perf, pospolita, null]
[129, 130, Zrób, zrób, subst:sg:acc:m3, pospolita, null]
[129, 130, Zrób, zrób, subst:sg:nom:m3, pospolita, null]
[130, 131, też, tenże, adj:pl:acc:m2.m3.f.n1.n2.p2.p3:pos, pospolita, null]
[130, 131, też, tenże, adj:pl:nom.voc:m2.m3.f.n1.n2.p2.p3:pos, pospolita, null]
[130, 131, też, też, qub, pospolita, null]
[131, 132, masaż, masaż, subst:sg:acc:m3, pospolita, null]
[131, 132, masaż, masaż, subst:sg:nom:m3, pospolita, null]
[132, 133, stóp, stopa, subst:pl:gen:f, pospolita, null]
[133, 134, ., ., interp, , null]
[134, 135, Myśl, myśl, subst:sg:acc:f, pospolita, null]
[134, 135, Myśl, myśl, subst:sg:nom:f, pospolita, null]
[134, 135, Myśl, myśleć, impt:sg:sec:imperf, pospolita, null]
[134, 135, Myśl, myślić, impt:sg:sec:imperf, pospolita, null]
[135, 136, pozytywnie, pozytywnie, adv:pos, pospolita, null]
[136, 137, ., ., interp, , null]
[137, 138, To, ten, adj:sg:acc:n1.n2:pos, pospolita, null]
[137, 138, To, ten, adj:sg:nom.voc:n1.n2:pos, pospolita, null]
[137, 138, To, to, qub, pospolita, null]
[137, 138, To, to, subst:sg:acc:n2, pospolita, null]
[137, 138, To, to, subst:sg:nom:n2, pospolita, null]
[137, 138, To, to, conj, pospolita, null]
[137, 138, To, to, pred, , null]
[138, 139, bardzo, bardzo, adv, pospolita, null]
[139, 140, ważny, ważny, adj:sg:acc:m3:pos, pospolita, null]
[139, 140, ważny, ważny, adj:sg:nom.voc:m1.m2.m3:pos, pospolita, null]
[140, 141, czynnik, czynnik, subst:sg:acc:m3, pospolita, null]
[140, 141, czynnik, czynnik, subst:sg:nom:m3, pospolita, null]
[141, 142, ,, ,, interp, , null]
[142, 143, który, który, adj:sg:acc:m3:pos, pospolita, null]
[142, 143, który, który, adj:sg:nom.voc:m1.m2.m3:pos, pospolita, null]
[143, 144, pomoże, pomóc, fin:sg:ter:perf, pospolita, null]
[144, 145, wygrać, wygrać, inf:perf, pospolita, null]
[145, 146, walkę, walka, subst:sg:acc:f, pospolita, null]
[146, 147, z, z, prep:acc:nwok, pospolita, null]
[146, 147, z, z, prep:gen:nwok, pospolita, null]
[146, 147, z, z, prep:inst:nwok, pospolita, null]
[147, 148, stresem, stres, subst:sg:inst:m3, pospolita, null]
[148, 149, ., ., interp, , null]
[149, 150, Wiele, Wiele, subst:sg:acc:n2, geograficzna, null]
[149, 150, Wiele, Wiele, subst:sg:nom:n2, geograficzna, null]
[149, 150, Wiele, Wiele, subst:sg:voc:n2, geograficzna, null]
[149, 150, Wiele, wiele, adv, pospolita, null]
[149, 150, Wiele, wiele, num:pl:nom.acc:m1.m2.m3.f.n1.n2.p1.p2:rec, pospolita, null]
[149, 150, Wiele, wiele, num:pl:nom.acc.voc:m2.m3.f.n1.n2.p1.p2:rec, pospolita, null]
[150, 151, osób, osoba, subst:pl:gen:f, pospolita, null]
[151, 152, –, –, interp, , null]
[152, 153, zupełnie, zupełnie, adv:pos, pospolita, null]
[153, 154, niesłusznie, niesłusznie, adv:pos, pospolita, null]
[154, 155, –, –, interp, , null]
[155, 156, z, z, prep:acc:nwok, pospolita, null]
[155, 156, z, z, prep:gen:nwok, pospolita, null]
[155, 156, z, z, prep:inst:nwok, pospolita, null]
[156, 157, góry, góry, subst:pl:acc:p3, pospolita, null]
[156, 157, góry, góry, subst:pl:nom:p3, pospolita, null]
[156, 157, góry, góry, subst:pl:voc:p3, pospolita, null]
[156, 157, góry, góra, subst:pl:acc:f, pospolita, null]
[156, 157, góry, góra, subst:pl:nom:f, pospolita, null]
[156, 157, góry, góra, subst:pl:voc:f, pospolita, null]
[156, 157, góry, góra, subst:sg:gen:f, pospolita, null]
[157, 158, skazuje, skazywać, fin:sg:ter:imperf, pospolita, null]
[158, 159, się, się, qub, , null]
[158, 159, się, się, qub, pospolita, null]
[159, 160, na, na, interj, pospolita, null]
[159, 160, na, na, prep:acc, pospolita, null]
[159, 160, na, na, prep:loc, pospolita, null]
[160, 161, niepowodzenie, niepowodzenie, subst:sg:acc:n2, pospolita, null]
[160, 161, niepowodzenie, niepowodzenie, subst:sg:nom:n2, pospolita, null]
[160, 161, niepowodzenie, niepowodzenie, subst:sg:voc:n2, pospolita, null]
[160, 161, niepowodzenie, powodzić, ger:sg:nom.acc:n2:perf:neg, pospolita, null]
[160, 161, niepowodzenie, niepowodzenie, subst:sg:acc:n2, pospolita, null]
[160, 161, niepowodzenie, niepowodzenie, subst:sg:nom:n2, pospolita, null]
[160, 161, niepowodzenie, niepowodzenie, subst:sg:voc:n2, pospolita, null]
[161, 162, ., ., interp, , null]
[162, 163, Uważają, uważać, fin:pl:ter:imperf, pospolita, null]
[163, 164, ,, ,, interp, , null]
[164, 165, że, że, comp, pospolita, null]
[164, 165, że, że, qub, pospolita, null]
[165, 166, nie, nie, conj, pospolita, null]
[165, 166, nie, nie, qub, pospolita, null]
[165, 166, nie, on, ppron3:pl:acc:m2.m3.f.n1.n2.p2.p3:ter:_:praep, pospolita, null]
[165, 166, nie, on, ppron3:sg:acc:n1.n2:ter:_:praep, pospolita, null]
[166, 167, poradzą, poradzić, fin:pl:ter:perf, pospolita, null]
[167, 168, sobie, siebie, siebie:dat, , null]
[167, 168, sobie, siebie, siebie:loc, , null]
[168, 169, z, z, prep:acc:nwok, pospolita, null]
[168, 169, z, z, prep:gen:nwok, pospolita, null]
[168, 169, z, z, prep:inst:nwok, pospolita, null]
[169, 170, egzaminem, egzamin, subst:sg:inst:m3, pospolita, null]
[170, 171, ., ., interp, , null]
[171, 172, Pomoc, pomoc, subst:sg:acc:f, pospolita, null]
[171, 172, Pomoc, pomoc, subst:sg:nom:f, pospolita, null]
[172, 173, ze, z, prep:acc:wok, pospolita, null]
[172, 173, ze, z, prep:gen:wok, pospolita, null]
[172, 173, ze, z, prep:inst:wok, pospolita, null]
[173, 174, strony, strona, subst:pl:acc:f, pospolita, null]
[173, 174, strony, strona, subst:pl:nom:f, pospolita, null]
[173, 174, strony, strona, subst:pl:voc:f, pospolita, null]
[173, 174, strony, strona, subst:sg:gen:f, pospolita, null]
[174, 175, rodziny, rodzina, subst:pl:acc:f, pospolita, null]
[174, 175, rodziny, rodzina, subst:pl:nom:f, pospolita, null]
[174, 175, rodziny, rodzina, subst:pl:voc:f, pospolita, null]
[174, 175, rodziny, rodzina, subst:sg:gen:f, pospolita, null]
[175, 176, ., ., interp, , null]
[176, 177, Rodzina, rodzina, subst:sg:nom:f, pospolita, null]
[177, 178, musi, musieć, fin:sg:ter:imperf, pospolita, null]
[177, 178, musi, musić, fin:sg:ter:imperf, pospolita, null]
[177, 178, musi, muszy, adj:pl:nom.voc:m1.p1:pos, pospolita, null]
[178, 179, zapewnić, zapewnić, inf:perf, pospolita, null]
[179, 180, dobre, dobre, subst:pl:acc:n2, pospolita, null]
[179, 180, dobre, dobre, subst:pl:nom:n2, pospolita, null]
[179, 180, dobre, dobre, subst:pl:voc:n2, pospolita, null]
[179, 180, dobre, dobre, subst:sg:acc:n2, pospolita, null]
[179, 180, dobre, dobre, subst:sg:nom:n2, pospolita, null]
[179, 180, dobre, dobre, subst:sg:voc:n2, pospolita, null]
[179, 180, dobre, dobry, subst:pl:acc:m3, pospolita, null]
[179, 180, dobre, dobry, subst:pl:nom:m3, pospolita, null]
[179, 180, dobre, dobry, subst:pl:voc:m3, pospolita, null]
[179, 180, dobre, dobry, depr:pl:nom:m2, pospolita, null]
[179, 180, dobre, dobry, depr:pl:voc:m2, pospolita, null]
[179, 180, dobre, dobry, adj:pl:acc:m2.m3.f.n1.n2.p2.p3:pos, pospolita, null]
[179, 180, dobre, dobry, adj:pl:nom.voc:m2.m3.f.n1.n2.p2.p3:pos, pospolita, null]
[179, 180, dobre, dobry, adj:sg:acc:n1.n2:pos, pospolita, null]
[179, 180, dobre, dobry, adj:sg:nom.voc:n1.n2:pos, pospolita, null]
[180, 181, warunki, warunki, subst:pl:acc:p3, pospolita, null]
[180, 181, warunki, warunki, subst:pl:nom:p3, pospolita, null]
[180, 181, warunki, warunki, subst:pl:voc:p3, pospolita, null]
[180, 181, warunki, warunek, subst:pl:acc:m3, pospolita, null]
[180, 181, warunki, warunek, subst:pl:nom:m3, pospolita, null]
[180, 181, warunki, warunek, subst:pl:voc:m3, pospolita, null]
[181, 182, nauki, nauka, subst:pl:acc:f, pospolita, null]
[181, 182, nauki, nauka, subst:pl:nom:f, pospolita, null]
[181, 182, nauki, nauka, subst:pl:voc:f, pospolita, null]
[181, 182, nauki, nauka, subst:sg:gen:f, pospolita, null]
[182, 183, –, –, interp, , null]
[183, 184, spokój, spokój, subst:sg:acc:m3, pospolita, null]
[183, 184, spokój, spokój, subst:sg:nom:m3, pospolita, null]
[183, 184, spokój, spokoić, impt:sg:sec:imperf, pospolita, null]
[184, 185, w, w, prep:acc:nwok, pospolita, null]
[184, 185, w, w, prep:loc:nwok, pospolita, null]
[185, 186, domu, dom, subst:sg:gen:m3, pospolita, null]
[185, 186, domu, dom, subst:sg:loc:m3, pospolita, null]
[185, 186, domu, dom, subst:sg:voc:m3, pospolita, null]
[186, 187, ., ., interp, , null]
[187, 188, Jak, jak, adv, pospolita, null]
[187, 188, Jak, jak, conj, pospolita, null]
[187, 188, Jak, jak, prep:nom, pospolita, null]
[187, 188, Jak, jak, adv:pos, pospolita, null]
[187, 188, Jak, jak, subst:sg:nom:m2, pospolita, null]
[187, 188, Jak, jaka, subst:pl:gen:f, pospolita, null]
[188, 189, uczyć, uczyć, inf:imperf, pospolita, null]
[189, 190, się, się, qub, , null]
[189, 190, się, się, qub, pospolita, null]
[190, 191, w, w, prep:acc:nwok, pospolita, null]
[190, 191, w, w, prep:loc:nwok, pospolita, null]
[191, 192, ostatnich, ostatni, subst:pl:acc:m1, pospolita, null]
[191, 192, ostatnich, ostatni, subst:pl:gen:m1, pospolita, null]
[191, 192, ostatnich, ostatni, subst:pl:loc:m1, pospolita, null]
[191, 192, ostatnich, ostatnie, subst:pl:gen:n2, pospolita, null]
[191, 192, ostatnich, ostatnie, subst:pl:loc:n2, pospolita, null]
[191, 192, ostatnich, ostatni, adj:pl:acc:m1.p1:pos, pospolita, null]
[191, 192, ostatnich, ostatni, adj:pl:gen:m1.m2.m3.f.n1.n2.p1.p2.p3:pos, pospolita, null]
[191, 192, ostatnich, ostatni, adj:pl:loc:m1.m2.m3.f.n1.n2.p1.p2.p3:pos, pospolita, null]
[192, 193, chwilach, chwila, subst:pl:loc:f, pospolita, null]
[193, 194, ?, ?, interp, , null]
[194, 195, Wzrokowcy, Wzrokowcy, ign, , null]
[195, 196, powinni, powinien, winien:pl:m1.p1:imperf, pospolita, null]
[195, 196, powinni, powinny, adj:pl:nom.voc:m1.p1:pos, pospolita, null]
[196, 197, uczyć, uczyć, inf:imperf, pospolita, null]
[197, 198, się, się, qub, , null]
[197, 198, się, się, qub, pospolita, null]
[198, 199, ,, ,, interp, , null]
[199, 200, podkreślając, podkreślać, pcon:imperf, pospolita, null]
[200, 201, w, w, prep:acc:nwok, pospolita, null]
[200, 201, w, w, prep:loc:nwok, pospolita, null]
[201, 202, książkach, książka, subst:pl:loc:f, pospolita, null]
[202, 203, interesujące, interesować, pact:pl:nom.acc.voc:m2.m3.f.n1.n2.p2.p3:imperf:aff, pospolita, null]
[202, 203, interesujące, interesować, pact:sg:nom.acc.voc:n1.n2:imperf:aff, pospolita, null]
[202, 203, interesujące, interesujący, adj:pl:acc:m2.m3.f.n1.n2.p2.p3:pos, pospolita, null]
[202, 203, interesujące, interesujący, adj:pl:nom.voc:m2.m3.f.n1.n2.p2.p3:pos, pospolita, null]
[202, 203, interesujące, interesujący, adj:sg:acc:n1.n2:pos, pospolita, null]
[202, 203, interesujące, interesujący, adj:sg:nom.voc:n1.n2:pos, pospolita, null]
[203, 204, ich, on, ppron3:pl:acc:m1.p1:ter:_:npraep, pospolita, null]
[203, 204, ich, on, ppron3:pl:gen:_:ter:_:npraep, pospolita, null]
[204, 205, fragmenty, fragment, subst:pl:acc:m3, pospolita, null]
[204, 205, fragmenty, fragment, subst:pl:nom:m3, pospolita, null]
[204, 205, fragmenty, fragment, subst:pl:voc:m3, pospolita, null]
[205, 206, kolorowymi, kolorowy, subst:pl:inst:m1, pospolita, null]
[205, 206, kolorowymi, kolorowa, subst:pl:inst:f, pospolita, null]
[205, 206, kolorowymi, kolorowy, adj:pl:inst:m1.m2.m3.f.n1.n2.p1.p2.p3:pos, pospolita, null]
[206, 207, markerami, marker, subst:pl:inst:m3, pospolita, null]
[207, 208, ., ., interp, , null]
[208, 209, Mogą, móc, fin:pl:ter:imperf, pospolita, null]
[209, 210, też, tenże, adj:pl:acc:m2.m3.f.n1.n2.p2.p3:pos, pospolita, null]
[209, 210, też, tenże, adj:pl:nom.voc:m2.m3.f.n1.n2.p2.p3:pos, pospolita, null]
[209, 210, też, też, qub, pospolita, null]
[210, 211, wieszać, wieszać, inf:imperf, pospolita, null]
[211, 212, w, w, prep:acc:nwok, pospolita, null]
[211, 212, w, w, prep:loc:nwok, pospolita, null]
[212, 213, różnych, różny, adj:pl:acc:m1.p1:pos, pospolita, null]
[212, 213, różnych, różny, adj:pl:gen:m1.m2.m3.f.n1.n2.p1.p2.p3:pos, pospolita, null]
[212, 213, różnych, różny, adj:pl:loc:m1.m2.m3.f.n1.n2.p1.p2.p3:pos, pospolita, null]
[213, 214, miejscach, miejsce, subst:pl:loc:n2, pospolita, null]
[214, 215, domu, dom, subst:sg:gen:m3, pospolita, null]
[214, 215, domu, dom, subst:sg:loc:m3, pospolita, null]
[214, 215, domu, dom, subst:sg:voc:m3, pospolita, null]
[215, 216, karteczki, karteczka, subst:pl:acc:f, pospolita, null]
[215, 216, karteczki, karteczka, subst:pl:nom:f, pospolita, null]
[215, 216, karteczki, karteczka, subst:pl:voc:f, pospolita, null]
[215, 216, karteczki, karteczka, subst:sg:gen:f, pospolita, null]
[216, 217, z, z, prep:acc:nwok, pospolita, null]
[216, 217, z, z, prep:gen:nwok, pospolita, null]
[216, 217, z, z, prep:inst:nwok, pospolita, null]
[217, 218, danymi, dana, subst:pl:inst:f, pospolita, null]
[217, 218, danymi, dane, subst:pl:inst:p3, pospolita, null]
[217, 218, danymi, dać, ppas:pl:inst:m1.m2.m3.f.n1.n2.p1.p2.p3:perf:aff, pospolita, null]
[217, 218, danymi, dany, adj:pl:inst:m1.m2.m3.f.n1.n2.p1.p2.p3:pos, pospolita, null]
[218, 219, ,, ,, interp, , null]
[219, 220, datami, data, subst:pl:inst:f, pospolita, null]
[220, 221, czy, czy, conj, pospolita, null]
[220, 221, czy, czy, qub, pospolita, null]
[221, 222, słówkami, słówko, subst:pl:inst:n2, pospolita, null]
[222, 223, ., ., interp, , null]
[223, 224, To, ten, adj:sg:acc:n1.n2:pos, pospolita, null]
[223, 224, To, ten, adj:sg:nom.voc:n1.n2:pos, pospolita, null]
[223, 224, To, to, qub, pospolita, null]
[223, 224, To, to, subst:sg:acc:n2, pospolita, null]
[223, 224, To, to, subst:sg:nom:n2, pospolita, null]
[223, 224, To, to, conj, pospolita, null]
[223, 224, To, to, pred, , null]
[224, 225, wszystko, wszystko, subst:sg:acc:n2, pospolita, null]
[224, 225, wszystko, wszystko, subst:sg:nom:n2, pospolita, null]
[224, 225, wszystko, wszystko, adv, pospolita, null]
[225, 226, pomoże, pomóc, fin:sg:ter:perf, pospolita, null]
[226, 227, im, im, comp, pospolita, null]
[226, 227, im, on, ppron3:pl:dat:_:ter:_:npraep, pospolita, null]
[227, 228, przyswoić, przyswoić, inf:perf, pospolita, null]
[228, 229, część, część, subst:sg:acc:f, pospolita, null]
[228, 229, część, część, subst:sg:nom:f, pospolita, null]
[229, 230, wiadomości, wiadomości, subst:pl:acc:p3, pospolita, null]
[229, 230, wiadomości, wiadomości, subst:pl:gen:p3, pospolita, null]
[229, 230, wiadomości, wiadomości, subst:pl:nom:p3, pospolita, null]
[229, 230, wiadomości, wiadomości, subst:pl:voc:p3, pospolita, null]
[229, 230, wiadomości, wiadomość, subst:pl:acc:f, pospolita, null]
[229, 230, wiadomości, wiadomość, subst:pl:gen:f, pospolita, null]
[229, 230, wiadomości, wiadomość, subst:pl:nom:f, pospolita, null]
[229, 230, wiadomości, wiadomość, subst:pl:voc:f, pospolita, null]
[229, 230, wiadomości, wiadomość, subst:sg:dat:f, pospolita, null]
[229, 230, wiadomości, wiadomość, subst:sg:gen:f, pospolita, null]
[229, 230, wiadomości, wiadomość, subst:sg:loc:f, pospolita, null]
[229, 230, wiadomości, wiadomość, subst:sg:voc:f, pospolita, null]
[230, 231, ., ., interp, , null]
[231, 232, Nie, nie, conj, pospolita, null]
[231, 232, Nie, nie, qub, pospolita, null]
[231, 232, Nie, on, ppron3:pl:acc:m2.m3.f.n1.n2.p2.p3:ter:_:praep, pospolita, null]
[231, 232, Nie, on, ppron3:sg:acc:n1.n2:ter:_:praep, pospolita, null]
[232, 233, można, możny, adj:sg:nom.voc:f:pos, pospolita, null]
[232, 233, można, można, pred, pospolita, null]
[233, 234, się, się, qub, , null]
[233, 234, się, się, qub, pospolita, null]
[234, 235, „, „, interp, , null]
[235, 236, przeuczyć, przeuczyć, inf:perf, pospolita, null]
[236, 237, ”, ”, interp, , null]
[237, 238, ., ., interp, , null]
[238, 239, Po, po, prep:acc, pospolita, null]
[238, 239, Po, po, prep:loc, pospolita, null]
[239, 240, trzech, trzy, num:pl:acc:m1:rec, pospolita, null]
[239, 240, trzech, trzy, num:pl:gen.loc:m1.m2.m3.n2.f:congr, pospolita, null]
[239, 240, trzech, trzy, num:pl:nom.voc:m1:rec, pospolita, null]
[240, 241, godzinach, godzina, subst:pl:loc:f, pospolita, null]
[241, 242, nauki, nauka, subst:pl:acc:f, pospolita, null]
[241, 242, nauki, nauka, subst:pl:nom:f, pospolita, null]
[241, 242, nauki, nauka, subst:pl:voc:f, pospolita, null]
[241, 242, nauki, nauka, subst:sg:gen:f, pospolita, null]
[242, 243, mózg, mózg, subst:sg:acc:m3, pospolita, null]
[242, 243, mózg, mózg, subst:sg:nom:m3, pospolita, null]
[243, 244, nie, nie, conj, pospolita, null]
[243, 244, nie, nie, qub, pospolita, null]
[243, 244, nie, on, ppron3:pl:acc:m2.m3.f.n1.n2.p2.p3:ter:_:praep, pospolita, null]
[243, 244, nie, on, ppron3:sg:acc:n1.n2:ter:_:praep, pospolita, null]
[244, 245, przyswaja, przyswajać, fin:sg:ter:imperf, pospolita, null]
[245, 246, już, już, qub, pospolita, null]
[246, 247, bowiem, bowiem, comp, pospolita, null]
[247, 248, informacji, informacja, subst:pl:gen:f, pospolita, null]
[247, 248, informacji, informacja, subst:sg:dat:f, pospolita, null]
[247, 248, informacji, informacja, subst:sg:gen:f, pospolita, null]
[247, 248, informacji, informacja, subst:sg:loc:f, pospolita, null]
[248, 249, ., ., interp, , null]
[249, 250, Dlatego, dlatego, adv, pospolita, null]
[250, 251, trzeba, trzeba, pred, pospolita, null]
[251, 252, robić, robić, inf:imperf, pospolita, null]
[252, 253, przerwy, przerwa, subst:pl:acc:f, pospolita, null]
[252, 253, przerwy, przerwa, subst:pl:nom:f, pospolita, null]
[252, 253, przerwy, przerwa, subst:pl:voc:f, pospolita, null]
[252, 253, przerwy, przerwa, subst:sg:gen:f, pospolita, null]
[253, 254, ., ., interp, , null]
[254, 255, Najlepiej, dobrze, adv:sup, pospolita, null]
[255, 256, co, co, prep:acc, pospolita, null]
[255, 256, co, co, prep:nom, pospolita, null]
[255, 256, co, co, qub, pospolita, null]
[255, 256, co, co, comp, pospolita, null]
[255, 256, co, co, subst:sg:acc:n2, pospolita, null]
[255, 256, co, co, subst:sg:gen:n2, pospolita, null]
[255, 256, co, co, subst:sg:nom:n2, pospolita, null]
[256, 257, godzinę, godzina, subst:sg:acc:f, pospolita, null]
[257, 258, ., ., interp, , null]
[258, 259, A, a, conj, pospolita, null]
[258, 259, A, a, interj, pospolita, null]
[258, 259, A, a, prep:nom, pospolita, null]
[258, 259, A, a, qub, pospolita, null]
[259, 260, w, w, prep:acc:nwok, pospolita, null]
[259, 260, w, w, prep:loc:nwok, pospolita, null]
[260, 261, tym, to, subst:sg:inst:n2, pospolita, null]
[260, 261, tym, to, subst:sg:loc:n2, pospolita, null]
[260, 261, tym, tym, adv, pospolita, null]
[260, 261, tym, tym, conj, pospolita, null]
[260, 261, tym, ten, adj:pl:dat:m1.m2.m3.f.n1.n2.p1.p2.p3:pos, pospolita, null]
[260, 261, tym, ten, adj:sg:inst:m1.m2.m3.n1.n2:pos, pospolita, null]
[260, 261, tym, ten, adj:sg:loc:m1.m2.m3.n1.n2:pos, pospolita, null]
[261, 262, czasie, czas, subst:sg:loc:m3, pospolita, null]
[261, 262, czasie, czas, subst:sg:voc:m3, pospolita, null]
[262, 263, pójść, pójść, inf:perf, pospolita, null]
[262, 263, pójść, pójście, subst:pl:gen:n2, pospolita, null]
[263, 264, na, na, interj, pospolita, null]
[263, 264, na, na, prep:acc, pospolita, null]
[263, 264, na, na, prep:loc, pospolita, null]
[264, 265, spacer, spacer, subst:sg:acc:m3, pospolita, null]
[264, 265, spacer, spacer, subst:sg:nom:m3, pospolita, null]
[265, 266, ., ., interp, , null]
[266, 267, Krótka, krótki, adj:sg:nom.voc:f:pos, pospolita, null]
[267, 268, przerwa, przerwa, subst:sg:nom:f, pospolita, null]
[268, 269, nie, nie, conj, pospolita, null]
[268, 269, nie, nie, qub, pospolita, null]
[268, 269, nie, on, ppron3:pl:acc:m2.m3.f.n1.n2.p2.p3:ter:_:praep, pospolita, null]
[268, 269, nie, on, ppron3:sg:acc:n1.n2:ter:_:praep, pospolita, null]
[269, 270, wystarczy, wystarczyć, fin:sg:ter:perf, pospolita, null]
[270, 271, ., ., interp, , null]
[271, 272, Trzeba, trzeba, pred, pospolita, null]
[272, 273, oderwać, oderwać, inf:perf, pospolita, null]
[273, 274, się, się, qub, , null]
[273, 274, się, się, qub, pospolita, null]
[274, 275, zupełnie, zupełnie, adv:pos, pospolita, null]
[275, 276, od, od, prep:gen:nwok, pospolita, null]
[276, 277, myślenia, myślenie, subst:pl:acc:n2, pospolita, null]
[276, 277, myślenia, myślenie, subst:pl:nom:n2, pospolita, null]
[276, 277, myślenia, myślenie, subst:pl:voc:n2, pospolita, null]
[276, 277, myślenia, myślenie, subst:sg:gen:n2, pospolita, null]
[276, 277, myślenia, myśleć, ger:sg:gen:n2:imperf:aff, pospolita, null]
[276, 277, myślenia, myślić, ger:sg:gen:n2:imperf:aff, pospolita, null]
[277, 278, o, o, prep:acc, pospolita, null]
[277, 278, o, o, prep:loc, pospolita, null]
[277, 278, o, o, interj, pospolita, null]
[278, 279, nauce, nauka, subst:sg:dat:f, pospolita, null]
[278, 279, nauce, nauka, subst:sg:loc:f, pospolita, null]
[279, 280, ., ., interp, , null]
[280, 281, Muzyka, muzyka, subst:sg:nom:f, pospolita, null]
[280, 281, Muzyka, Muzyka, subst:sg:nom:m1, , null]
[280, 281, Muzyka, muzyk, subst:sg:acc:m1, pospolita, null]
[280, 281, Muzyka, muzyk, subst:sg:gen:m1, pospolita, null]
[280, 281, Muzyka, Muzyk, subst:sg:acc:m1, , null]
[280, 281, Muzyka, Muzyk, subst:sg:gen:m1, , null]
[281, 282, pomaga, pomagać, fin:sg:ter:imperf, pospolita, null]
[282, 283, skoncentrować, skoncentrować, inf:perf, pospolita, null]
[283, 284, się, się, qub, , null]
[283, 284, się, się, qub, pospolita, null]
[284, 285, na, na, interj, pospolita, null]
[284, 285, na, na, prep:acc, pospolita, null]
[284, 285, na, na, prep:loc, pospolita, null]
[285, 286, nauce, nauka, subst:sg:dat:f, pospolita, null]
[285, 286, nauce, nauka, subst:sg:loc:f, pospolita, null]
[286, 287, ., ., interp, , null]
[287, 288, Ale, ale, conj, pospolita, null]
[287, 288, Ale, ale, qub, pospolita, null]
[287, 288, Ale, Al, depr:pl:nom:m2, imię, null]
[287, 288, Ale, Al, depr:pl:voc:m2, imię, null]
[287, 288, Ale, Ali, depr:pl:nom:m2, imię, null]
[287, 288, Ale, Ali, depr:pl:voc:m2, imię, null]
[287, 288, Ale, Alo, depr:pl:nom:m2, imię, null]
[287, 288, Ale, Alo, depr:pl:voc:m2, imię, null]
[287, 288, Ale, Ala, subst:pl:acc:f, imię, null]
[287, 288, Ale, Ala, subst:pl:nom:f, imię, null]
[287, 288, Ale, Ala, subst:pl:voc:f, imię, null]
[288, 289, nie, nie, conj, pospolita, null]
[288, 289, nie, nie, qub, pospolita, null]
[288, 289, nie, on, ppron3:pl:acc:m2.m3.f.n1.n2.p2.p3:ter:_:praep, pospolita, null]
[288, 289, nie, on, ppron3:sg:acc:n1.n2:ter:_:praep, pospolita, null]
[289, 290, każda, każdy, adj:sg:nom.voc:f:pos, pospolita, null]
[290, 291, ., ., interp, , null]
[291, 292, Najlepsza, dobry, adj:sg:nom.voc:f:sup, pospolita, null]
[292, 293, jest, być, fin:sg:ter:imperf, pospolita, null]
[293, 294, muzyka, muzyka, subst:sg:nom:f, pospolita, null]
[293, 294, muzyka, muzyk, subst:sg:acc:m1, pospolita, null]
[293, 294, muzyka, muzyk, subst:sg:gen:m1, pospolita, null]
[294, 295, klasyczna, klasyczny, adj:sg:nom.voc:f:pos, pospolita, null]
[295, 296, ,, ,, interp, , null]
[296, 297, np, np, ign, , null]
[297, 298, ., ., interp, , null]
[298, 299, Bach, Bach, subst:sg:nom:m1, nazwisko, null]
[298, 299, Bach, bach, interj, pospolita, null]
[299, 300, i, i, interj, pospolita, null]
[299, 300, i, i, qub, pospolita, null]
[299, 300, i, i, conj, pospolita, null]
[300, 301, Mozart, Mozart, subst:sg:nom:m1, nazwisko, null]
[301, 302, rewelacyjnie, rewelacyjnie, adv:pos, pospolita, null]
[302, 303, wpływają, wpływać, fin:pl:ter:imperf, pospolita, null]
[303, 304, na, na, interj, pospolita, null]
[303, 304, na, na, prep:acc, pospolita, null]
[303, 304, na, na, prep:loc, pospolita, null]
[304, 305, koncentrację, koncentracja, subst:sg:acc:f, pospolita, null]
[305, 306, ., ., interp, , null]
[306, 307, Nie, nie, conj, pospolita, null]
[306, 307, Nie, nie, qub, pospolita, null]
[306, 307, Nie, on, ppron3:pl:acc:m2.m3.f.n1.n2.p2.p3:ter:_:praep, pospolita, null]
[306, 307, Nie, on, ppron3:sg:acc:n1.n2:ter:_:praep, pospolita, null]
[307, 308, porównujcie, porównywać, impt:pl:sec:imperf, pospolita, null]
[308, 309, z, z, prep:acc:nwok, pospolita, null]
[308, 309, z, z, prep:gen:nwok, pospolita, null]
[308, 309, z, z, prep:inst:nwok, pospolita, null]
[309, 310, innymi, inny, subst:pl:inst:m1, pospolita, null]
[309, 310, innymi, inny, adj:pl:inst:m1.m2.m3.f.n1.n2.p1.p2.p3:pos, pospolita, null]
[310, 311, ., ., interp, , null]
[311, 312, Nie, nie, conj, pospolita, null]
[311, 312, Nie, nie, qub, pospolita, null]
[311, 312, Nie, on, ppron3:pl:acc:m2.m3.f.n1.n2.p2.p3:ter:_:praep, pospolita, null]
[311, 312, Nie, on, ppron3:sg:acc:n1.n2:ter:_:praep, pospolita, null]
[312, 313, zastanawiajcie, zastanawiać, impt:pl:sec:imperf, pospolita, null]
[313, 314, się, się, qub, , null]
[313, 314, się, się, qub, pospolita, null]
[314, 315, ,, ,, interp, , null]
[315, 316, jak, jak, adv, pospolita, null]
[315, 316, jak, jak, conj, pospolita, null]
[315, 316, jak, jak, prep:nom, pospolita, null]
[315, 316, jak, jak, adv:pos, pospolita, null]
[315, 316, jak, jak, subst:sg:nom:m2, pospolita, null]
[315, 316, jak, jaka, subst:pl:gen:f, pospolita, null]
[316, 317, wypadnie, wypaść, fin:sg:ter:perf, pospolita, null]
[317, 318, kolega, kolega, subst:sg:nom:m1, pospolita, null]
[318, 319, i, i, interj, pospolita, null]
[318, 319, i, i, qub, pospolita, null]
[318, 319, i, i, conj, pospolita, null]
[319, 320, czy, czy, conj, pospolita, null]
[319, 320, czy, czy, qub, pospolita, null]
[320, 321, wasz, wasz, adj:sg:acc:m3:pos, pospolita, null]
[320, 321, wasz, wasz, adj:sg:nom.voc:m1.m2.m3:pos, pospolita, null]
[321, 322, wynik, wynik, subst:sg:acc:m3, pospolita, null]
[321, 322, wynik, wynik, subst:sg:nom:m3, pospolita, null]
[322, 323, będzie, być, bedzie:sg:ter:imperf, pospolita, null]
[323, 324, lepszy, dobry, adj:sg:acc:m3:com, pospolita, null]
[323, 324, lepszy, dobry, adj:sg:nom.voc:m1.m2.m3:com, pospolita, null]
[324, 325, czy, czy, conj, pospolita, null]
[324, 325, czy, czy, qub, pospolita, null]
[325, 326, gorszy, zły, adj:sg:acc:m3:com, pospolita, null]
[325, 326, gorszy, zły, adj:sg:nom.voc:m1.m2.m3:com, pospolita, null]
[325, 326, gorszy, gorszyć, fin:sg:ter:imperf, pospolita, null]
[326, 327, niż, niż, subst:sg:acc:m3, pospolita, null]
[326, 327, niż, niż, subst:sg:nom:m3, pospolita, null]
[326, 327, niż, niża, subst:pl:gen:f, pospolita, null]
[326, 327, niż, niżyć, impt:sg:sec:imperf, pospolita, null]
[326, 327, niż, nizać, impt:sg:sec:imperf, pospolita, null]
[326, 327, niż, niż, conj, pospolita, null]
[326, 327, niż, niż, prep:nom, pospolita, null]
[327, 328, jego, on, ppron3:sg:acc:m1.m2.m3:ter:akc:npraep, pospolita, null]
[327, 328, jego, on, ppron3:sg:gen:m1.m2.m3:ter:akc:npraep, pospolita, null]
[327, 328, jego, on, ppron3:sg:gen:n1.n2:ter:akc:npraep, pospolita, null]
[328, 329, ., ., interp, , null]
[329, 330, Musicie, musieć, fin:pl:sec:imperf, pospolita, null]
[329, 330, Musicie, musić, fin:pl:sec:imperf, pospolita, null]
[330, 331, ], ], interp, , null]
[331, 332, chcieć, chcieć, inf:imperf, pospolita, null]
[332, 333, wypaść, wypaść, inf:perf, pospolita, null]
[333, 334, jak, jak, adv, pospolita, null]
[333, 334, jak, jak, conj, pospolita, null]
[333, 334, jak, jak, prep:nom, pospolita, null]
[333, 334, jak, jak, adv:pos, pospolita, null]
[333, 334, jak, jak, subst:sg:nom:m2, pospolita, null]
[333, 334, jak, jaka, subst:pl:gen:f, pospolita, null]
[334, 335, najlepiej, dobrze, adv:sup, pospolita, null]
[335, 336, na, na, interj, pospolita, null]
[335, 336, na, na, prep:acc, pospolita, null]
[335, 336, na, na, prep:loc, pospolita, null]
[336, 337, miarę, miara, subst:sg:acc:f, pospolita, null]
[337, 338, swoich, swoje, subst:pl:gen:n2, pospolita, null]
[337, 338, swoich, swoje, subst:pl:loc:n2, pospolita, null]
[337, 338, swoich, swój, adj:pl:acc:m1.p1:pos, pospolita, null]
[337, 338, swoich, swój, adj:pl:gen:m1.m2.m3.f.n1.n2.p1.p2.p3:pos, pospolita, null]
[337, 338, swoich, swój, adj:pl:loc:m1.m2.m3.f.n1.n2.p1.p2.p3:pos, pospolita, null]
[338, 339, możliwości, możliwości, subst:pl:acc:p3, pospolita, null]
[338, 339, możliwości, możliwości, subst:pl:gen:p3, pospolita, null]
[338, 339, możliwości, możliwości, subst:pl:nom:p3, pospolita, null]
[338, 339, możliwości, możliwości, subst:pl:voc:p3, pospolita, null]
[338, 339, możliwości, możliwość, subst:pl:acc:f, pospolita, null]
[338, 339, możliwości, możliwość, subst:pl:gen:f, pospolita, null]
[338, 339, możliwości, możliwość, subst:pl:nom:f, pospolita, null]
[338, 339, możliwości, możliwość, subst:pl:voc:f, pospolita, null]
[338, 339, możliwości, możliwość, subst:sg:dat:f, pospolita, null]
[338, 339, możliwości, możliwość, subst:sg:gen:f, pospolita, null]
[338, 339, możliwości, możliwość, subst:sg:loc:f, pospolita, null]
[338, 339, możliwości, możliwość, subst:sg:voc:f, pospolita, null]
[339, 340, ., ., interp, , null]
