[0, 1, Z, z, prep:acc:nwok, pospolita, null]
[0, 1, Z, z, prep:gen:nwok, pospolita, null]
[0, 1, Z, z, prep:inst:nwok, pospolita, null]
[1, 2, okresu, okres, subst:sg:gen:m3, pospolita, null]
[2, 3, średniowiecza, średniowiecze, subst:pl:acc:n2, pospolita, null]
[2, 3, średniowiecza, średniowiecze, subst:pl:nom:n2, pospolita, null]
[2, 3, średniowiecza, średniowiecze, subst:pl:voc:n2, pospolita, null]
[2, 3, średniowiecza, średniowiecze, subst:sg:gen:n2, pospolita, null]
[3, 4, ,, ,, interp, , null]
[4, 5, do, do, subst:pl:acc:n2, pospolita, null]
[4, 5, do, do, subst:pl:dat:n2, pospolita, null]
[4, 5, do, do, subst:pl:gen:n2, pospolita, null]
[4, 5, do, do, subst:pl:inst:n2, pospolita, null]
[4, 5, do, do, subst:pl:loc:n2, pospolita, null]
[4, 5, do, do, subst:pl:nom:n2, pospolita, null]
[4, 5, do, do, subst:pl:voc:n2, pospolita, null]
[4, 5, do, do, subst:sg:acc:n2, pospolita, null]
[4, 5, do, do, subst:sg:dat:n2, pospolita, null]
[4, 5, do, do, subst:sg:gen:n2, pospolita, null]
[4, 5, do, do, subst:sg:inst:n2, pospolita, null]
[4, 5, do, do, subst:sg:loc:n2, pospolita, null]
[4, 5, do, do, subst:sg:nom:n2, pospolita, null]
[4, 5, do, do, subst:sg:voc:n2, pospolita, null]
[4, 5, do, do, prep:gen, pospolita, null]
[5, 6, dziś, dziś, adv, pospolita, null]
[5, 6, dziś, dziś, subst:pl:acc:n2, pospolita, null]
[5, 6, dziś, dziś, subst:pl:dat:n2, pospolita, null]
[5, 6, dziś, dziś, subst:pl:gen:n2, pospolita, null]
[5, 6, dziś, dziś, subst:pl:inst:n2, pospolita, null]
[5, 6, dziś, dziś, subst:pl:loc:n2, pospolita, null]
[5, 6, dziś, dziś, subst:pl:nom:n2, pospolita, null]
[5, 6, dziś, dziś, subst:pl:voc:n2, pospolita, null]
[5, 6, dziś, dziś, subst:sg:acc:n2, pospolita, null]
[5, 6, dziś, dziś, subst:sg:dat:n2, pospolita, null]
[5, 6, dziś, dziś, subst:sg:gen:n2, pospolita, null]
[5, 6, dziś, dziś, subst:sg:inst:n2, pospolita, null]
[5, 6, dziś, dziś, subst:sg:loc:n2, pospolita, null]
[5, 6, dziś, dziś, subst:sg:nom:n2, pospolita, null]
[5, 6, dziś, dziś, subst:sg:voc:n2, pospolita, null]
[6, 7, zachował, zachować, praet:sg:m1.m2.m3:perf, pospolita, null]
[7, 8, się, się, qub, , null]
[7, 8, się, się, qub, pospolita, null]
[8, 9, zespół, zespół, subst:sg:acc:m3, pospolita, null]
[8, 9, zespół, zespół, subst:sg:nom:m3, pospolita, null]
[9, 10, zabytków, zabytek, subst:pl:gen:m3, pospolita, null]
[10, 11, z, z, prep:acc:nwok, pospolita, null]
[10, 11, z, z, prep:gen:nwok, pospolita, null]
[10, 11, z, z, prep:inst:nwok, pospolita, null]
[11, 12, późnego, późny, adj:sg:acc:m1.m2:pos, pospolita, null]
[11, 12, późnego, późny, adj:sg:gen:m1.m2.m3.n1.n2:pos, pospolita, null]
[12, 13, średniowiecza, średniowiecze, subst:pl:acc:n2, pospolita, null]
[12, 13, średniowiecza, średniowiecze, subst:pl:nom:n2, pospolita, null]
[12, 13, średniowiecza, średniowiecze, subst:pl:voc:n2, pospolita, null]
[12, 13, średniowiecza, średniowiecze, subst:sg:gen:n2, pospolita, null]
[13, 14, (, (, interp, , null]
[14, 15, w, w, prep:acc:nwok, pospolita, null]
[14, 15, w, w, prep:loc:nwok, pospolita, null]
[15, 16, znacznym, znaczny, adj:pl:dat:m1.m2.m3.f.n1.n2.p1.p2.p3:pos, pospolita, null]
[15, 16, znacznym, znaczny, adj:sg:inst:m1.m2.m3.n1.n2:pos, pospolita, null]
[15, 16, znacznym, znaczny, adj:sg:loc:m1.m2.m3.n1.n2:pos, pospolita, null]
[16, 17, stopniu, stopień, subst:sg:loc:m3, pospolita, null]
[16, 17, stopniu, stopień, subst:sg:voc:m3, pospolita, null]
[17, 18, odbudowane, odbudować, ppas:pl:nom.acc.voc:m2.m3.f.n1.n2.p2.p3:perf:aff, pospolita, null]
[17, 18, odbudowane, odbudować, ppas:sg:nom.acc.voc:n1.n2:perf:aff, pospolita, null]
[18, 19, i, i, interj, pospolita, null]
[18, 19, i, i, qub, pospolita, null]
[18, 19, i, i, conj, pospolita, null]
[19, 20, zrekonstruowane, zrekonstruować, ppas:pl:nom.acc.voc:m2.m3.f.n1.n2.p2.p3:perf:aff, pospolita, null]
[19, 20, zrekonstruowane, zrekonstruować, ppas:sg:nom.acc.voc:n1.n2:perf:aff, pospolita, null]
[20, 21, ), ), interp, , null]
[21, 22, ., ., interp, , null]
[22, 23, Zachował, zachować, praet:sg:m1.m2.m3:perf, pospolita, null]
[23, 24, się, się, qub, , null]
[23, 24, się, się, qub, pospolita, null]
[24, 25, układ, układ, subst:sg:acc:m3, pospolita, null]
[24, 25, układ, układ, subst:sg:nom:m3, pospolita, null]
[25, 26, urbanistyczny, urbanistyczny, adj:sg:acc:m3:pos, pospolita, null]
[25, 26, urbanistyczny, urbanistyczny, adj:sg:nom.voc:m1.m2.m3:pos, pospolita, null]
[26, 27, z, z, prep:acc:nwok, pospolita, null]
[26, 27, z, z, prep:gen:nwok, pospolita, null]
[26, 27, z, z, prep:inst:nwok, pospolita, null]
[27, 28, regularnym, regularny, adj:pl:dat:m1.m2.m3.f.n1.n2.p1.p2.p3:pos, pospolita, null]
[27, 28, regularnym, regularny, adj:sg:inst:m1.m2.m3.n1.n2:pos, pospolita, null]
[27, 28, regularnym, regularny, adj:sg:loc:m1.m2.m3.n1.n2:pos, pospolita, null]
[28, 29, układem, układ, subst:sg:inst:m3, pospolita, null]
[29, 30, ulic, ulica, subst:pl:gen:f, pospolita, null]
[30, 31, i, i, interj, pospolita, null]
[30, 31, i, i, qub, pospolita, null]
[30, 31, i, i, conj, pospolita, null]
[31, 32, centralnie, centralnie, adv:pos, pospolita, null]
[32, 33, położonym, położyć, ppas:pl:dat:m1.m2.m3.f.n1.n2.p1.p2.p3:perf:aff, pospolita, null]
[32, 33, położonym, położyć, ppas:sg:inst.loc:m1.m2.m3.n1.n2:perf:aff, pospolita, null]
[33, 34, rynkiem, rynek, subst:sg:inst:m3, pospolita, null]
[34, 35, ., ., interp, , null]
[35, 36, W, w, prep:acc:nwok, pospolita, null]
[35, 36, W, w, prep:loc:nwok, pospolita, null]
[36, 37, jego, on, ppron3:sg:acc:m1.m2.m3:ter:akc:npraep, pospolita, null]
[36, 37, jego, on, ppron3:sg:gen:m1.m2.m3:ter:akc:npraep, pospolita, null]
[36, 37, jego, on, ppron3:sg:gen:n1.n2:ter:akc:npraep, pospolita, null]
[37, 38, obrębie, obręb, subst:sg:loc:m3, pospolita, null]
[37, 38, obrębie, obręb, subst:sg:voc:m3, pospolita, null]
[37, 38, obrębie, obrąb, subst:sg:loc:m3, pospolita, null]
[37, 38, obrębie, obrąb, subst:sg:voc:m3, pospolita, null]
[38, 39, gotycka, gotycki, adj:sg:nom.voc:f:pos, pospolita, null]
[39, 40, archikatedra, archikatedra, subst:sg:nom:f, pospolita, null]
[40, 41, (, (, interp, , null]
[41, 42, wcześniej, wcześnie, adv:com, pospolita, null]
[41, 42, wcześniej, wczesno, adv:com, pospolita, null]
[42, 43, fara, fara, subst:sg:nom:f, pospolita, null]
[43, 44, staromiejska, staromiejski, adj:sg:nom.voc:f:pos, pospolita, null]
[44, 45, i, i, interj, pospolita, null]
[44, 45, i, i, qub, pospolita, null]
[44, 45, i, i, conj, pospolita, null]
[45, 46, kolegiata, kolegiata, subst:sg:nom:f, pospolita, null]
[45, 46, kolegiata, kolegiat, subst:sg:acc:m1, pospolita, null]
[45, 46, kolegiata, kolegiat, subst:sg:gen:m1, pospolita, null]
[46, 47, ), ), interp, , null]
[47, 48, Świętego, Święte, subst:sg:gen:n2, geograficzna, null]
[47, 48, Świętego, święty, subst:sg:acc:m1, pospolita, null]
[47, 48, Świętego, święty, subst:sg:gen:m1, pospolita, null]
[47, 48, Świętego, święty, adj:sg:acc:m1.m2:pos, pospolita, null]
[47, 48, Świętego, święty, adj:sg:gen:m1.m2.m3.n1.n2:pos, pospolita, null]
[48, 49, Jana, Jana, subst:sg:nom:f, , null]
[48, 49, Jana, Jan, subst:sg:acc:m1, imię, null]
[48, 49, Jana, Jan, subst:sg:gen:m1, imię, null]
[49, 50, Chrzciciela, chrzciciel, subst:sg:acc:m1, pospolita, null]
[49, 50, Chrzciciela, chrzciciel, subst:sg:gen:m1, pospolita, null]
[50, 51, ,, ,, interp, , null]
[51, 52, wielokrotnie, wielokrotnie, adv:pos, pospolita, null]
[52, 53, rozbudowywana, rozbudowywać, ppas:sg:nom.voc:f:imperf:aff, pospolita, null]
[53, 54, ,, ,, interp, , null]
[54, 55, przebudowywana, przebudowywać, ppas:sg:nom.voc:f:imperf:aff, pospolita, null]
[55, 56, ,, ,, interp, , null]
[56, 57, po, po, prep:acc, pospolita, null]
[56, 57, po, po, prep:loc, pospolita, null]
[57, 58, ostatniej, ostatni, adj:sg:dat:f:pos, pospolita, null]
[57, 58, ostatniej, ostatni, adj:sg:gen:f:pos, pospolita, null]
[57, 58, ostatniej, ostatni, adj:sg:loc:f:pos, pospolita, null]
[58, 59, wojnie, wojna, subst:sg:dat:f, pospolita, null]
[58, 59, wojnie, wojna, subst:sg:loc:f, pospolita, null]
[59, 60, zrekonstruowana, zrekonstruować, ppas:sg:nom.voc:f:perf:aff, pospolita, null]
[60, 61, w, w, prep:acc:nwok, pospolita, null]
[60, 61, w, w, prep:loc:nwok, pospolita, null]
[61, 62, stylu, styl, subst:sg:gen:m3, pospolita, null]
[61, 62, stylu, styl, subst:sg:loc:m3, pospolita, null]
[61, 62, stylu, styl, subst:sg:voc:m3, pospolita, null]
[61, 62, stylu, stylo, subst:sg:dat:n2, pospolita, null]
[61, 62, stylu, stylo, subst:sg:loc:n2, pospolita, null]
[62, 63, gotyku, gotyk, subst:sg:gen:m3, pospolita, null]
[62, 63, gotyku, gotyk, subst:sg:loc:m3, pospolita, null]
[62, 63, gotyku, gotyk, subst:sg:voc:m3, pospolita, null]
[63, 64, mazowieckiego, mazowiecki, adj:sg:acc:m1.m2:pos, pospolita, null]
[63, 64, mazowieckiego, mazowiecki, adj:sg:gen:m1.m2.m3.n1.n2:pos, pospolita, null]
[64, 65, ., ., interp, , null]
[65, 66, Wewnątrz, wewnątrz, adv, pospolita, null]
[65, 66, Wewnątrz, wewnątrz, prep:gen, pospolita, null]
[66, 67, ocalał, ocalać, praet:sg:m1.m2.m3:imperf, pospolita, null]
[66, 67, ocalał, ocaleć, praet:sg:m1.m2.m3:perf, pospolita, null]
[67, 68, późnogotycki, późnogotycki, adj:sg:acc:m3:pos, pospolita, null]
[67, 68, późnogotycki, późnogotycki, adj:sg:nom.voc:m1.m2.m3:pos, pospolita, null]
[68, 69, krucyfiks, krucyfiks, subst:sg:acc:m3, pospolita, null]
[68, 69, krucyfiks, krucyfiks, subst:sg:nom:m3, pospolita, null]
[69, 70, z, z, prep:acc:nwok, pospolita, null]
[69, 70, z, z, prep:gen:nwok, pospolita, null]
[69, 70, z, z, prep:inst:nwok, pospolita, null]
[70, 71, początku, początek, subst:sg:gen:m3, pospolita, null]
[70, 71, początku, początek, subst:sg:loc:m3, pospolita, null]
[70, 71, początku, początek, subst:sg:voc:m3, pospolita, null]
[71, 72, XVI, XVI, romandig, , null]
[72, 73, wieku, wiek, subst:sg:gen:m3, pospolita, null]
[72, 73, wieku, wiek, subst:sg:loc:m3, pospolita, null]
[72, 73, wieku, wiek, subst:sg:voc:m3, pospolita, null]
[72, 73, wieku, wieko, subst:sg:dat:n2, pospolita, null]
[72, 73, wieku, wieko, subst:sg:loc:n2, pospolita, null]
[73, 74, ,, ,, interp, , null]
[74, 75, ponadto, ponadto, qub, pospolita, null]
[75, 76, fragmenty, fragment, subst:pl:acc:m3, pospolita, null]
[75, 76, fragmenty, fragment, subst:pl:nom:m3, pospolita, null]
[75, 76, fragmenty, fragment, subst:pl:voc:m3, pospolita, null]
[76, 77, wystroju, wystrój, subst:sg:gen:m3, pospolita, null]
[76, 77, wystroju, wystrój, subst:sg:loc:m3, pospolita, null]
[76, 77, wystroju, wystrój, subst:sg:voc:m3, pospolita, null]
[77, 78, (, (, interp, , null]
[78, 79, m, M, romandig, , null]
[79, 80, ., ., interp, , null]
[80, 81, in, +ina, subst:pl:gen:f, nazwisko, null]
[80, 81, in, in, subst:pl:acc:n2, pospolita, null]
[80, 81, in, in, subst:pl:dat:n2, pospolita, null]
[80, 81, in, in, subst:pl:gen:n2, pospolita, null]
[80, 81, in, in, subst:pl:inst:n2, pospolita, null]
[80, 81, in, in, subst:pl:loc:n2, pospolita, null]
[80, 81, in, in, subst:pl:nom:n2, pospolita, null]
[80, 81, in, in, subst:pl:voc:n2, pospolita, null]
[80, 81, in, in, subst:sg:acc:n2, pospolita, null]
[80, 81, in, in, subst:sg:dat:n2, pospolita, null]
[80, 81, in, in, subst:sg:gen:n2, pospolita, null]
[80, 81, in, in, subst:sg:inst:n2, pospolita, null]
[80, 81, in, in, subst:sg:loc:n2, pospolita, null]
[80, 81, in, in, subst:sg:nom:n2, pospolita, null]
[80, 81, in, in, subst:sg:voc:n2, pospolita, null]
[81, 82, ., ., interp, , null]
[82, 83, kaplica, kaplica, subst:sg:nom:f, pospolita, null]
[83, 84, Baryczkowska, Baryczkowska, ign, , null]
[84, 85, ), ), interp, , null]
[85, 86, z, z, prep:acc:nwok, pospolita, null]
[85, 86, z, z, prep:gen:nwok, pospolita, null]
[85, 86, z, z, prep:inst:nwok, pospolita, null]
[86, 87, XVII, XVII, romandig, , null]
[87, 88, i, i, interj, pospolita, null]
[87, 88, i, i, qub, pospolita, null]
[87, 88, i, i, conj, pospolita, null]
[88, 89, XVIII, XVIII, romandig, , null]
[89, 90, wieku, wiek, subst:sg:gen:m3, pospolita, null]
[89, 90, wieku, wiek, subst:sg:loc:m3, pospolita, null]
[89, 90, wieku, wiek, subst:sg:voc:m3, pospolita, null]
[89, 90, wieku, wieko, subst:sg:dat:n2, pospolita, null]
[89, 90, wieku, wieko, subst:sg:loc:n2, pospolita, null]
[90, 91, ., ., interp, , null]
[91, 92, Miejsce, miejsce, subst:sg:acc:n2, pospolita, null]
[91, 92, Miejsce, miejsce, subst:sg:nom:n2, pospolita, null]
[91, 92, Miejsce, miejsce, subst:sg:voc:n2, pospolita, null]
[92, 93, pochówku, pochówek, subst:sg:gen:m3, pospolita, null]
[92, 93, pochówku, pochówek, subst:sg:loc:m3, pospolita, null]
[92, 93, pochówku, pochówek, subst:sg:voc:m3, pospolita, null]
[93, 94, książąt, książę, subst:pl:acc:m1, pospolita, null]
[93, 94, książąt, książę, subst:pl:gen:m1, pospolita, null]
[94, 95, mazowieckich, mazowiecki, adj:pl:acc:m1.p1:pos, pospolita, null]
[94, 95, mazowieckich, mazowiecki, adj:pl:gen:m1.m2.m3.f.n1.n2.p1.p2.p3:pos, pospolita, null]
[94, 95, mazowieckich, mazowiecki, adj:pl:loc:m1.m2.m3.f.n1.n2.p1.p2.p3:pos, pospolita, null]
[95, 96, ,, ,, interp, , null]
[96, 97, królów, król, subst:pl:acc:m1, pospolita, null]
[96, 97, królów, król, subst:pl:gen:m1, pospolita, null]
[97, 98, ,, ,, interp, , null]
[98, 99, prezydentów, prezydent, subst:pl:acc:m1, pospolita, null]
[98, 99, prezydentów, prezydent, subst:pl:gen:m1, pospolita, null]
[99, 100, i, i, interj, pospolita, null]
[99, 100, i, i, qub, pospolita, null]
[99, 100, i, i, conj, pospolita, null]
[100, 101, ważnych, ważny, adj:pl:acc:m1.p1:pos, pospolita, null]
[100, 101, ważnych, ważny, adj:pl:gen:m1.m2.m3.f.n1.n2.p1.p2.p3:pos, pospolita, null]
[100, 101, ważnych, ważny, adj:pl:loc:m1.m2.m3.f.n1.n2.p1.p2.p3:pos, pospolita, null]
[101, 102, osobistości, osobistość, subst:pl:acc:f, pospolita, null]
[101, 102, osobistości, osobistość, subst:pl:gen:f, pospolita, null]
[101, 102, osobistości, osobistość, subst:pl:nom:f, pospolita, null]
[101, 102, osobistości, osobistość, subst:pl:voc:f, pospolita, null]
[101, 102, osobistości, osobistość, subst:sg:dat:f, pospolita, null]
[101, 102, osobistości, osobistość, subst:sg:gen:f, pospolita, null]
[101, 102, osobistości, osobistość, subst:sg:loc:f, pospolita, null]
[101, 102, osobistości, osobistość, subst:sg:voc:f, pospolita, null]
[102, 103, Polski, Polska, subst:pl:acc:f, geograficzna, null]
[102, 103, Polski, Polska, subst:pl:nom:f, geograficzna, null]
[102, 103, Polski, Polska, subst:pl:voc:f, geograficzna, null]
[102, 103, Polski, Polska, subst:sg:gen:f, geograficzna, null]
[102, 103, Polski, polski, subst:sg:acc:m3, pospolita, null]
[102, 103, Polski, polski, subst:sg:nom:m3, pospolita, null]
[102, 103, Polski, polski, subst:sg:voc:m3, pospolita, null]
[102, 103, Polski, Polski, subst:sg:nom:m1, , null]
[102, 103, Polski, Polski, subst:sg:voc:m1, , null]
[102, 103, Polski, polski, adj:sg:acc:m3:pos, pospolita, null]
[102, 103, Polski, polski, adj:sg:nom.voc:m1.m2.m3:pos, pospolita, null]
[103, 104, (, (, interp, , null]
[104, 105, m, M, romandig, , null]
[105, 106, ., ., interp, , null]
[106, 107, in, +ina, subst:pl:gen:f, nazwisko, null]
[106, 107, in, in, subst:pl:acc:n2, pospolita, null]
[106, 107, in, in, subst:pl:dat:n2, pospolita, null]
[106, 107, in, in, subst:pl:gen:n2, pospolita, null]
[106, 107, in, in, subst:pl:inst:n2, pospolita, null]
[106, 107, in, in, subst:pl:loc:n2, pospolita, null]
[106, 107, in, in, subst:pl:nom:n2, pospolita, null]
[106, 107, in, in, subst:pl:voc:n2, pospolita, null]
[106, 107, in, in, subst:sg:acc:n2, pospolita, null]
[106, 107, in, in, subst:sg:dat:n2, pospolita, null]
[106, 107, in, in, subst:sg:gen:n2, pospolita, null]
[106, 107, in, in, subst:sg:inst:n2, pospolita, null]
[106, 107, in, in, subst:sg:loc:n2, pospolita, null]
[106, 107, in, in, subst:sg:nom:n2, pospolita, null]
[106, 107, in, in, subst:sg:voc:n2, pospolita, null]
[107, 108, ., ., interp, , null]
[108, 109, Stanisław, Stanisław, subst:sg:nom:m1, imię, null]
[108, 109, Stanisław, Stanisława, subst:pl:gen:f, imię, null]
[109, 110, August, august, subst:sg:acc:m3, pospolita, null]
[109, 110, August, august, subst:sg:nom:m1, pospolita, null]
[109, 110, August, august, subst:sg:nom:m3, pospolita, null]
[109, 110, August, augusta, subst:pl:gen:f, pospolita, null]
[109, 110, August, August, subst:sg:nom:m1, imię, null]
[109, 110, August, Augusta, subst:pl:gen:f, imię, null]
[110, 111, Poniatowski, Poniatowski, subst:sg:nom:m1, nazwisko, null]
[110, 111, Poniatowski, Poniatowski, subst:sg:voc:m1, nazwisko, null]
[110, 111, Poniatowski, poniatowski, adj:sg:acc:m3:pos, pospolita, null]
[110, 111, Poniatowski, poniatowski, adj:sg:nom.voc:m1.m2.m3:pos, pospolita, null]
[111, 112, ,, ,, interp, , null]
[112, 113, Henryk, Henryk, subst:sg:nom:m1, imię, null]
[112, 113, Henryk, Henryka, subst:pl:gen:f, imię, null]
[113, 114, Sienkiewicz, Sienkiewicz, subst:sg:nom:m1, nazwisko, null]
[114, 115, ,, ,, interp, , null]
[115, 116, Ignacy, Ignacy, subst:sg:nom:m1, imię, null]
[115, 116, Ignacy, Ignacy, subst:sg:voc:m1, imię, null]
[116, 117, Jan, Jana, subst:pl:gen:f, , null]
[116, 117, Jan, Jan, subst:sg:nom:m1, imię, null]
[117, 118, Paderewski, Paderewski, subst:sg:nom:m1, nazwisko, null]
[117, 118, Paderewski, Paderewski, subst:sg:voc:m1, nazwisko, null]
[118, 119, ,, ,, interp, , null]
[119, 120, August, august, subst:sg:acc:m3, pospolita, null]
[119, 120, August, august, subst:sg:nom:m1, pospolita, null]
[119, 120, August, august, subst:sg:nom:m3, pospolita, null]
[119, 120, August, augusta, subst:pl:gen:f, pospolita, null]
[119, 120, August, August, subst:sg:nom:m1, imię, null]
[119, 120, August, Augusta, subst:pl:gen:f, imię, null]
[120, 121, Hlond, Hlond, subst:sg:nom:m1, nazwisko, null]
[121, 122, ,, ,, interp, , null]
[122, 123, Stefan, Stefan, subst:sg:nom:m1, imię, null]
[123, 124, Wyszyński, Wyszyński, subst:sg:nom:m1, nazwisko, null]
[123, 124, Wyszyński, Wyszyński, subst:sg:voc:m1, nazwisko, null]
[124, 125, ), ), interp, , null]
[125, 126, ., ., interp, , null]
[126, 127, Obok, obok, adv, pospolita, null]
[126, 127, Obok, obok, prep:gen, pospolita, null]
[127, 128, barokowy, barokowy, adj:sg:acc:m3:pos, pospolita, null]
[127, 128, barokowy, barokowy, adj:sg:nom.voc:m1.m2.m3:pos, pospolita, null]
[128, 129, dawny, dawny, adj:sg:acc:m3:pos, pospolita, null]
[128, 129, dawny, dawny, adj:sg:nom.voc:m1.m2.m3:pos, pospolita, null]
[129, 130, kościół, kościół, subst:sg:acc:m3, pospolita, null]
[129, 130, kościół, kościół, subst:sg:nom:m3, pospolita, null]
[130, 131, Jezuitów, jezuita, subst:pl:acc:m1, pospolita, null]
[130, 131, Jezuitów, jezuita, subst:pl:gen:m1, pospolita, null]
[131, 132, ,, ,, interp, , null]
[132, 133, z, z, prep:acc:nwok, pospolita, null]
[132, 133, z, z, prep:gen:nwok, pospolita, null]
[132, 133, z, z, prep:inst:nwok, pospolita, null]
[133, 134, najwyższą, wysoki, adj:sg:acc:f:sup, pospolita, null]
[133, 134, najwyższą, wysoki, adj:sg:inst:f:sup, pospolita, null]
[134, 135, na, na, interj, pospolita, null]
[134, 135, na, na, prep:acc, pospolita, null]
[134, 135, na, na, prep:loc, pospolita, null]
[135, 136, Starówce, starówka, subst:sg:dat:f, pospolita, null]
[135, 136, Starówce, starówka, subst:sg:loc:f, pospolita, null]
[136, 137, wieżą, wieża, subst:sg:inst:f, pospolita, null]
[137, 138, ., ., interp, , null]
[138, 139, Ponadto, ponadto, qub, pospolita, null]
[139, 140, dawny, dawny, adj:sg:acc:m3:pos, pospolita, null]
[139, 140, dawny, dawny, adj:sg:nom.voc:m1.m2.m3:pos, pospolita, null]
[140, 141, kościół, kościół, subst:sg:acc:m3, pospolita, null]
[140, 141, kościół, kościół, subst:sg:nom:m3, pospolita, null]
[141, 142, Augustianów, augustianin, subst:pl:acc:m1, pospolita, null]
[141, 142, Augustianów, augustianin, subst:pl:gen:m1, pospolita, null]
[142, 143, pw, PW, subst:pl:acc:f, własna, null]
[142, 143, pw, PW, subst:pl:acc:n2, własna, null]
[142, 143, pw, PW, subst:pl:dat:f, własna, null]
[142, 143, pw, PW, subst:pl:dat:n2, własna, null]
[142, 143, pw, PW, subst:pl:gen:f, własna, null]
[142, 143, pw, PW, subst:pl:gen:n2, własna, null]
[142, 143, pw, PW, subst:pl:inst:f, własna, null]
[142, 143, pw, PW, subst:pl:inst:n2, własna, null]
[142, 143, pw, PW, subst:pl:loc:f, własna, null]
[142, 143, pw, PW, subst:pl:loc:n2, własna, null]
[142, 143, pw, PW, subst:pl:nom:f, własna, null]
[142, 143, pw, PW, subst:pl:nom:n2, własna, null]
[142, 143, pw, PW, subst:pl:voc:f, własna, null]
[142, 143, pw, PW, subst:pl:voc:n2, własna, null]
[142, 143, pw, PW, subst:sg:acc:f, własna, null]
[142, 143, pw, PW, subst:sg:acc:n2, własna, null]
[142, 143, pw, PW, subst:sg:dat:f, własna, null]
[142, 143, pw, PW, subst:sg:dat:n2, własna, null]
[142, 143, pw, PW, subst:sg:gen:f, własna, null]
[142, 143, pw, PW, subst:sg:gen:n2, własna, null]
[142, 143, pw, PW, subst:sg:inst:f, własna, null]
[142, 143, pw, PW, subst:sg:inst:n2, własna, null]
[142, 143, pw, PW, subst:sg:loc:f, własna, null]
[142, 143, pw, PW, subst:sg:loc:n2, własna, null]
[142, 143, pw, PW, subst:sg:nom:f, własna, null]
[142, 143, pw, PW, subst:sg:nom:n2, własna, null]
[142, 143, pw, PW, subst:sg:voc:f, własna, null]
[142, 143, pw, PW, subst:sg:voc:n2, własna, null]
[143, 144, ., ., interp, , null]
[144, 145, św, św, ign, , null]
[145, 146, ., ., interp, , null]
[146, 147, Marcina, Marcin, subst:sg:acc:m1, imię, null]
[146, 147, Marcina, Marcin, subst:sg:gen:m1, imię, null]
[147, 148, ,, ,, interp, , null]
[148, 149, przebudowany, przebudować, ppas:sg:acc:m3:perf:aff, pospolita, null]
[148, 149, przebudowany, przebudować, ppas:sg:nom.voc:m1.m2.m3:perf:aff, pospolita, null]
[149, 150, w, w, prep:acc:nwok, pospolita, null]
[149, 150, w, w, prep:loc:nwok, pospolita, null]
[150, 151, XVIII, XVIII, romandig, , null]
[151, 152, wieku, wiek, subst:sg:gen:m3, pospolita, null]
[151, 152, wieku, wiek, subst:sg:loc:m3, pospolita, null]
[151, 152, wieku, wiek, subst:sg:voc:m3, pospolita, null]
[151, 152, wieku, wieko, subst:sg:dat:n2, pospolita, null]
[151, 152, wieku, wieko, subst:sg:loc:n2, pospolita, null]
[152, 153, w, w, prep:acc:nwok, pospolita, null]
[152, 153, w, w, prep:loc:nwok, pospolita, null]
[153, 154, duchu, duch, subst:sg:loc:m2, pospolita, null]
[153, 154, duchu, duch, subst:sg:voc:m2, pospolita, null]
[154, 155, baroku, barok, subst:sg:gen:m3, pospolita, null]
[154, 155, baroku, barok, subst:sg:loc:m3, pospolita, null]
[154, 155, baroku, barok, subst:sg:voc:m3, pospolita, null]
[155, 156, ., ., interp, , null]
[156, 157, Na, na, interj, pospolita, null]
[156, 157, Na, na, prep:acc, pospolita, null]
[156, 157, Na, na, prep:loc, pospolita, null]
[157, 158, terenie, teren, subst:sg:loc:m3, pospolita, null]
[157, 158, terenie, teren, subst:sg:voc:m3, pospolita, null]
[158, 159, Starego, stare, subst:sg:gen:n2, pospolita, null]
[158, 159, Starego, stary, subst:sg:acc:m1, pospolita, null]
[158, 159, Starego, stary, subst:sg:gen:m1, pospolita, null]
[158, 159, Starego, stary, adj:sg:acc:m1.m2:pos, pospolita, null]
[158, 159, Starego, stary, adj:sg:gen:m1.m2.m3.n1.n2:pos, pospolita, null]
[159, 160, Miasta, miasto, subst:pl:acc:n2, pospolita, null]
[159, 160, Miasta, miasto, subst:pl:nom:n2, pospolita, null]
[159, 160, Miasta, miasto, subst:pl:voc:n2, pospolita, null]
[159, 160, Miasta, miasto, subst:sg:gen:n2, pospolita, null]
[160, 161, powstawała, powstawać, praet:sg:f:imperf, pospolita, null]
[160, 161, powstawała, powstawać, praet:sg:f:perf, pospolita, null]
[161, 162, zwarta, zewrzeć, ppas:sg:nom.voc:f:perf:aff, pospolita, null]
[161, 162, zwarta, zwarty, adj:sg:nom.voc:f:pos, pospolita, null]
[162, 163, zabudowa, zabudowa, subst:sg:nom:f, pospolita, null]
[163, 164, dla, dla, prep:gen, pospolita, null]
[164, 165, miejskiego, miejski, adj:sg:acc:m1.m2:pos, pospolita, null]
[164, 165, miejskiego, miejski, adj:sg:gen:m1.m2.m3.n1.n2:pos, pospolita, null]
[165, 166, patrycjatu, patrycjat, subst:sg:gen:m3, pospolita, null]
[166, 167, ,, ,, interp, , null]
[167, 168, z, z, prep:acc:nwok, pospolita, null]
[167, 168, z, z, prep:gen:nwok, pospolita, null]
[167, 168, z, z, prep:inst:nwok, pospolita, null]
[168, 169, XV-XVIII, XV-XVIII, ign, , null]
[169, 170, wieku, wiek, subst:sg:gen:m3, pospolita, null]
[169, 170, wieku, wiek, subst:sg:loc:m3, pospolita, null]
[169, 170, wieku, wiek, subst:sg:voc:m3, pospolita, null]
[169, 170, wieku, wieko, subst:sg:dat:n2, pospolita, null]
[169, 170, wieku, wieko, subst:sg:loc:n2, pospolita, null]
[170, 171, charakteryzująca, charakteryzować, pact:sg:nom.voc:f:imperf:aff, pospolita, null]
[171, 172, się, się, qub, , null]
[171, 172, się, się, qub, pospolita, null]
[172, 173, spójnością, spójność, subst:sg:inst:f, pospolita, null]
[173, 174, form, forma, subst:pl:gen:f, pospolita, null]
[174, 175, architektonicznych, architektoniczny, adj:pl:acc:m1.p1:pos, pospolita, null]
[174, 175, architektonicznych, architektoniczny, adj:pl:gen:m1.m2.m3.f.n1.n2.p1.p2.p3:pos, pospolita, null]
[174, 175, architektonicznych, architektoniczny, adj:pl:loc:m1.m2.m3.f.n1.n2.p1.p2.p3:pos, pospolita, null]
[175, 176, ., ., interp, , null]
[176, 177, Tworzą, tworzyć, fin:pl:ter:imperf, pospolita, null]
[177, 178, ją, on, ppron3:sg:acc:f:ter:_:npraep, pospolita, null]
[178, 179, kamienice, kamienica, subst:pl:acc:f, pospolita, null]
[178, 179, kamienice, kamienica, subst:pl:nom:f, pospolita, null]
[178, 179, kamienice, kamienica, subst:pl:voc:f, pospolita, null]
[179, 180, ,, ,, interp, , null]
[180, 181, głównie, głównie, adv:pos, pospolita, null]
[180, 181, głównie, głównia, subst:pl:acc:f, pospolita, null]
[180, 181, głównie, głównia, subst:pl:nom:f, pospolita, null]
[180, 181, głównie, głównia, subst:pl:voc:f, pospolita, null]
[181, 182, trzy, trzy, num:comp, pospolita, null]
[181, 182, trzy, trzy, num:pl:nom.acc.voc:m2.m3.n2.f:congr, pospolita, null]
[182, 183, -, -, interp, , null]
[183, 184, i, i, interj, pospolita, null]
[183, 184, i, i, qub, pospolita, null]
[183, 184, i, i, conj, pospolita, null]
[184, 185, cztero-kondygnacyjne, cztero-kondygnacyjne, ign, , null]
[185, 186, z, z, prep:acc:nwok, pospolita, null]
[185, 186, z, z, prep:gen:nwok, pospolita, null]
[185, 186, z, z, prep:inst:nwok, pospolita, null]
[186, 187, trzema, trzy, num:pl:inst:m1.m2.m3.n2.f:congr, pospolita, null]
[187, 188, traktami, trakt, subst:pl:inst:m3, pospolita, null]
[188, 189, wewnątrz, wewnątrz, adv, pospolita, null]
[188, 189, wewnątrz, wewnątrz, prep:gen, pospolita, null]
[189, 190, i, i, interj, pospolita, null]
[189, 190, i, i, qub, pospolita, null]
[189, 190, i, i, conj, pospolita, null]
[190, 191, dwu, dwa, num:comp, pospolita, null]
[190, 191, dwu, dwa, num:pl:gen.dat.loc:m1.m2.m3.n2.f:congr, pospolita, null]
[190, 191, dwu, dwa, num:pl:inst:m1.m2.m3.n2:congr, pospolita, null]
[190, 191, dwu, dwa, num:pl:nom.acc.voc:m1:rec, pospolita, null]
[191, 192, -, -, interp, , null]
[192, 193, ,, ,, interp, , null]
[193, 194, trój, trója, subst:pl:gen:f, pospolita, null]
[193, 194, trój, troić, impt:sg:sec:imperf, pospolita, null]
[193, 194, trój, trzy, num:comp, pospolita, null]
[194, 195, -, -, interp, , null]
[195, 196, i, i, interj, pospolita, null]
[195, 196, i, i, qub, pospolita, null]
[195, 196, i, i, conj, pospolita, null]
[196, 197, czteroosiowymi, czteroosiowy, adj:pl:inst:m1.m2.m3.f.n1.n2.p1.p2.p3:pos, pospolita, null]
[197, 198, elewacjami, elewacja, subst:pl:inst:f, pospolita, null]
[198, 199, z, z, prep:acc:nwok, pospolita, null]
[198, 199, z, z, prep:gen:nwok, pospolita, null]
[198, 199, z, z, prep:inst:nwok, pospolita, null]
[199, 200, prostokątnymi, prostokątny, adj:pl:inst:m1.m2.m3.f.n1.n2.p1.p2.p3:pos, pospolita, null]
[200, 201, oknami, okno, subst:pl:inst:n2, pospolita, null]
[201, 202, i, i, interj, pospolita, null]
[201, 202, i, i, qub, pospolita, null]
[201, 202, i, i, conj, pospolita, null]
[202, 203, ozdobnymi, ozdobny, adj:pl:inst:m1.m2.m3.f.n1.n2.p1.p2.p3:pos, pospolita, null]
[203, 204, portalami, portal, subst:pl:inst:m3, pospolita, null]
[204, 205, (, (, interp, , null]
[205, 206, wiele, wiele, adv, pospolita, null]
[205, 206, wiele, wiele, num:pl:nom.acc:m1.m2.m3.f.n1.n2.p1.p2:rec, pospolita, null]
[205, 206, wiele, wiele, num:pl:nom.acc.voc:m2.m3.f.n1.n2.p1.p2:rec, pospolita, null]
[206, 207, z, z, prep:acc:nwok, pospolita, null]
[206, 207, z, z, prep:gen:nwok, pospolita, null]
[206, 207, z, z, prep:inst:nwok, pospolita, null]
[207, 208, nich, on, ppron3:pl:acc:m1.p1:ter:_:praep, pospolita, null]
[207, 208, nich, on, ppron3:pl:gen:_:ter:_:praep, pospolita, null]
[207, 208, nich, on, ppron3:pl:loc:_:ter:_:_, pospolita, null]
[208, 209, ocalało, ocalać, praet:sg:n1.n2:imperf, pospolita, null]
[208, 209, ocalało, ocaleć, praet:sg:n1.n2:perf, pospolita, null]
[209, 210, zawieruchę, zawierucha, subst:sg:acc:f, pospolita, null]
[210, 211, wojenną, wojenny, adj:sg:acc:f:pos, pospolita, null]
[210, 211, wojenną, wojenny, adj:sg:inst:f:pos, pospolita, null]
[211, 212, ), ), interp, , null]
[212, 213, ., ., interp, , null]
[213, 214, Ponadto, ponadto, qub, pospolita, null]
[214, 215, kamienice, kamienica, subst:pl:acc:f, pospolita, null]
[214, 215, kamienice, kamienica, subst:pl:nom:f, pospolita, null]
[214, 215, kamienice, kamienica, subst:pl:voc:f, pospolita, null]
[215, 216, charakteryzują, charakteryzować, fin:pl:ter:imperf, pospolita, null]
[216, 217, się, się, qub, , null]
[216, 217, się, się, qub, pospolita, null]
[217, 218, wysokimi, wysoki, adj:pl:inst:m1.m2.m3.f.n1.n2.p1.p2.p3:pos, pospolita, null]
[218, 219, dachami, dacha, subst:pl:inst:f, pospolita, null]
[218, 219, dachami, dach, subst:pl:inst:m3, pospolita, null]
[219, 220, z, z, prep:acc:nwok, pospolita, null]
[219, 220, z, z, prep:gen:nwok, pospolita, null]
[219, 220, z, z, prep:inst:nwok, pospolita, null]
[220, 221, lukarnami, lukarna, subst:pl:inst:f, pospolita, null]
[221, 222, na, na, interj, pospolita, null]
[221, 222, na, na, prep:acc, pospolita, null]
[221, 222, na, na, prep:loc, pospolita, null]
[222, 223, poddaszu, poddasze, subst:sg:dat:n2, pospolita, null]
[222, 223, poddaszu, poddasze, subst:sg:loc:n2, pospolita, null]
[223, 224, ,, ,, interp, , null]
[224, 225, ponadto, ponadto, qub, pospolita, null]
[225, 226, część, część, subst:sg:acc:f, pospolita, null]
[225, 226, część, część, subst:sg:nom:f, pospolita, null]
[226, 227, z, z, prep:acc:nwok, pospolita, null]
[226, 227, z, z, prep:gen:nwok, pospolita, null]
[226, 227, z, z, prep:inst:nwok, pospolita, null]
[227, 228, nich, on, ppron3:pl:acc:m1.p1:ter:_:praep, pospolita, null]
[227, 228, nich, on, ppron3:pl:gen:_:ter:_:praep, pospolita, null]
[227, 228, nich, on, ppron3:pl:loc:_:ter:_:_, pospolita, null]
[228, 229, dodatkowe, dodatkowy, adj:pl:acc:m2.m3.f.n1.n2.p2.p3:pos, pospolita, null]
[228, 229, dodatkowe, dodatkowy, adj:pl:nom.voc:m2.m3.f.n1.n2.p2.p3:pos, pospolita, null]
[228, 229, dodatkowe, dodatkowy, adj:sg:acc:n1.n2:pos, pospolita, null]
[228, 229, dodatkowe, dodatkowy, adj:sg:nom.voc:n1.n2:pos, pospolita, null]
[229, 230, nadbudówki, nadbudówka, subst:pl:acc:f, pospolita, null]
[229, 230, nadbudówki, nadbudówka, subst:pl:nom:f, pospolita, null]
[229, 230, nadbudówki, nadbudówka, subst:pl:voc:f, pospolita, null]
[229, 230, nadbudówki, nadbudówka, subst:sg:gen:f, pospolita, null]
[230, 231, (, (, interp, , null]
[231, 232, tzw, tzw, ign, , null]
[232, 233, ., ., interp, , null]
[233, 234, latarnie, latarnia, subst:pl:acc:f, pospolita, null]
[233, 234, latarnie, latarnia, subst:pl:nom:f, pospolita, null]
[233, 234, latarnie, latarnia, subst:pl:voc:f, pospolita, null]
[234, 235, ), ), interp, , null]
[235, 236, służące, służyć, pact:pl:nom.acc.voc:m2.m3.f.n1.n2.p2.p3:imperf:aff, pospolita, null]
[235, 236, służące, służyć, pact:sg:nom.acc.voc:n1.n2:imperf:aff, pospolita, null]
[235, 236, służące, służąca, subst:pl:acc:f, pospolita, null]
[235, 236, służące, służąca, subst:pl:nom:f, pospolita, null]
[235, 236, służące, służąca, subst:pl:voc:f, pospolita, null]
[235, 236, służące, służący, depr:pl:nom:m2, pospolita, null]
[235, 236, służące, służący, depr:pl:voc:m2, pospolita, null]
[235, 236, służące, służący, adj:pl:acc:m2.m3.f.n1.n2.p2.p3:pos, pospolita, null]
[235, 236, służące, służący, adj:pl:nom.voc:m2.m3.f.n1.n2.p2.p3:pos, pospolita, null]
[235, 236, służące, służący, adj:sg:acc:n1.n2:pos, pospolita, null]
[235, 236, służące, służący, adj:sg:nom.voc:n1.n2:pos, pospolita, null]
[236, 237, do, do, subst:pl:acc:n2, pospolita, null]
[236, 237, do, do, subst:pl:dat:n2, pospolita, null]
[236, 237, do, do, subst:pl:gen:n2, pospolita, null]
[236, 237, do, do, subst:pl:inst:n2, pospolita, null]
[236, 237, do, do, subst:pl:loc:n2, pospolita, null]
[236, 237, do, do, subst:pl:nom:n2, pospolita, null]
[236, 237, do, do, subst:pl:voc:n2, pospolita, null]
[236, 237, do, do, subst:sg:acc:n2, pospolita, null]
[236, 237, do, do, subst:sg:dat:n2, pospolita, null]
[236, 237, do, do, subst:sg:gen:n2, pospolita, null]
[236, 237, do, do, subst:sg:inst:n2, pospolita, null]
[236, 237, do, do, subst:sg:loc:n2, pospolita, null]
[236, 237, do, do, subst:sg:nom:n2, pospolita, null]
[236, 237, do, do, subst:sg:voc:n2, pospolita, null]
[236, 237, do, do, prep:gen, pospolita, null]
[237, 238, oświetlenia, oświetlenie, subst:pl:acc:n2, pospolita, null]
[237, 238, oświetlenia, oświetlenie, subst:pl:nom:n2, pospolita, null]
[237, 238, oświetlenia, oświetlenie, subst:pl:voc:n2, pospolita, null]
[237, 238, oświetlenia, oświetlenie, subst:sg:gen:n2, pospolita, null]
[237, 238, oświetlenia, oświetlić, ger:sg:gen:n2:perf:aff, pospolita, null]
[238, 239, schodów, schody, subst:pl:gen:p3, pospolita, null]
[238, 239, schodów, schód, subst:pl:gen:m3, pospolita, null]
[239, 240, mieszczących, mieścić, pact:pl:acc:m1.p1:imperf:aff, pospolita, null]
[239, 240, mieszczących, mieścić, pact:pl:gen.loc:m1.m2.m3.f.n1.n2.p1.p2.p3:imperf:aff, pospolita, null]
[240, 241, się, się, qub, , null]
[240, 241, się, się, qub, pospolita, null]
[241, 242, w, w, prep:acc:nwok, pospolita, null]
[241, 242, w, w, prep:loc:nwok, pospolita, null]
[242, 243, środkowym, środkowa, subst:pl:dat:f, pospolita, null]
[242, 243, środkowym, środkowy, adj:pl:dat:m1.m2.m3.f.n1.n2.p1.p2.p3:pos, pospolita, null]
[242, 243, środkowym, środkowy, adj:sg:inst:m1.m2.m3.n1.n2:pos, pospolita, null]
[242, 243, środkowym, środkowy, adj:sg:loc:m1.m2.m3.n1.n2:pos, pospolita, null]
[243, 244, trakcie, trakt, subst:sg:loc:m3, pospolita, null]
[243, 244, trakcie, trakt, subst:sg:voc:m3, pospolita, null]
[244, 245, ., ., interp, , null]
[245, 246, Część, część, subst:sg:acc:f, pospolita, null]
[245, 246, Część, część, subst:sg:nom:f, pospolita, null]
[246, 247, elewacji, elewacja, subst:pl:gen:f, pospolita, null]
[246, 247, elewacji, elewacja, subst:sg:dat:f, pospolita, null]
[246, 247, elewacji, elewacja, subst:sg:gen:f, pospolita, null]
[246, 247, elewacji, elewacja, subst:sg:loc:f, pospolita, null]
[247, 248, kamienic, kamienica, subst:pl:gen:f, pospolita, null]
[248, 249, zachowała, zachować, praet:sg:f:perf, pospolita, null]
[249, 250, dekorację, dekoracja, subst:sg:acc:f, pospolita, null]
[250, 251, elewacji, elewacja, subst:pl:gen:f, pospolita, null]
[250, 251, elewacji, elewacja, subst:sg:dat:f, pospolita, null]
[250, 251, elewacji, elewacja, subst:sg:gen:f, pospolita, null]
[250, 251, elewacji, elewacja, subst:sg:loc:f, pospolita, null]
[251, 252, ., ., interp, , null]
[252, 253, Najwięcej, dużo, adv:sup, pospolita, null]
[252, 253, Najwięcej, najwięcej, num:pl:nom.acc:m1.m2.m3.f.n1.n2.p1.p2:rec, pospolita, null]
[253, 254, tego, ten, adj:sg:acc:m1.m2:pos, pospolita, null]
[253, 254, tego, ten, adj:sg:gen:m1.m2.m3.n1.n2:pos, pospolita, null]
[253, 254, tego, to, subst:sg:gen:n2, pospolita, null]
[254, 255, typu, typ, subst:sg:gen:m3, pospolita, null]
[255, 256, dzieł, dzieło, subst:pl:gen:n2, pospolita, null]
[256, 257, znajduje, znajdować, fin:sg:ter:imperf, pospolita, null]
[256, 257, znajduje, znajdywać, fin:sg:ter:imperf, pospolita, null]
[257, 258, się, się, qub, , null]
[257, 258, się, się, qub, pospolita, null]
[258, 259, przy, przy, prep:loc, pospolita, null]
[259, 260, Rynku, rynek, subst:sg:gen:m3, pospolita, null]
[259, 260, Rynku, rynek, subst:sg:loc:m3, pospolita, null]
[259, 260, Rynku, rynek, subst:sg:voc:m3, pospolita, null]
[260, 261, Starego, stare, subst:sg:gen:n2, pospolita, null]
[260, 261, Starego, stary, subst:sg:acc:m1, pospolita, null]
[260, 261, Starego, stary, subst:sg:gen:m1, pospolita, null]
[260, 261, Starego, stary, adj:sg:acc:m1.m2:pos, pospolita, null]
[260, 261, Starego, stary, adj:sg:gen:m1.m2.m3.n1.n2:pos, pospolita, null]
[261, 262, Miasta, miasto, subst:pl:acc:n2, pospolita, null]
[261, 262, Miasta, miasto, subst:pl:nom:n2, pospolita, null]
[261, 262, Miasta, miasto, subst:pl:voc:n2, pospolita, null]
[261, 262, Miasta, miasto, subst:sg:gen:n2, pospolita, null]
[262, 263, (, (, interp, , null]
[263, 264, m, M, romandig, , null]
[264, 265, ., ., interp, , null]
[265, 266, in, +ina, subst:pl:gen:f, nazwisko, null]
[265, 266, in, in, subst:pl:acc:n2, pospolita, null]
[265, 266, in, in, subst:pl:dat:n2, pospolita, null]
[265, 266, in, in, subst:pl:gen:n2, pospolita, null]
[265, 266, in, in, subst:pl:inst:n2, pospolita, null]
[265, 266, in, in, subst:pl:loc:n2, pospolita, null]
[265, 266, in, in, subst:pl:nom:n2, pospolita, null]
[265, 266, in, in, subst:pl:voc:n2, pospolita, null]
[265, 266, in, in, subst:sg:acc:n2, pospolita, null]
[265, 266, in, in, subst:sg:dat:n2, pospolita, null]
[265, 266, in, in, subst:sg:gen:n2, pospolita, null]
[265, 266, in, in, subst:sg:inst:n2, pospolita, null]
[265, 266, in, in, subst:sg:loc:n2, pospolita, null]
[265, 266, in, in, subst:sg:nom:n2, pospolita, null]
[265, 266, in, in, subst:sg:voc:n2, pospolita, null]
[266, 267, ., ., interp, , null]
[267, 268, kamienice, kamienica, subst:pl:acc:f, pospolita, null]
[267, 268, kamienice, kamienica, subst:pl:nom:f, pospolita, null]
[267, 268, kamienice, kamienica, subst:pl:voc:f, pospolita, null]
[268, 269, Winklerowska, Winklerowska, ign, , null]
[269, 270, ,, ,, interp, , null]
[270, 271, Fukierów, Fukier, subst:pl:acc:m1, , null]
[270, 271, Fukierów, Fukier, subst:pl:gen:m1, , null]
[271, 272, ,, ,, interp, , null]
[272, 273, pod, pod, prep:acc:nwok, pospolita, null]
[272, 273, pod, pod, prep:inst:nwok, pospolita, null]
[273, 274, Świętą, Święta, subst:sg:acc:f, geograficzna, null]
[273, 274, Świętą, Święta, subst:sg:inst:f, geograficzna, null]
[273, 274, Świętą, święta, subst:sg:acc:f, pospolita, null]
[273, 274, Świętą, święta, subst:sg:inst:f, pospolita, null]
[273, 274, Świętą, święty, adj:sg:acc:f:pos, pospolita, null]
[273, 274, Świętą, święty, adj:sg:inst:f:pos, pospolita, null]
[274, 275, Anną, Anna, subst:sg:inst:f, imię, null]
[275, 276, ,, ,, interp, , null]
[276, 277, Falkiewicza, Falkiewicz, subst:sg:acc:m1, , null]
[276, 277, Falkiewicza, Falkiewicz, subst:sg:gen:m1, , null]
[277, 278, ,, ,, interp, , null]
[278, 279, Baryczków, Baryczka, subst:pl:acc:m1, , null]
[278, 279, Baryczków, Baryczka, subst:pl:gen:m1, , null]
[279, 280, ,, ,, interp, , null]
[280, 281, Długoszowa, Długoszowa, ign, , null]
[281, 282, ), ), interp, , null]
[282, 283, oraz, oraz, conj, pospolita, null]
[283, 284, przy, przy, prep:loc, pospolita, null]
[284, 285, innych, inny, subst:pl:acc:m1, pospolita, null]
[284, 285, innych, inny, subst:pl:gen:m1, pospolita, null]
[284, 285, innych, inny, subst:pl:loc:m1, pospolita, null]
[284, 285, innych, inny, adj:pl:acc:m1.p1:pos, pospolita, null]
[284, 285, innych, inny, adj:pl:gen:m1.m2.m3.f.n1.n2.p1.p2.p3:pos, pospolita, null]
[284, 285, innych, inny, adj:pl:loc:m1.m2.m3.f.n1.n2.p1.p2.p3:pos, pospolita, null]
[285, 286, ulicach, ulica, subst:pl:loc:f, pospolita, null]
[286, 287, np, np, ign, , null]
[287, 288, ., ., interp, , null]
[288, 289, kamienice, kamienica, subst:pl:acc:f, pospolita, null]
[288, 289, kamienice, kamienica, subst:pl:nom:f, pospolita, null]
[288, 289, kamienice, kamienica, subst:pl:voc:f, pospolita, null]
[289, 290, Pod, pod, prep:acc:nwok, pospolita, null]
[289, 290, Pod, pod, prep:inst:nwok, pospolita, null]
[290, 291, Okrętem, okręt, subst:sg:inst:m3, pospolita, null]
[291, 292, ,, ,, interp, , null]
[292, 293, zespół, zespół, subst:sg:acc:m3, pospolita, null]
[292, 293, zespół, zespół, subst:sg:nom:m3, pospolita, null]
[293, 294, kamienic, kamienica, subst:pl:gen:f, pospolita, null]
[294, 295, przy, przy, prep:loc, pospolita, null]
[295, 296, ulicy, ulica, subst:sg:dat:f, pospolita, null]
[295, 296, ulicy, ulica, subst:sg:gen:f, pospolita, null]
[295, 296, ulicy, ulica, subst:sg:loc:f, pospolita, null]
[296, 297, Kanonia, kanonia, subst:sg:nom:f, pospolita, null]
[297, 298, ., ., interp, , null]
[298, 299, Stare, stare, subst:pl:acc:n2, pospolita, null]
[298, 299, Stare, stare, subst:pl:nom:n2, pospolita, null]
[298, 299, Stare, stare, subst:pl:voc:n2, pospolita, null]
[298, 299, Stare, stare, subst:sg:acc:n2, pospolita, null]
[298, 299, Stare, stare, subst:sg:nom:n2, pospolita, null]
[298, 299, Stare, stare, subst:sg:voc:n2, pospolita, null]
[298, 299, Stare, stara, subst:pl:acc:f, pospolita, null]
[298, 299, Stare, stara, subst:pl:nom:f, pospolita, null]
[298, 299, Stare, stara, subst:pl:voc:f, pospolita, null]
[298, 299, Stare, stary, depr:pl:nom:m2, pospolita, null]
[298, 299, Stare, stary, depr:pl:voc:m2, pospolita, null]
[298, 299, Stare, stary, adj:pl:acc:m2.m3.f.n1.n2.p2.p3:pos, pospolita, null]
[298, 299, Stare, stary, adj:pl:nom.voc:m2.m3.f.n1.n2.p2.p3:pos, pospolita, null]
[298, 299, Stare, stary, adj:sg:acc:n1.n2:pos, pospolita, null]
[298, 299, Stare, stary, adj:sg:nom.voc:n1.n2:pos, pospolita, null]
[299, 300, Miasto, miasto, subst:sg:acc:n2, pospolita, null]
[299, 300, Miasto, miasto, subst:sg:nom:n2, pospolita, null]
[299, 300, Miasto, miasto, subst:sg:voc:n2, pospolita, null]
[299, 300, Miasto, miasto, conj, pospolita, null]
[299, 300, Miasto, miasto, prep:gen, pospolita, null]
[300, 301, otoczone, otoczyć, ppas:pl:nom.acc.voc:m2.m3.f.n1.n2.p2.p3:perf:aff, pospolita, null]
[300, 301, otoczone, otoczyć, ppas:sg:nom.acc.voc:n1.n2:perf:aff, pospolita, null]
[301, 302, jest, być, fin:sg:ter:imperf, pospolita, null]
[302, 303, murami, mur, subst:pl:inst:m3, pospolita, null]
[303, 304, obronnymi, obronny, adj:pl:inst:m1.m2.m3.f.n1.n2.p1.p2.p3:pos, pospolita, null]
[304, 305, (, (, interp, , null]
[305, 306, XIII-XVI, XIII-XVI, ign, , null]
[306, 307, wiek, wiek, subst:sg:acc:m3, pospolita, null]
[306, 307, wiek, wiek, subst:sg:nom:m3, pospolita, null]
[306, 307, wiek, wieko, subst:pl:gen:n2, pospolita, null]
[307, 308, ), ), interp, , null]
[308, 309, z, z, prep:acc:nwok, pospolita, null]
[308, 309, z, z, prep:gen:nwok, pospolita, null]
[308, 309, z, z, prep:inst:nwok, pospolita, null]
[309, 310, basztą, baszta, subst:sg:inst:f, pospolita, null]
[310, 311, Prochową, prochowy, adj:sg:acc:f:pos, pospolita, null]
[310, 311, Prochową, prochowy, adj:sg:inst:f:pos, pospolita, null]
[311, 312, i, i, interj, pospolita, null]
[311, 312, i, i, qub, pospolita, null]
[311, 312, i, i, conj, pospolita, null]
[312, 313, Barbakanem, barbakan, subst:sg:inst:m3, pospolita, null]
[313, 314, ., ., interp, , null]
