[0, 1, Jak, jak, adv, pospolita, null]
[0, 1, Jak, jak, conj, pospolita, null]
[0, 1, Jak, jak, prep:nom, pospolita, null]
[0, 1, Jak, jak, adv:pos, pospolita, null]
[0, 1, Jak, jak, subst:sg:nom:m2, pospolita, null]
[0, 1, Jak, jaka, subst:pl:gen:f, pospolita, null]
[1, 2, mam, mieć, fin:sg:pri:imperf, pospolita, null]
[1, 2, mam, mamić, impt:sg:sec:imperf, pospolita, null]
[1, 2, mam, mama, subst:pl:gen:f, pospolita, null]
[2, 3, nie, nie, conj, pospolita, null]
[2, 3, nie, nie, qub, pospolita, null]
[2, 3, nie, on, ppron3:pl:acc:m2.m3.f.n1.n2.p2.p3:ter:_:praep, pospolita, null]
[2, 3, nie, on, ppron3:sg:acc:n1.n2:ter:_:praep, pospolita, null]
[3, 4, iść, iść, inf:imperf, pospolita, null]
[3, 4, iść, iścić, impt:sg:sec:imperf, pospolita, null]
[4, 5, do, do, subst:pl:acc:n2, pospolita, null]
[4, 5, do, do, subst:pl:dat:n2, pospolita, null]
[4, 5, do, do, subst:pl:gen:n2, pospolita, null]
[4, 5, do, do, subst:pl:inst:n2, pospolita, null]
[4, 5, do, do, subst:pl:loc:n2, pospolita, null]
[4, 5, do, do, subst:pl:nom:n2, pospolita, null]
[4, 5, do, do, subst:pl:voc:n2, pospolita, null]
[4, 5, do, do, subst:sg:acc:n2, pospolita, null]
[4, 5, do, do, subst:sg:dat:n2, pospolita, null]
[4, 5, do, do, subst:sg:gen:n2, pospolita, null]
[4, 5, do, do, subst:sg:inst:n2, pospolita, null]
[4, 5, do, do, subst:sg:loc:n2, pospolita, null]
[4, 5, do, do, subst:sg:nom:n2, pospolita, null]
[4, 5, do, do, subst:sg:voc:n2, pospolita, null]
[4, 5, do, do, prep:gen, pospolita, null]
[5, 6, szkoły, szkoła, subst:pl:acc:f, pospolita, null]
[5, 6, szkoły, szkoła, subst:pl:nom:f, pospolita, null]
[5, 6, szkoły, szkoła, subst:pl:voc:f, pospolita, null]
[5, 6, szkoły, szkoła, subst:sg:gen:f, pospolita, null]
[6, 7, ?, ?, interp, , null]
[7, 8, Tylko, tylko, conj, pospolita, null]
[7, 8, Tylko, tylko, qub, pospolita, null]
[7, 8, Tylko, Tylka, subst:sg:voc:f, imię, null]
[8, 9, nie, nie, conj, pospolita, null]
[8, 9, nie, nie, qub, pospolita, null]
[8, 9, nie, on, ppron3:pl:acc:m2.m3.f.n1.n2.p2.p3:ter:_:praep, pospolita, null]
[8, 9, nie, on, ppron3:sg:acc:n1.n2:ter:_:praep, pospolita, null]
[9, 10, piszcie, pisać, impt:pl:sec:imperf, pospolita, null]
[10, 11, mi, mi, subst:pl:acc:n2, pospolita, null]
[10, 11, mi, mi, subst:pl:dat:n2, pospolita, null]
[10, 11, mi, mi, subst:pl:gen:n2, pospolita, null]
[10, 11, mi, mi, subst:pl:inst:n2, pospolita, null]
[10, 11, mi, mi, subst:pl:loc:n2, pospolita, null]
[10, 11, mi, mi, subst:pl:nom:n2, pospolita, null]
[10, 11, mi, mi, subst:pl:voc:n2, pospolita, null]
[10, 11, mi, mi, subst:sg:acc:n2, pospolita, null]
[10, 11, mi, mi, subst:sg:dat:n2, pospolita, null]
[10, 11, mi, mi, subst:sg:gen:n2, pospolita, null]
[10, 11, mi, mi, subst:sg:inst:n2, pospolita, null]
[10, 11, mi, mi, subst:sg:loc:n2, pospolita, null]
[10, 11, mi, mi, subst:sg:nom:n2, pospolita, null]
[10, 11, mi, mi, subst:sg:voc:n2, pospolita, null]
[10, 11, mi, ja, ppron12:sg:dat:m1.m2.m3.f.n1.n2:pri:nakc, pospolita, null]
[11, 12, ,, ,, interp, , null]
[12, 13, ze, z, prep:acc:wok, pospolita, null]
[12, 13, ze, z, prep:gen:wok, pospolita, null]
[12, 13, ze, z, prep:inst:wok, pospolita, null]
[13, 14, mam, mieć, fin:sg:pri:imperf, pospolita, null]
[13, 14, mam, mamić, impt:sg:sec:imperf, pospolita, null]
[13, 14, mam, mama, subst:pl:gen:f, pospolita, null]
[14, 15, powiedzieć, powiedzieć, inf:perf, pospolita, null]
[15, 16, rodzicom, rodzic, subst:pl:dat:m1, pospolita, null]
[15, 16, rodzicom, rodzica, subst:pl:dat:f, pospolita, null]
[15, 16, rodzicom, rodzice, subst:pl:dat:p1, pospolita, null]
[16, 17, nie, nie, conj, pospolita, null]
[16, 17, nie, nie, qub, pospolita, null]
[16, 17, nie, on, ppron3:pl:acc:m2.m3.f.n1.n2.p2.p3:ter:_:praep, pospolita, null]
[16, 17, nie, on, ppron3:sg:acc:n1.n2:ter:_:praep, pospolita, null]
[17, 18, idę, iść, fin:sg:pri:imperf, pospolita, null]
[18, 19, i, i, interj, pospolita, null]
[18, 19, i, i, qub, pospolita, null]
[18, 19, i, i, conj, pospolita, null]
[19, 20, tyle, tyle, adv, pospolita, null]
[19, 20, tyle, tyle, num:pl:nom.acc:m1.m2.m3.f.n1.n2.p1.p2:rec, pospolita, null]
[19, 20, tyle, tyle, num:pl:nom.acc.voc:m2.m3.f.n1.n2.p1.p2:rec, pospolita, null]
[19, 20, tyle, tył, subst:sg:loc:m3, pospolita, null]
[19, 20, tyle, tył, subst:sg:voc:m3, pospolita, null]
[19, 20, tyle, tyli, adj:pl:acc:m2.m3.f.n1.n2.p2.p3:pos, pospolita, null]
[19, 20, tyle, tyli, adj:pl:nom.voc:m2.m3.f.n1.n2.p2.p3:pos, pospolita, null]
[19, 20, tyle, tyli, adj:sg:acc:n1.n2:pos, pospolita, null]
[19, 20, tyle, tyli, adj:sg:nom.voc:n1.n2:pos, pospolita, null]
[20, 21, ,, ,, interp, , null]
[21, 22, albo, alba, subst:sg:voc:f, pospolita, null]
[21, 22, albo, albo, conj, pospolita, null]
[21, 22, albo, albo, qub, pospolita, null]
[22, 23, iść, iść, inf:imperf, pospolita, null]
[22, 23, iść, iścić, impt:sg:sec:imperf, pospolita, null]
[23, 24, na, na, interj, pospolita, null]
[23, 24, na, na, prep:acc, pospolita, null]
[23, 24, na, na, prep:loc, pospolita, null]
[24, 25, wagary, wagary, subst:pl:acc:p3, pospolita, null]
[24, 25, wagary, wagary, subst:pl:nom:p3, pospolita, null]
[24, 25, wagary, wagary, subst:pl:voc:p3, pospolita, null]
[25, 26, ,, ,, interp, , null]
[26, 27, bo, bo, qub, pospolita, null]
[26, 27, bo, bo, comp, pospolita, null]
[27, 28, mieszkam, mieszkać, fin:sg:pri:imperf, pospolita, null]
[28, 29, od, od, prep:gen:nwok, pospolita, null]
[29, 30, pewnego, pewne, subst:sg:gen:n2, pospolita, null]
[29, 30, pewnego, pewny, adj:sg:acc:m1.m2:pos, pospolita, null]
[29, 30, pewnego, pewny, adj:sg:gen:m1.m2.m3.n1.n2:pos, pospolita, null]
[29, 30, pewnego, pewien, adj:sg:acc:m1.m2:pos, pospolita, null]
[29, 30, pewnego, pewien, adj:sg:gen:m1.m2.m3.n1.n2:pos, pospolita, null]
[30, 31, czasu, czas, subst:sg:gen:m3, pospolita, null]
[31, 32, mieszkam, mieszkać, fin:sg:pri:imperf, pospolita, null]
[32, 33, w, w, prep:acc:nwok, pospolita, null]
[32, 33, w, w, prep:loc:nwok, pospolita, null]
[33, 34, Anglii, Anglia, subst:pl:gen:f, geograficzna, null]
[33, 34, Anglii, Anglia, subst:sg:dat:f, geograficzna, null]
[33, 34, Anglii, Anglia, subst:sg:gen:f, geograficzna, null]
[33, 34, Anglii, Anglia, subst:sg:loc:f, geograficzna, null]
[34, 35, i, i, interj, pospolita, null]
[34, 35, i, i, qub, pospolita, null]
[34, 35, i, i, conj, pospolita, null]
[35, 36, tu, tu, adv, pospolita, null]
[36, 37, nie, nie, conj, pospolita, null]
[36, 37, nie, nie, qub, pospolita, null]
[36, 37, nie, on, ppron3:pl:acc:m2.m3.f.n1.n2.p2.p3:ter:_:praep, pospolita, null]
[36, 37, nie, on, ppron3:sg:acc:n1.n2:ter:_:praep, pospolita, null]
[37, 38, można, możny, adj:sg:nom.voc:f:pos, pospolita, null]
[37, 38, można, można, pred, pospolita, null]
[38, 39, opuszczać, opuszczać, inf:imperf, pospolita, null]
[39, 40, zajęć, zajęcia, subst:pl:gen:p2, pospolita, null]
[39, 40, zajęć, zajęcia, subst:pl:gen:p3, pospolita, null]
[39, 40, zajęć, zajęcie, subst:pl:gen:n2, pospolita, null]
[40, 41, ,, ,, interp, , null]
[41, 42, bo, bo, qub, pospolita, null]
[41, 42, bo, bo, comp, pospolita, null]
[42, 43, przyszedł, przyjść, praet:sg:m1.m2.m3:perf, pospolita, null]
[43, 44, by, by, qub, pospolita, null]
[44, 45, list, list, subst:sg:acc:m3, pospolita, null]
[44, 45, list, list, subst:sg:nom:m3, pospolita, null]
[44, 45, list, lista, subst:pl:gen:f, pospolita, null]
[45, 46, do, do, subst:pl:acc:n2, pospolita, null]
[45, 46, do, do, subst:pl:dat:n2, pospolita, null]
[45, 46, do, do, subst:pl:gen:n2, pospolita, null]
[45, 46, do, do, subst:pl:inst:n2, pospolita, null]
[45, 46, do, do, subst:pl:loc:n2, pospolita, null]
[45, 46, do, do, subst:pl:nom:n2, pospolita, null]
[45, 46, do, do, subst:pl:voc:n2, pospolita, null]
[45, 46, do, do, subst:sg:acc:n2, pospolita, null]
[45, 46, do, do, subst:sg:dat:n2, pospolita, null]
[45, 46, do, do, subst:sg:gen:n2, pospolita, null]
[45, 46, do, do, subst:sg:inst:n2, pospolita, null]
[45, 46, do, do, subst:sg:loc:n2, pospolita, null]
[45, 46, do, do, subst:sg:nom:n2, pospolita, null]
[45, 46, do, do, subst:sg:voc:n2, pospolita, null]
[45, 46, do, do, prep:gen, pospolita, null]
[46, 47, rodziców, rodzic, subst:pl:acc:m1, pospolita, null]
[46, 47, rodziców, rodzic, subst:pl:gen:m1, pospolita, null]
[46, 47, rodziców, rodzice, subst:pl:acc:p1, pospolita, null]
[46, 47, rodziców, rodzice, subst:pl:gen:p1, pospolita, null]
[47, 48, ,, ,, interp, , null]
[48, 49, dlatego, dlatego, adv, pospolita, null]
[49, 50, rodzice, rodzice, subst:pl:nom:p1, pospolita, null]
[49, 50, rodzice, rodzice, subst:pl:voc:p1, pospolita, null]
[49, 50, rodzice, rodzic, subst:pl:nom:m1, pospolita, null]
[49, 50, rodzice, rodzic, subst:pl:voc:m1, pospolita, null]
[49, 50, rodzice, rodzica, subst:pl:acc:f, pospolita, null]
[49, 50, rodzice, rodzica, subst:pl:nom:f, pospolita, null]
[49, 50, rodzice, rodzica, subst:pl:voc:f, pospolita, null]
[49, 50, rodzice, rodzic, depr:pl:nom:m2, pospolita, null]
[49, 50, rodzice, rodzic, depr:pl:voc:m2, pospolita, null]
[50, 51, muszą, musza, subst:sg:inst:f, pospolita, null]
[50, 51, muszą, musieć, fin:pl:ter:imperf, pospolita, null]
[50, 51, muszą, musić, fin:pl:ter:imperf, pospolita, null]
[50, 51, muszą, muszy, adj:sg:acc:f:pos, pospolita, null]
[50, 51, muszą, muszy, adj:sg:inst:f:pos, pospolita, null]
[51, 52, mi, mi, subst:pl:acc:n2, pospolita, null]
[51, 52, mi, mi, subst:pl:dat:n2, pospolita, null]
[51, 52, mi, mi, subst:pl:gen:n2, pospolita, null]
[51, 52, mi, mi, subst:pl:inst:n2, pospolita, null]
[51, 52, mi, mi, subst:pl:loc:n2, pospolita, null]
[51, 52, mi, mi, subst:pl:nom:n2, pospolita, null]
[51, 52, mi, mi, subst:pl:voc:n2, pospolita, null]
[51, 52, mi, mi, subst:sg:acc:n2, pospolita, null]
[51, 52, mi, mi, subst:sg:dat:n2, pospolita, null]
[51, 52, mi, mi, subst:sg:gen:n2, pospolita, null]
[51, 52, mi, mi, subst:sg:inst:n2, pospolita, null]
[51, 52, mi, mi, subst:sg:loc:n2, pospolita, null]
[51, 52, mi, mi, subst:sg:nom:n2, pospolita, null]
[51, 52, mi, mi, subst:sg:voc:n2, pospolita, null]
[51, 52, mi, ja, ppron12:sg:dat:m1.m2.m3.f.n1.n2:pri:nakc, pospolita, null]
[52, 53, uwierzyć, uwierzyć, inf:perf, pospolita, null]
[53, 54, ,, ,, interp, , null]
[54, 55, że, że, comp, pospolita, null]
[54, 55, że, że, qub, pospolita, null]
[55, 56, jestem, być, fin:sg:pri:imperf, pospolita, null]
[56, 57, chora, chora, subst:sg:nom:f, pospolita, null]
[56, 57, chora, chora, subst:sg:voc:f, pospolita, null]
[56, 57, chora, chory, adj:sg:nom.voc:f:pos, pospolita, null]
[57, 58, ,, ,, interp, , null]
[58, 59, a, a, conj, pospolita, null]
[58, 59, a, a, interj, pospolita, null]
[58, 59, a, a, prep:nom, pospolita, null]
[58, 59, a, a, qub, pospolita, null]
[59, 60, na, na, interj, pospolita, null]
[59, 60, na, na, prep:acc, pospolita, null]
[59, 60, na, na, prep:loc, pospolita, null]
[60, 61, blef, blef, subst:sg:acc:m3, pospolita, null]
[60, 61, blef, blef, subst:sg:nom:m3, pospolita, null]
[61, 62, nie, nie, conj, pospolita, null]
[61, 62, nie, nie, qub, pospolita, null]
[61, 62, nie, on, ppron3:pl:acc:m2.m3.f.n1.n2.p2.p3:ter:_:praep, pospolita, null]
[61, 62, nie, on, ppron3:sg:acc:n1.n2:ter:_:praep, pospolita, null]
[62, 63, pójdą, pójść, fin:pl:ter:perf, pospolita, null]
[63, 64, ., ., interp, , null]
[64, 65, Znam, znać, fin:sg:pri:imperf, pospolita, null]
[65, 66, ich, on, ppron3:pl:acc:m1.p1:ter:_:npraep, pospolita, null]
[65, 66, ich, on, ppron3:pl:gen:_:ter:_:npraep, pospolita, null]
[66, 67, i, i, interj, pospolita, null]
[66, 67, i, i, qub, pospolita, null]
[66, 67, i, i, conj, pospolita, null]
[67, 68, nie, nie, conj, pospolita, null]
[67, 68, nie, nie, qub, pospolita, null]
[67, 68, nie, on, ppron3:pl:acc:m2.m3.f.n1.n2.p2.p3:ter:_:praep, pospolita, null]
[67, 68, nie, on, ppron3:sg:acc:n1.n2:ter:_:praep, pospolita, null]
[68, 69, raz, raz, subst:sg:acc:m3, pospolita, null]
[68, 69, raz, raz, subst:sg:nom:m3, pospolita, null]
[69, 70, już, już, qub, pospolita, null]
[70, 71, próbowała, próbować, praet:sg:f:imperf, pospolita, null]
[71, 72, m, być, aglt:sg:pri:imperf:nwok, pospolita, null]
[72, 73, symulować, symulować, inf:imperf, pospolita, null]
[73, 74, i, i, interj, pospolita, null]
[73, 74, i, i, qub, pospolita, null]
[73, 74, i, i, conj, pospolita, null]
[74, 75, nic, nic, subst:sg:acc:n2, pospolita, null]
[74, 75, nic, nic, subst:sg:gen:n2, pospolita, null]
[74, 75, nic, nic, subst:sg:nom:n2, pospolita, null]
[74, 75, nic, nica, subst:pl:gen:f, pospolita, null]
[75, 76, z, z, prep:acc:nwok, pospolita, null]
[75, 76, z, z, prep:gen:nwok, pospolita, null]
[75, 76, z, z, prep:inst:nwok, pospolita, null]
[76, 77, tego, ten, adj:sg:acc:m1.m2:pos, pospolita, null]
[76, 77, tego, ten, adj:sg:gen:m1.m2.m3.n1.n2:pos, pospolita, null]
[76, 77, tego, to, subst:sg:gen:n2, pospolita, null]
[77, 78, ,, ,, interp, , null]
[78, 79, dlatego, dlatego, adv, pospolita, null]
[79, 80, szukam, szukać, fin:sg:pri:imperf, pospolita, null]
[80, 81, sposobu, sposób, subst:sg:gen:m3, pospolita, null]
[81, 82, na, na, interj, pospolita, null]
[81, 82, na, na, prep:acc, pospolita, null]
[81, 82, na, na, prep:loc, pospolita, null]
[82, 83, szybkie, szybki, adj:pl:acc:m2.m3.f.n1.n2.p2.p3:pos, pospolita, null]
[82, 83, szybkie, szybki, adj:pl:nom.voc:m2.m3.f.n1.n2.p2.p3:pos, pospolita, null]
[82, 83, szybkie, szybki, adj:sg:acc:n1.n2:pos, pospolita, null]
[82, 83, szybkie, szybki, adj:sg:nom.voc:n1.n2:pos, pospolita, null]
[83, 84, ,, ,, interp, , null]
[84, 85, ale, ale, conj, pospolita, null]
[84, 85, ale, ale, qub, pospolita, null]
[85, 86, nie, nie, conj, pospolita, null]
[85, 86, nie, nie, qub, pospolita, null]
[85, 86, nie, on, ppron3:pl:acc:m2.m3.f.n1.n2.p2.p3:ter:_:praep, pospolita, null]
[85, 86, nie, on, ppron3:sg:acc:n1.n2:ter:_:praep, pospolita, null]
[86, 87, poważne, poważny, adj:pl:acc:m2.m3.f.n1.n2.p2.p3:pos, pospolita, null]
[86, 87, poważne, poważny, adj:pl:nom.voc:m2.m3.f.n1.n2.p2.p3:pos, pospolita, null]
[86, 87, poważne, poważny, adj:sg:acc:n1.n2:pos, pospolita, null]
[86, 87, poważne, poważny, adj:sg:nom.voc:n1.n2:pos, pospolita, null]
[87, 88, zachorowanie, zachorować, ger:sg:nom.acc:n2:perf:aff, pospolita, null]
[88, 89, ., ., interp, , null]
[89, 90, Radze, raga, subst:sg:dat:f, pospolita, null]
[89, 90, Radze, raga, subst:sg:loc:f, pospolita, null]
[90, 91, ci, ten, adj:pl:nom.voc:m1.p1:pos, pospolita, null]
[90, 91, ci, ci, qub, pospolita, null]
[90, 91, ci, ty, ppron12:sg:dat:m1.m2.m3.f.n1.n2:sec:nakc, pospolita, null]
[91, 92, tak, tak, qub, pospolita, null]
[91, 92, tak, tak, adv:pos, pospolita, null]
[91, 92, tak, taka, subst:pl:gen:f, pospolita, null]
[92, 93, :, :, interp, , null]
[93, 94, Idź, iść, impt:sg:sec:imperf, pospolita, null]
[94, 95, do, do, subst:pl:acc:n2, pospolita, null]
[94, 95, do, do, subst:pl:dat:n2, pospolita, null]
[94, 95, do, do, subst:pl:gen:n2, pospolita, null]
[94, 95, do, do, subst:pl:inst:n2, pospolita, null]
[94, 95, do, do, subst:pl:loc:n2, pospolita, null]
[94, 95, do, do, subst:pl:nom:n2, pospolita, null]
[94, 95, do, do, subst:pl:voc:n2, pospolita, null]
[94, 95, do, do, subst:sg:acc:n2, pospolita, null]
[94, 95, do, do, subst:sg:dat:n2, pospolita, null]
[94, 95, do, do, subst:sg:gen:n2, pospolita, null]
[94, 95, do, do, subst:sg:inst:n2, pospolita, null]
[94, 95, do, do, subst:sg:loc:n2, pospolita, null]
[94, 95, do, do, subst:sg:nom:n2, pospolita, null]
[94, 95, do, do, subst:sg:voc:n2, pospolita, null]
[94, 95, do, do, prep:gen, pospolita, null]
[95, 96, szkoły, szkoła, subst:pl:acc:f, pospolita, null]
[95, 96, szkoły, szkoła, subst:pl:nom:f, pospolita, null]
[95, 96, szkoły, szkoła, subst:pl:voc:f, pospolita, null]
[95, 96, szkoły, szkoła, subst:sg:gen:f, pospolita, null]
[96, 97, jakiegoś, jakiś, adj:sg:acc:m1.m2:pos, pospolita, null]
[96, 97, jakiegoś, jakiś, adj:sg:gen:m1.m2.m3.n1.n2:pos, pospolita, null]
[97, 98, lajtowego, lajtowy, adj:sg:acc:m1.m2:pos, pospolita, null]
[97, 98, lajtowego, lajtowy, adj:sg:gen:m1.m2.m3.n1.n2:pos, pospolita, null]
[98, 99, dnia, dzień, subst:sg:gen:m3, pospolita, null]
[99, 100, (, (, interp, , null]
[100, 101, np, np, ign, , null]
[101, 102, :, :, interp, , null]
[102, 103, u, u, prep:gen, pospolita, null]
[103, 104, mnie, miąć, fin:sg:ter:imperf, pospolita, null]
[103, 104, mnie, ja, ppron12:sg:acc:m1.m2.m3.f.n1.n2:pri:akc, pospolita, null]
[103, 104, mnie, ja, ppron12:sg:dat:m1.m2.m3.f.n1.n2:pri:akc, pospolita, null]
[103, 104, mnie, ja, ppron12:sg:gen:m1.m2.m3.f.n1.n2:pri:akc, pospolita, null]
[103, 104, mnie, ja, ppron12:sg:loc:m1.m2.m3.f.n1.n2:pri, pospolita, null]
[104, 105, to, ten, adj:sg:acc:n1.n2:pos, pospolita, null]
[104, 105, to, ten, adj:sg:nom.voc:n1.n2:pos, pospolita, null]
[104, 105, to, to, qub, pospolita, null]
[104, 105, to, to, subst:sg:acc:n2, pospolita, null]
[104, 105, to, to, subst:sg:nom:n2, pospolita, null]
[104, 105, to, to, conj, pospolita, null]
[104, 105, to, to, pred, , null]
[105, 106, poniedziałek, poniedziałek, subst:sg:acc:m3, pospolita, null]
[105, 106, poniedziałek, poniedziałek, subst:sg:nom:m3, pospolita, null]
[106, 107, bo, bo, qub, pospolita, null]
[106, 107, bo, bo, comp, pospolita, null]
[107, 108, od, od, prep:gen:nwok, pospolita, null]
[108, 109, 7, 7, dig, , null]
[109, 110, :, :, interp, , null]
[110, 111, 00, 00, dig, , null]
[111, 112, do, do, subst:pl:acc:n2, pospolita, null]
[111, 112, do, do, subst:pl:dat:n2, pospolita, null]
[111, 112, do, do, subst:pl:gen:n2, pospolita, null]
[111, 112, do, do, subst:pl:inst:n2, pospolita, null]
[111, 112, do, do, subst:pl:loc:n2, pospolita, null]
[111, 112, do, do, subst:pl:nom:n2, pospolita, null]
[111, 112, do, do, subst:pl:voc:n2, pospolita, null]
[111, 112, do, do, subst:sg:acc:n2, pospolita, null]
[111, 112, do, do, subst:sg:dat:n2, pospolita, null]
[111, 112, do, do, subst:sg:gen:n2, pospolita, null]
[111, 112, do, do, subst:sg:inst:n2, pospolita, null]
[111, 112, do, do, subst:sg:loc:n2, pospolita, null]
[111, 112, do, do, subst:sg:nom:n2, pospolita, null]
[111, 112, do, do, subst:sg:voc:n2, pospolita, null]
[111, 112, do, do, prep:gen, pospolita, null]
[112, 113, 12, 12, dig, , null]
[113, 114, :, :, interp, , null]
[114, 115, 00, 00, dig, , null]
[115, 116, i, i, interj, pospolita, null]
[115, 116, i, i, qub, pospolita, null]
[115, 116, i, i, conj, pospolita, null]
[116, 117, nie, nie, conj, pospolita, null]
[116, 117, nie, nie, qub, pospolita, null]
[116, 117, nie, on, ppron3:pl:acc:m2.m3.f.n1.n2.p2.p3:ter:_:praep, pospolita, null]
[116, 117, nie, on, ppron3:sg:acc:n1.n2:ter:_:praep, pospolita, null]
[117, 118, ma, mój, adj:sg:nom.voc:f:pos, pospolita, null]
[117, 118, ma, mieć, fin:sg:ter:imperf, pospolita, null]
[118, 119, j, j, ign, , null]
[119, 120, ., ., interp, , null]
[120, 121, polskiego, polskie, subst:sg:gen:n2, pospolita, null]
[120, 121, polskiego, polski, subst:sg:gen:m3, pospolita, null]
[120, 121, polskiego, polski, adj:sg:acc:m1.m2:pos, pospolita, null]
[120, 121, polskiego, polski, adj:sg:gen:m1.m2.m3.n1.n2:pos, pospolita, null]
[121, 122, ., ., interp, , null]
[122, 123, 2, 2, dig, , null]
[123, 124, ., ., interp, , null]
[124, 125, Pod, pod, prep:acc:nwok, pospolita, null]
[124, 125, Pod, pod, prep:inst:nwok, pospolita, null]
[125, 126, koniec, koniec, subst:sg:acc:m3, pospolita, null]
[125, 126, koniec, koniec, subst:sg:nom:m3, pospolita, null]
[126, 127, lekcji, lekcja, subst:pl:gen:f, pospolita, null]
[126, 127, lekcji, lekcja, subst:sg:dat:f, pospolita, null]
[126, 127, lekcji, lekcja, subst:sg:gen:f, pospolita, null]
[126, 127, lekcji, lekcja, subst:sg:loc:f, pospolita, null]
[126, 127, lekcji, lekcje, subst:pl:gen:p3, pospolita, null]
[127, 128, udawaj, udawać, impt:sg:sec:imperf, pospolita, null]
[128, 129, że, że, comp, pospolita, null]
[128, 129, że, że, qub, pospolita, null]
[129, 130, cię, ty, ppron12:sg:acc:m1.m2.m3.f.n1.n2:sec:nakc, pospolita, null]
[129, 130, cię, ty, ppron12:sg:gen:m1.m2.m3.f.n1.n2:sec:nakc, pospolita, null]
[130, 131, boli, boleć, fin:sg:ter:imperf, pospolita, null]
[130, 131, boli, bola, subst:pl:gen:f, pospolita, null]
[130, 131, boli, bola, subst:sg:dat:f, pospolita, null]
[130, 131, boli, bola, subst:sg:gen:f, pospolita, null]
[130, 131, boli, bola, subst:sg:loc:f, pospolita, null]
[131, 132, brzuch, brzuch, subst:sg:acc:m3, pospolita, null]
[131, 132, brzuch, brzuch, subst:sg:nom:m3, pospolita, null]
[131, 132, brzuch, brzucho, subst:pl:gen:n2, pospolita, null]
[132, 133, ., ., interp, , null]
[133, 134, 3, 3, dig, , null]
[134, 135, ., ., interp, , null]
[135, 136, Jak, jak, adv, pospolita, null]
[135, 136, Jak, jak, conj, pospolita, null]
[135, 136, Jak, jak, prep:nom, pospolita, null]
[135, 136, Jak, jak, adv:pos, pospolita, null]
[135, 136, Jak, jak, subst:sg:nom:m2, pospolita, null]
[135, 136, Jak, jaka, subst:pl:gen:f, pospolita, null]
[136, 137, wrócisz, wrócić, fin:sg:sec:perf, pospolita, null]
[137, 138, do, do, subst:pl:acc:n2, pospolita, null]
[137, 138, do, do, subst:pl:dat:n2, pospolita, null]
[137, 138, do, do, subst:pl:gen:n2, pospolita, null]
[137, 138, do, do, subst:pl:inst:n2, pospolita, null]
[137, 138, do, do, subst:pl:loc:n2, pospolita, null]
[137, 138, do, do, subst:pl:nom:n2, pospolita, null]
[137, 138, do, do, subst:pl:voc:n2, pospolita, null]
[137, 138, do, do, subst:sg:acc:n2, pospolita, null]
[137, 138, do, do, subst:sg:dat:n2, pospolita, null]
[137, 138, do, do, subst:sg:gen:n2, pospolita, null]
[137, 138, do, do, subst:sg:inst:n2, pospolita, null]
[137, 138, do, do, subst:sg:loc:n2, pospolita, null]
[137, 138, do, do, subst:sg:nom:n2, pospolita, null]
[137, 138, do, do, subst:sg:voc:n2, pospolita, null]
[137, 138, do, do, prep:gen, pospolita, null]
[138, 139, domu, dom, subst:sg:gen:m3, pospolita, null]
[138, 139, domu, dom, subst:sg:loc:m3, pospolita, null]
[138, 139, domu, dom, subst:sg:voc:m3, pospolita, null]
[139, 140, powiedz, powiedzieć, impt:sg:sec:perf, pospolita, null]
[140, 141, ,, ,, interp, , null]
[141, 142, że, że, comp, pospolita, null]
[141, 142, że, że, qub, pospolita, null]
[142, 143, przez, przez, prep:acc:nwok, pospolita, null]
[143, 144, ostatnią, ostatni, adj:sg:acc:f:pos, pospolita, null]
[143, 144, ostatnią, ostatni, adj:sg:inst:f:pos, pospolita, null]
[144, 145, lekcje, lekcje, subst:pl:acc:p3, pospolita, null]
[144, 145, lekcje, lekcje, subst:pl:nom:p3, pospolita, null]
[144, 145, lekcje, lekcje, subst:pl:voc:p3, pospolita, null]
[144, 145, lekcje, lekcja, subst:pl:acc:f, pospolita, null]
[144, 145, lekcje, lekcja, subst:pl:nom:f, pospolita, null]
[144, 145, lekcje, lekcja, subst:pl:voc:f, pospolita, null]
[145, 146, bolał, boleć, praet:sg:m1.m2.m3:imperf, pospolita, null]
[146, 147, cię, ty, ppron12:sg:acc:m1.m2.m3.f.n1.n2:sec:nakc, pospolita, null]
[146, 147, cię, ty, ppron12:sg:gen:m1.m2.m3.f.n1.n2:sec:nakc, pospolita, null]
[147, 148, brzuch, brzuch, subst:sg:acc:m3, pospolita, null]
[147, 148, brzuch, brzuch, subst:sg:nom:m3, pospolita, null]
[147, 148, brzuch, brzucho, subst:pl:gen:n2, pospolita, null]
[148, 149, i, i, interj, pospolita, null]
[148, 149, i, i, qub, pospolita, null]
[148, 149, i, i, conj, pospolita, null]
[149, 150, że, że, comp, pospolita, null]
[149, 150, że, że, qub, pospolita, null]
[150, 151, wymiotować, wymiotować, inf:imperf, pospolita, null]
[151, 152, ci, ten, adj:pl:nom.voc:m1.p1:pos, pospolita, null]
[151, 152, ci, ci, qub, pospolita, null]
[151, 152, ci, ty, ppron12:sg:dat:m1.m2.m3.f.n1.n2:sec:nakc, pospolita, null]
[152, 153, się, się, qub, , null]
[152, 153, się, się, qub, pospolita, null]
[153, 154, chce, chcieć, fin:sg:ter:imperf, pospolita, null]
[154, 155, ., ., interp, , null]
[155, 156, 4, 4, dig, , null]
[156, 157, ., ., interp, , null]
[157, 158, Idź, iść, impt:sg:sec:imperf, pospolita, null]
[158, 159, do, do, subst:pl:acc:n2, pospolita, null]
[158, 159, do, do, subst:pl:dat:n2, pospolita, null]
[158, 159, do, do, subst:pl:gen:n2, pospolita, null]
[158, 159, do, do, subst:pl:inst:n2, pospolita, null]
[158, 159, do, do, subst:pl:loc:n2, pospolita, null]
[158, 159, do, do, subst:pl:nom:n2, pospolita, null]
[158, 159, do, do, subst:pl:voc:n2, pospolita, null]
[158, 159, do, do, subst:sg:acc:n2, pospolita, null]
[158, 159, do, do, subst:sg:dat:n2, pospolita, null]
[158, 159, do, do, subst:sg:gen:n2, pospolita, null]
[158, 159, do, do, subst:sg:inst:n2, pospolita, null]
[158, 159, do, do, subst:sg:loc:n2, pospolita, null]
[158, 159, do, do, subst:sg:nom:n2, pospolita, null]
[158, 159, do, do, subst:sg:voc:n2, pospolita, null]
[158, 159, do, do, prep:gen, pospolita, null]
[159, 160, łazienki, łazienka, subst:pl:acc:f, pospolita, null]
[159, 160, łazienki, łazienka, subst:pl:nom:f, pospolita, null]
[159, 160, łazienki, łazienka, subst:pl:voc:f, pospolita, null]
[159, 160, łazienki, łazienka, subst:sg:gen:f, pospolita, null]
[160, 161, i, i, interj, pospolita, null]
[160, 161, i, i, qub, pospolita, null]
[160, 161, i, i, conj, pospolita, null]
[161, 162, tam, tama, subst:pl:gen:f, pospolita, null]
[161, 162, tam, tam, adv, pospolita, null]
[161, 162, tam, tam, qub, pospolita, null]
[162, 163, z, z, prep:acc:nwok, pospolita, null]
[162, 163, z, z, prep:gen:nwok, pospolita, null]
[162, 163, z, z, prep:inst:nwok, pospolita, null]
[163, 164, ok, oko, subst:pl:gen:n2, pospolita, null]
[164, 165, ., ., interp, , null]
[165, 166, 10, 10, dig, , null]
[166, 167, -, -, interp, , null]
[167, 168, 15, 15, dig, , null]
[168, 169, min, mina, subst:pl:gen:f, pospolita, null]
[169, 170, ., ., interp, , null]
[170, 171, siedź, siedzieć, impt:sg:sec:imperf, pospolita, null]
[170, 171, siedź, siedź, subst:sg:acc:f, pospolita, null]
[170, 171, siedź, siedź, subst:sg:nom:f, pospolita, null]
[171, 172, a, a, conj, pospolita, null]
[171, 172, a, a, interj, pospolita, null]
[171, 172, a, a, prep:nom, pospolita, null]
[171, 172, a, a, qub, pospolita, null]
[172, 173, na, na, interj, pospolita, null]
[172, 173, na, na, prep:acc, pospolita, null]
[172, 173, na, na, prep:loc, pospolita, null]
[173, 174, koniec, koniec, subst:sg:acc:m3, pospolita, null]
[173, 174, koniec, koniec, subst:sg:nom:m3, pospolita, null]
[174, 175, spłucz, spłukać, impt:sg:sec:perf, pospolita, null]
[175, 176, (, (, interp, , null]
[176, 177, że, że, comp, pospolita, null]
[176, 177, że, że, qub, pospolita, null]
[177, 178, niby, niby, conj, pospolita, null]
[177, 178, niby, niby, prep:nom, pospolita, null]
[177, 178, niby, niby, qub, pospolita, null]
[178, 179, załatwiałaś/eś, załatwiałaś/eś, ign, , null]
[179, 180, się, się, qub, , null]
[179, 180, się, się, qub, pospolita, null]
[180, 181, ), ), interp, , null]
[181, 182, 5, 5, dig, , null]
[182, 183, ., ., interp, , null]
[183, 184, Wróć, wrócić, impt:sg:sec:perf, pospolita, null]
[184, 185, i, i, interj, pospolita, null]
[184, 185, i, i, qub, pospolita, null]
[184, 185, i, i, conj, pospolita, null]
[185, 186, powiedz, powiedzieć, impt:sg:sec:perf, pospolita, null]
[186, 187, że, że, comp, pospolita, null]
[186, 187, że, że, qub, pospolita, null]
[187, 188, masz, mieć, fin:sg:sec:imperf, pospolita, null]
[188, 189, biegunkę, biegunka, subst:sg:acc:f, pospolita, null]
[189, 190, i, i, interj, pospolita, null]
[189, 190, i, i, qub, pospolita, null]
[189, 190, i, i, conj, pospolita, null]
[190, 191, cię, ty, ppron12:sg:acc:m1.m2.m3.f.n1.n2:sec:nakc, pospolita, null]
[190, 191, cię, ty, ppron12:sg:gen:m1.m2.m3.f.n1.n2:sec:nakc, pospolita, null]
[191, 192, brzuch, brzuch, subst:sg:acc:m3, pospolita, null]
[191, 192, brzuch, brzuch, subst:sg:nom:m3, pospolita, null]
[191, 192, brzuch, brzucho, subst:pl:gen:n2, pospolita, null]
[192, 193, boli, boleć, fin:sg:ter:imperf, pospolita, null]
[192, 193, boli, bola, subst:pl:gen:f, pospolita, null]
[192, 193, boli, bola, subst:sg:dat:f, pospolita, null]
[192, 193, boli, bola, subst:sg:gen:f, pospolita, null]
[192, 193, boli, bola, subst:sg:loc:f, pospolita, null]
[193, 194, ., ., interp, , null]
[194, 195, 6, 6, dig, , null]
[195, 196, ., ., interp, , null]
[196, 197, Połóż, położyć, impt:sg:sec:perf, pospolita, null]
[197, 198, się, się, qub, , null]
[197, 198, się, się, qub, pospolita, null]
[198, 199, pod, pod, prep:acc:nwok, pospolita, null]
[198, 199, pod, pod, prep:inst:nwok, pospolita, null]
[199, 200, koc, koc, subst:sg:acc:m3, pospolita, null]
[199, 200, koc, koc, subst:sg:nom:m3, pospolita, null]
[200, 201, i, i, interj, pospolita, null]
[200, 201, i, i, qub, pospolita, null]
[200, 201, i, i, conj, pospolita, null]
[201, 202, tak, tak, qub, pospolita, null]
[201, 202, tak, tak, adv:pos, pospolita, null]
[201, 202, tak, taka, subst:pl:gen:f, pospolita, null]
[202, 203, leż, leż, subst:sg:acc:f, pospolita, null]
[202, 203, leż, leż, subst:sg:nom:f, pospolita, null]
[202, 203, leż, leża, subst:pl:gen:f, pospolita, null]
[202, 203, leż, leżeć, impt:sg:sec:imperf, pospolita, null]
[203, 204, z, z, prep:acc:nwok, pospolita, null]
[203, 204, z, z, prep:gen:nwok, pospolita, null]
[203, 204, z, z, prep:inst:nwok, pospolita, null]
[204, 205, połowę, połowa, subst:sg:acc:f, pospolita, null]
[205, 206, dnia, dzień, subst:sg:gen:m3, pospolita, null]
[206, 207, ., ., interp, , null]
[207, 208, 7, 7, dig, , null]
[208, 209, ., ., interp, , null]
[209, 210, Powiedz, powiedzieć, impt:sg:sec:perf, pospolita, null]
[210, 211, ,, ,, interp, , null]
[211, 212, że, że, comp, pospolita, null]
[211, 212, że, że, qub, pospolita, null]
[212, 213, ból, boleć, impt:sg:sec:imperf, pospolita, null]
[212, 213, ból, ból, subst:sg:acc:m3, pospolita, null]
[212, 213, ból, ból, subst:sg:nom:m3, pospolita, null]
[213, 214, brzucha, brzuch, subst:sg:gen:m3, pospolita, null]
[213, 214, brzucha, brzucho, subst:pl:acc:n2, pospolita, null]
[213, 214, brzucha, brzucho, subst:pl:nom:n2, pospolita, null]
[213, 214, brzucha, brzucho, subst:pl:voc:n2, pospolita, null]
[213, 214, brzucha, brzucho, subst:sg:gen:n2, pospolita, null]
[214, 215, się, się, qub, , null]
[214, 215, się, się, qub, pospolita, null]
[215, 216, nasila, nasilać, fin:sg:ter:imperf, pospolita, null]
[216, 217, i, i, interj, pospolita, null]
[216, 217, i, i, qub, pospolita, null]
[216, 217, i, i, conj, pospolita, null]
[217, 218, wgl, wgl, ign, , null]
[218, 219, ., ., interp, , null]
[219, 220, 8, 8, dig, , null]
[220, 221, ., ., interp, , null]
[221, 222, Gdy, gdy, adv, pospolita, null]
[222, 223, rodzice, rodzice, subst:pl:nom:p1, pospolita, null]
[222, 223, rodzice, rodzice, subst:pl:voc:p1, pospolita, null]
[222, 223, rodzice, rodzic, subst:pl:nom:m1, pospolita, null]
[222, 223, rodzice, rodzic, subst:pl:voc:m1, pospolita, null]
[222, 223, rodzice, rodzica, subst:pl:acc:f, pospolita, null]
[222, 223, rodzice, rodzica, subst:pl:nom:f, pospolita, null]
[222, 223, rodzice, rodzica, subst:pl:voc:f, pospolita, null]
[222, 223, rodzice, rodzic, depr:pl:nom:m2, pospolita, null]
[222, 223, rodzice, rodzic, depr:pl:voc:m2, pospolita, null]
[223, 224, pójdą, pójść, fin:pl:ter:perf, pospolita, null]
[224, 225, do, do, subst:pl:acc:n2, pospolita, null]
[224, 225, do, do, subst:pl:dat:n2, pospolita, null]
[224, 225, do, do, subst:pl:gen:n2, pospolita, null]
[224, 225, do, do, subst:pl:inst:n2, pospolita, null]
[224, 225, do, do, subst:pl:loc:n2, pospolita, null]
[224, 225, do, do, subst:pl:nom:n2, pospolita, null]
[224, 225, do, do, subst:pl:voc:n2, pospolita, null]
[224, 225, do, do, subst:sg:acc:n2, pospolita, null]
[224, 225, do, do, subst:sg:dat:n2, pospolita, null]
[224, 225, do, do, subst:sg:gen:n2, pospolita, null]
[224, 225, do, do, subst:sg:inst:n2, pospolita, null]
[224, 225, do, do, subst:sg:loc:n2, pospolita, null]
[224, 225, do, do, subst:sg:nom:n2, pospolita, null]
[224, 225, do, do, subst:sg:voc:n2, pospolita, null]
[224, 225, do, do, prep:gen, pospolita, null]
[225, 226, łazienki, łazienka, subst:pl:acc:f, pospolita, null]
[225, 226, łazienki, łazienka, subst:pl:nom:f, pospolita, null]
[225, 226, łazienki, łazienka, subst:pl:voc:f, pospolita, null]
[225, 226, łazienki, łazienka, subst:sg:gen:f, pospolita, null]
[226, 227, albo, alba, subst:sg:voc:f, pospolita, null]
[226, 227, albo, albo, conj, pospolita, null]
[226, 227, albo, albo, qub, pospolita, null]
[227, 228, do, do, subst:pl:acc:n2, pospolita, null]
[227, 228, do, do, subst:pl:dat:n2, pospolita, null]
[227, 228, do, do, subst:pl:gen:n2, pospolita, null]
[227, 228, do, do, subst:pl:inst:n2, pospolita, null]
[227, 228, do, do, subst:pl:loc:n2, pospolita, null]
[227, 228, do, do, subst:pl:nom:n2, pospolita, null]
[227, 228, do, do, subst:pl:voc:n2, pospolita, null]
[227, 228, do, do, subst:sg:acc:n2, pospolita, null]
[227, 228, do, do, subst:sg:dat:n2, pospolita, null]
[227, 228, do, do, subst:sg:gen:n2, pospolita, null]
[227, 228, do, do, subst:sg:inst:n2, pospolita, null]
[227, 228, do, do, subst:sg:loc:n2, pospolita, null]
[227, 228, do, do, subst:sg:nom:n2, pospolita, null]
[227, 228, do, do, subst:sg:voc:n2, pospolita, null]
[227, 228, do, do, prep:gen, pospolita, null]
[228, 229, pokoju, pokój, subst:sg:gen:m3, pospolita, null]
[228, 229, pokoju, pokój, subst:sg:loc:m3, pospolita, null]
[228, 229, pokoju, pokój, subst:sg:voc:m3, pospolita, null]
[229, 230, czy, czy, conj, pospolita, null]
[229, 230, czy, czy, qub, pospolita, null]
[230, 231, co, co, comp, pospolita, null]
[230, 231, co, co, subst:sg:acc:n2, pospolita, null]
[230, 231, co, co, subst:sg:gen:n2, pospolita, null]
[230, 231, co, co, subst:sg:nom:n2, pospolita, null]
[230, 232, coś, coś, qub, pospolita, null]
[230, 232, coś, coś, subst:sg:acc:n2, pospolita, null]
[230, 232, coś, coś, subst:sg:gen:n2, pospolita, null]
[230, 232, coś, coś, subst:sg:nom:n2, pospolita, null]
[231, 232, ś, być, aglt:sg:sec:imperf:nwok, pospolita, null]
[232, 233, idź, iść, impt:sg:sec:imperf, pospolita, null]
[233, 234, do, do, subst:pl:acc:n2, pospolita, null]
[233, 234, do, do, subst:pl:dat:n2, pospolita, null]
[233, 234, do, do, subst:pl:gen:n2, pospolita, null]
[233, 234, do, do, subst:pl:inst:n2, pospolita, null]
[233, 234, do, do, subst:pl:loc:n2, pospolita, null]
[233, 234, do, do, subst:pl:nom:n2, pospolita, null]
[233, 234, do, do, subst:pl:voc:n2, pospolita, null]
[233, 234, do, do, subst:sg:acc:n2, pospolita, null]
[233, 234, do, do, subst:sg:dat:n2, pospolita, null]
[233, 234, do, do, subst:sg:gen:n2, pospolita, null]
[233, 234, do, do, subst:sg:inst:n2, pospolita, null]
[233, 234, do, do, subst:sg:loc:n2, pospolita, null]
[233, 234, do, do, subst:sg:nom:n2, pospolita, null]
[233, 234, do, do, subst:sg:voc:n2, pospolita, null]
[233, 234, do, do, prep:gen, pospolita, null]
[234, 235, kuchni, kuchnia, subst:pl:gen:f, pospolita, null]
[234, 235, kuchni, kuchnia, subst:sg:dat:f, pospolita, null]
[234, 235, kuchni, kuchnia, subst:sg:gen:f, pospolita, null]
[234, 235, kuchni, kuchnia, subst:sg:loc:f, pospolita, null]
[235, 236, i, i, interj, pospolita, null]
[235, 236, i, i, qub, pospolita, null]
[235, 236, i, i, conj, pospolita, null]
[236, 237, sb, SB, subst:pl:acc:f, pospolita, null]
[236, 237, sb, SB, subst:pl:acc:n2, pospolita, null]
[236, 237, sb, SB, subst:pl:dat:f, pospolita, null]
[236, 237, sb, SB, subst:pl:dat:n2, pospolita, null]
[236, 237, sb, SB, subst:pl:gen:f, pospolita, null]
[236, 237, sb, SB, subst:pl:gen:n2, pospolita, null]
[236, 237, sb, SB, subst:pl:inst:f, pospolita, null]
[236, 237, sb, SB, subst:pl:inst:n2, pospolita, null]
[236, 237, sb, SB, subst:pl:loc:f, pospolita, null]
[236, 237, sb, SB, subst:pl:loc:n2, pospolita, null]
[236, 237, sb, SB, subst:pl:nom:f, pospolita, null]
[236, 237, sb, SB, subst:pl:nom:n2, pospolita, null]
[236, 237, sb, SB, subst:pl:voc:f, pospolita, null]
[236, 237, sb, SB, subst:pl:voc:n2, pospolita, null]
[236, 237, sb, SB, subst:sg:acc:f, pospolita, null]
[236, 237, sb, SB, subst:sg:acc:n2, pospolita, null]
[236, 237, sb, SB, subst:sg:dat:f, pospolita, null]
[236, 237, sb, SB, subst:sg:dat:n2, pospolita, null]
[236, 237, sb, SB, subst:sg:gen:f, pospolita, null]
[236, 237, sb, SB, subst:sg:gen:n2, pospolita, null]
[236, 237, sb, SB, subst:sg:inst:f, pospolita, null]
[236, 237, sb, SB, subst:sg:inst:n2, pospolita, null]
[236, 237, sb, SB, subst:sg:loc:f, pospolita, null]
[236, 237, sb, SB, subst:sg:loc:n2, pospolita, null]
[236, 237, sb, SB, subst:sg:nom:f, pospolita, null]
[236, 237, sb, SB, subst:sg:nom:n2, pospolita, null]
[236, 237, sb, SB, subst:sg:voc:f, pospolita, null]
[236, 237, sb, SB, subst:sg:voc:n2, pospolita, null]
[237, 238, weź, wziąć, impt:sg:sec:perf, pospolita, null]
[238, 239, sb, SB, subst:pl:acc:f, pospolita, null]
[238, 239, sb, SB, subst:pl:acc:n2, pospolita, null]
[238, 239, sb, SB, subst:pl:dat:f, pospolita, null]
[238, 239, sb, SB, subst:pl:dat:n2, pospolita, null]
[238, 239, sb, SB, subst:pl:gen:f, pospolita, null]
[238, 239, sb, SB, subst:pl:gen:n2, pospolita, null]
[238, 239, sb, SB, subst:pl:inst:f, pospolita, null]
[238, 239, sb, SB, subst:pl:inst:n2, pospolita, null]
[238, 239, sb, SB, subst:pl:loc:f, pospolita, null]
[238, 239, sb, SB, subst:pl:loc:n2, pospolita, null]
[238, 239, sb, SB, subst:pl:nom:f, pospolita, null]
[238, 239, sb, SB, subst:pl:nom:n2, pospolita, null]
[238, 239, sb, SB, subst:pl:voc:f, pospolita, null]
[238, 239, sb, SB, subst:pl:voc:n2, pospolita, null]
[238, 239, sb, SB, subst:sg:acc:f, pospolita, null]
[238, 239, sb, SB, subst:sg:acc:n2, pospolita, null]
[238, 239, sb, SB, subst:sg:dat:f, pospolita, null]
[238, 239, sb, SB, subst:sg:dat:n2, pospolita, null]
[238, 239, sb, SB, subst:sg:gen:f, pospolita, null]
[238, 239, sb, SB, subst:sg:gen:n2, pospolita, null]
[238, 239, sb, SB, subst:sg:inst:f, pospolita, null]
[238, 239, sb, SB, subst:sg:inst:n2, pospolita, null]
[238, 239, sb, SB, subst:sg:loc:f, pospolita, null]
[238, 239, sb, SB, subst:sg:loc:n2, pospolita, null]
[238, 239, sb, SB, subst:sg:nom:f, pospolita, null]
[238, 239, sb, SB, subst:sg:nom:n2, pospolita, null]
[238, 239, sb, SB, subst:sg:voc:f, pospolita, null]
[238, 239, sb, SB, subst:sg:voc:n2, pospolita, null]
[239, 240, co, co, comp, pospolita, null]
[239, 240, co, co, subst:sg:acc:n2, pospolita, null]
[239, 240, co, co, subst:sg:gen:n2, pospolita, null]
[239, 240, co, co, subst:sg:nom:n2, pospolita, null]
[239, 241, coś, coś, qub, pospolita, null]
[239, 241, coś, coś, subst:sg:acc:n2, pospolita, null]
[239, 241, coś, coś, subst:sg:gen:n2, pospolita, null]
[239, 241, coś, coś, subst:sg:nom:n2, pospolita, null]
[240, 241, ś, być, aglt:sg:sec:imperf:nwok, pospolita, null]
[241, 242, żeby, żeby, qub, pospolita, null]
[241, 242, żeby, żeby, comp, pospolita, null]
[242, 243, udawać, udawać, inf:imperf, pospolita, null]
[243, 244, że, że, comp, pospolita, null]
[243, 244, że, że, qub, pospolita, null]
[244, 245, wymiotujesz, wymiotować, fin:sg:sec:imperf, pospolita, null]
[245, 246, (, (, interp, , null]
[246, 247, np, np, ign, , null]
[247, 248, :, :, interp, , null]
[248, 249, ogórka, ogórek, subst:sg:acc:m2, pospolita, null]
[248, 249, ogórka, ogórek, subst:sg:gen:m2, pospolita, null]
[248, 249, ogórka, ogórek, subst:sg:gen:m3, pospolita, null]
[249, 250, przeżuj, przeżuć, impt:sg:sec:perf, pospolita, null]
[250, 251, z, z, prep:acc:nwok, pospolita, null]
[250, 251, z, z, prep:gen:nwok, pospolita, null]
[250, 251, z, z, prep:inst:nwok, pospolita, null]
[251, 252, kiełbasą, kiełbasa, subst:sg:inst:f, pospolita, null]
[252, 253, ), ), interp, , null]
[253, 254, ., ., interp, , null]
[254, 255, 9, 9, dig, , null]
[255, 256, ., ., interp, , null]
[256, 257, Idź, iść, impt:sg:sec:imperf, pospolita, null]
[257, 258, szybko, szybko, adv:pos, pospolita, null]
[257, 258, szybko, szybka, subst:sg:voc:f, pospolita, null]
[258, 259, s, s, ign, , null]
[259, 260, powrotem, powrót, subst:sg:inst:m3, pospolita, null]
[260, 261, pod, pod, prep:acc:nwok, pospolita, null]
[260, 261, pod, pod, prep:inst:nwok, pospolita, null]
[261, 262, koc, koc, subst:sg:acc:m3, pospolita, null]
[261, 262, koc, koc, subst:sg:nom:m3, pospolita, null]
[262, 263, i, i, interj, pospolita, null]
[262, 263, i, i, qub, pospolita, null]
[262, 263, i, i, conj, pospolita, null]
[263, 264, udawaj, udawać, impt:sg:sec:imperf, pospolita, null]
[264, 265, że, że, comp, pospolita, null]
[264, 265, że, że, qub, pospolita, null]
[265, 266, wymiotujesz, wymiotować, fin:sg:sec:imperf, pospolita, null]
[266, 267, ., ., interp, , null]
[267, 268, 10, 10, dig, , null]
[268, 269, ., ., interp, , null]
[269, 270, Powiedz, powiedzieć, impt:sg:sec:perf, pospolita, null]
[270, 271, rodzicom, rodzic, subst:pl:dat:m1, pospolita, null]
[270, 271, rodzicom, rodzica, subst:pl:dat:f, pospolita, null]
[270, 271, rodzicom, rodzice, subst:pl:dat:p1, pospolita, null]
[271, 272, że, że, comp, pospolita, null]
[271, 272, że, że, qub, pospolita, null]
[272, 273, wymiotowała, wymiotować, praet:sg:f:imperf, pospolita, null]
[273, 274, ś, być, aglt:sg:sec:imperf:nwok, pospolita, null]
[274, 275, i, i, interj, pospolita, null]
[274, 275, i, i, qub, pospolita, null]
[274, 275, i, i, conj, pospolita, null]
[275, 276, miej, mieć, impt:sg:sec:imperf, pospolita, null]
[276, 277, taką, taki, adj:sg:acc:f:pos, pospolita, null]
[276, 277, taką, taki, adj:sg:inst:f:pos, pospolita, null]
[276, 277, taką, taka, subst:sg:inst:f, pospolita, null]
[277, 278, dziwną, dziwny, adj:sg:acc:f:pos, pospolita, null]
[277, 278, dziwną, dziwny, adj:sg:inst:f:pos, pospolita, null]
[278, 279, minę, minąć, fin:sg:pri:perf, pospolita, null]
[278, 279, minę, mina, subst:sg:acc:f, pospolita, null]
[279, 280, ., ., interp, , null]
[280, 281, Mój, mój, adj:sg:acc:m3:pos, pospolita, null]
[280, 281, Mój, mój, adj:sg:nom.voc:m1.m2.m3:pos, pospolita, null]
[280, 281, Mój, mój, subst:sg:nom:m1, pospolita, null]
[280, 281, Mój, mój, subst:sg:voc:m1, pospolita, null]
[281, 282, sposób, sposób, subst:sg:acc:m3, pospolita, null]
[281, 282, sposób, sposób, subst:sg:nom:m3, pospolita, null]
[281, 282, sposób, sposobić, impt:sg:sec:imperf, pospolita, null]
[281, 282, sposób, sposób, pred, pospolita, null]
[282, 283, jest, być, fin:sg:ter:imperf, pospolita, null]
[283, 284, prosty, prosty, subst:sg:acc:m3, pospolita, null]
[283, 284, prosty, prosty, subst:sg:nom:m2, pospolita, null]
[283, 284, prosty, prosty, subst:sg:nom:m3, pospolita, null]
[283, 284, prosty, prosty, subst:sg:voc:m2, pospolita, null]
[283, 284, prosty, prosty, subst:sg:voc:m3, pospolita, null]
[283, 284, prosty, prosty, adj:sg:acc:m3:pos, pospolita, null]
[283, 284, prosty, prosty, adj:sg:nom.voc:m1.m2.m3:pos, pospolita, null]
[284, 285, (, (, interp, , null]
[285, 286, przynajmniej, przynajmniej, qub, pospolita, null]
[286, 287, u, u, prep:gen, pospolita, null]
[287, 288, mnie, miąć, fin:sg:ter:imperf, pospolita, null]
[287, 288, mnie, ja, ppron12:sg:acc:m1.m2.m3.f.n1.n2:pri:akc, pospolita, null]
[287, 288, mnie, ja, ppron12:sg:dat:m1.m2.m3.f.n1.n2:pri:akc, pospolita, null]
[287, 288, mnie, ja, ppron12:sg:gen:m1.m2.m3.f.n1.n2:pri:akc, pospolita, null]
[287, 288, mnie, ja, ppron12:sg:loc:m1.m2.m3.f.n1.n2:pri, pospolita, null]
[288, 289, uchodzi, uchodzić, fin:sg:ter:perf, pospolita, null]
[288, 289, uchodzi, uchodzić, fin:sg:ter:imperf, pospolita, null]
[289, 290, za, za, prep:acc, pospolita, null]
[289, 290, za, za, prep:gen, pospolita, null]
[289, 290, za, za, prep:inst, pospolita, null]
[289, 290, za, za, qub, pospolita, null]
[290, 291, taki, taki, adj:sg:acc:m3:pos, pospolita, null]
[290, 291, taki, taki, adj:sg:nom.voc:m1.m2.m3:pos, pospolita, null]
[290, 291, taki, taka, subst:pl:acc:f, pospolita, null]
[290, 291, taki, taka, subst:pl:nom:f, pospolita, null]
[290, 291, taki, taka, subst:pl:voc:f, pospolita, null]
[290, 291, taki, taka, subst:sg:gen:f, pospolita, null]
[290, 291, taki, taki, adv, pospolita, null]
[291, 292, który, który, adj:sg:acc:m3:pos, pospolita, null]
[291, 292, który, który, adj:sg:nom.voc:m1.m2.m3:pos, pospolita, null]
[292, 293, się, się, qub, , null]
[292, 293, się, się, qub, pospolita, null]
[293, 294, często, często, adv:pos, pospolita, null]
[294, 295, sprawdza, sprawdzać, fin:sg:ter:imperf, pospolita, null]
[295, 296, ), ), interp, , null]
[296, 297, :, :, interp, , null]
[297, 298, 1, 1, dig, , null]
[298, 299, ., ., interp, , null]
[299, 300, Gdy, gdy, adv, pospolita, null]
[300, 301, wstaniesz, wstać, fin:sg:sec:perf, pospolita, null]
[301, 302, ,, ,, interp, , null]
[302, 303, udawwaj, udawwaj, ign, , null]
[303, 304, ,, ,, interp, , null]
[304, 305, że, że, comp, pospolita, null]
[304, 305, że, że, qub, pospolita, null]
[305, 306, jest, być, fin:sg:ter:imperf, pospolita, null]
[306, 307, Ci, ten, adj:pl:nom.voc:m1.p1:pos, pospolita, null]
[306, 307, Ci, ci, qub, pospolita, null]
[306, 307, Ci, ty, ppron12:sg:dat:m1.m2.m3.f.n1.n2:sec:nakc, pospolita, null]
[307, 308, niedobrze, niedobrze, adv:pos, pospolita, null]
[308, 309, 2, 2, dig, , null]
[309, 310, ., ., interp, , null]
[310, 311, Poczekać, poczekać, inf:perf, pospolita, null]
[311, 312, do, do, subst:pl:acc:n2, pospolita, null]
[311, 312, do, do, subst:pl:dat:n2, pospolita, null]
[311, 312, do, do, subst:pl:gen:n2, pospolita, null]
[311, 312, do, do, subst:pl:inst:n2, pospolita, null]
[311, 312, do, do, subst:pl:loc:n2, pospolita, null]
[311, 312, do, do, subst:pl:nom:n2, pospolita, null]
[311, 312, do, do, subst:pl:voc:n2, pospolita, null]
[311, 312, do, do, subst:sg:acc:n2, pospolita, null]
[311, 312, do, do, subst:sg:dat:n2, pospolita, null]
[311, 312, do, do, subst:sg:gen:n2, pospolita, null]
[311, 312, do, do, subst:sg:inst:n2, pospolita, null]
[311, 312, do, do, subst:sg:loc:n2, pospolita, null]
[311, 312, do, do, subst:sg:nom:n2, pospolita, null]
[311, 312, do, do, subst:sg:voc:n2, pospolita, null]
[311, 312, do, do, prep:gen, pospolita, null]
[312, 313, wyjścia, wyjście, subst:pl:acc:n2, pospolita, null]
[312, 313, wyjścia, wyjście, subst:pl:nom:n2, pospolita, null]
[312, 313, wyjścia, wyjście, subst:pl:voc:n2, pospolita, null]
[312, 313, wyjścia, wyjście, subst:sg:gen:n2, pospolita, null]
[312, 313, wyjścia, wyjść, ger:sg:gen:n2:perf:aff, pospolita, null]
[313, 314, rodzinki, rodzinka, subst:pl:acc:f, pospolita, null]
[313, 314, rodzinki, rodzinka, subst:pl:nom:f, pospolita, null]
[313, 314, rodzinki, rodzinka, subst:pl:voc:f, pospolita, null]
[313, 314, rodzinki, rodzinka, subst:sg:gen:f, pospolita, null]
[314, 315, z, z, prep:acc:nwok, pospolita, null]
[314, 315, z, z, prep:gen:nwok, pospolita, null]
[314, 315, z, z, prep:inst:nwok, pospolita, null]
[315, 316, domu, dom, subst:sg:gen:m3, pospolita, null]
[315, 316, domu, dom, subst:sg:loc:m3, pospolita, null]
[315, 316, domu, dom, subst:sg:voc:m3, pospolita, null]
[316, 317, 3, 3, dig, , null]
[317, 318, ., ., interp, , null]
[318, 319, Zadzwonić, zadzwonić, inf:perf, pospolita, null]
[319, 320, do, do, subst:pl:acc:n2, pospolita, null]
[319, 320, do, do, subst:pl:dat:n2, pospolita, null]
[319, 320, do, do, subst:pl:gen:n2, pospolita, null]
[319, 320, do, do, subst:pl:inst:n2, pospolita, null]
[319, 320, do, do, subst:pl:loc:n2, pospolita, null]
[319, 320, do, do, subst:pl:nom:n2, pospolita, null]
[319, 320, do, do, subst:pl:voc:n2, pospolita, null]
[319, 320, do, do, subst:sg:acc:n2, pospolita, null]
[319, 320, do, do, subst:sg:dat:n2, pospolita, null]
[319, 320, do, do, subst:sg:gen:n2, pospolita, null]
[319, 320, do, do, subst:sg:inst:n2, pospolita, null]
[319, 320, do, do, subst:sg:loc:n2, pospolita, null]
[319, 320, do, do, subst:sg:nom:n2, pospolita, null]
[319, 320, do, do, subst:sg:voc:n2, pospolita, null]
[319, 320, do, do, prep:gen, pospolita, null]
[320, 321, rodzica, rodzica, subst:sg:nom:f, pospolita, null]
[320, 321, rodzica, rodzic, subst:sg:acc:m1, pospolita, null]
[320, 321, rodzica, rodzic, subst:sg:gen:m1, pospolita, null]
[321, 322, który, który, adj:sg:acc:m3:pos, pospolita, null]
[321, 322, który, który, adj:sg:nom.voc:m1.m2.m3:pos, pospolita, null]
[322, 323, jest, być, fin:sg:ter:imperf, pospolita, null]
[323, 324, bardziej, bardziej, adv, pospolita, null]
[324, 325, troskliwy, troskliwy, adj:sg:acc:m3:pos, pospolita, null]
[324, 325, troskliwy, troskliwy, adj:sg:nom.voc:m1.m2.m3:pos, pospolita, null]
[325, 326, lub, lubić, impt:sg:sec:imperf, pospolita, null]
[325, 326, lub, lub, conj, pospolita, null]
[326, 327, częściej, często, adv:com, pospolita, null]
[327, 328, jest, być, fin:sg:ter:imperf, pospolita, null]
[328, 329, w, w, prep:acc:nwok, pospolita, null]
[328, 329, w, w, prep:loc:nwok, pospolita, null]
[329, 330, domu, dom, subst:sg:gen:m3, pospolita, null]
[329, 330, domu, dom, subst:sg:loc:m3, pospolita, null]
[329, 330, domu, dom, subst:sg:voc:m3, pospolita, null]
[330, 331, (, (, interp, , null]
[331, 332, u, u, prep:gen, pospolita, null]
[332, 333, mnie, miąć, fin:sg:ter:imperf, pospolita, null]
[332, 333, mnie, ja, ppron12:sg:acc:m1.m2.m3.f.n1.n2:pri:akc, pospolita, null]
[332, 333, mnie, ja, ppron12:sg:dat:m1.m2.m3.f.n1.n2:pri:akc, pospolita, null]
[332, 333, mnie, ja, ppron12:sg:gen:m1.m2.m3.f.n1.n2:pri:akc, pospolita, null]
[332, 333, mnie, ja, ppron12:sg:loc:m1.m2.m3.f.n1.n2:pri, pospolita, null]
[333, 334, to, ten, adj:sg:acc:n1.n2:pos, pospolita, null]
[333, 334, to, ten, adj:sg:nom.voc:n1.n2:pos, pospolita, null]
[333, 334, to, to, qub, pospolita, null]
[333, 334, to, to, subst:sg:acc:n2, pospolita, null]
[333, 334, to, to, subst:sg:nom:n2, pospolita, null]
[333, 334, to, to, conj, pospolita, null]
[333, 334, to, to, pred, , null]
[334, 335, jest, być, fin:sg:ter:imperf, pospolita, null]
[335, 336, mama, mama, subst:sg:nom:f, pospolita, null]
[336, 337, ), ), interp, , null]
[337, 338, 4, 4, dig, , null]
[338, 339, ., ., interp, , null]
[339, 340, Gdy, gdy, adv, pospolita, null]
[340, 341, będziesz, być, bedzie:sg:sec:imperf, pospolita, null]
[341, 342, mówił/a, mówił/a, ign, , null]
[342, 343, ,, ,, interp, , null]
[343, 344, powiedz, powiedzieć, impt:sg:sec:perf, pospolita, null]
[344, 345, ,, ,, interp, , null]
[345, 346, że, że, comp, pospolita, null]
[345, 346, że, że, qub, pospolita, null]
[346, 347, wymiotowałeś/aś, wymiotowałeś/aś, ign, , null]
[347, 348, i, i, interj, pospolita, null]
[347, 348, i, i, qub, pospolita, null]
[347, 348, i, i, conj, pospolita, null]
[348, 349, bardzo, bardzo, adv, pospolita, null]
[349, 350, kiepsko, kiepsko, adv:pos, pospolita, null]
[350, 351, się, się, qub, , null]
[350, 351, się, się, qub, pospolita, null]
[351, 352, czujesz, czuć, fin:sg:sec:imperf, pospolita, null]
[352, 353, ., ., interp, , null]
[353, 354, U, u, prep:gen, pospolita, null]
[354, 355, mnie, miąć, fin:sg:ter:imperf, pospolita, null]
[354, 355, mnie, ja, ppron12:sg:acc:m1.m2.m3.f.n1.n2:pri:akc, pospolita, null]
[354, 355, mnie, ja, ppron12:sg:dat:m1.m2.m3.f.n1.n2:pri:akc, pospolita, null]
[354, 355, mnie, ja, ppron12:sg:gen:m1.m2.m3.f.n1.n2:pri:akc, pospolita, null]
[354, 355, mnie, ja, ppron12:sg:loc:m1.m2.m3.f.n1.n2:pri, pospolita, null]
[355, 356, to, ten, adj:sg:acc:n1.n2:pos, pospolita, null]
[355, 356, to, ten, adj:sg:nom.voc:n1.n2:pos, pospolita, null]
[355, 356, to, to, qub, pospolita, null]
[355, 356, to, to, subst:sg:acc:n2, pospolita, null]
[355, 356, to, to, subst:sg:nom:n2, pospolita, null]
[355, 356, to, to, conj, pospolita, null]
[355, 356, to, to, pred, , null]
[356, 357, działa, dziać, praet:sg:f:imperf, pospolita, null]
[356, 357, działa, działo, subst:pl:acc:n2, pospolita, null]
[356, 357, działa, działo, subst:pl:nom:n2, pospolita, null]
[356, 357, działa, działo, subst:pl:voc:n2, pospolita, null]
[356, 357, działa, działo, subst:sg:gen:n2, pospolita, null]
[356, 357, działa, działać, fin:sg:ter:imperf, pospolita, null]
[357, 358, tak, tak, qub, pospolita, null]
[357, 358, tak, tak, adv:pos, pospolita, null]
[357, 358, tak, taka, subst:pl:gen:f, pospolita, null]
[358, 359, ,, ,, interp, , null]
[359, 360, że, że, comp, pospolita, null]
[359, 360, że, że, qub, pospolita, null]
[360, 361, :, :, interp, , null]
[361, 362, dzwonie, dzwon, subst:sg:loc:m3, pospolita, null]
[361, 362, dzwonie, dzwon, subst:sg:voc:m3, pospolita, null]
[361, 362, dzwonie, dzwono, subst:sg:loc:n2, pospolita, null]
[362, 363, do, do, subst:pl:acc:n2, pospolita, null]
[362, 363, do, do, subst:pl:dat:n2, pospolita, null]
[362, 363, do, do, subst:pl:gen:n2, pospolita, null]
[362, 363, do, do, subst:pl:inst:n2, pospolita, null]
[362, 363, do, do, subst:pl:loc:n2, pospolita, null]
[362, 363, do, do, subst:pl:nom:n2, pospolita, null]
[362, 363, do, do, subst:pl:voc:n2, pospolita, null]
[362, 363, do, do, subst:sg:acc:n2, pospolita, null]
[362, 363, do, do, subst:sg:dat:n2, pospolita, null]
[362, 363, do, do, subst:sg:gen:n2, pospolita, null]
[362, 363, do, do, subst:sg:inst:n2, pospolita, null]
[362, 363, do, do, subst:sg:loc:n2, pospolita, null]
[362, 363, do, do, subst:sg:nom:n2, pospolita, null]
[362, 363, do, do, subst:sg:voc:n2, pospolita, null]
[362, 363, do, do, prep:gen, pospolita, null]
[363, 364, mamy, mieć, fin:pl:pri:imperf, pospolita, null]
[363, 364, mamy, mama, subst:pl:acc:f, pospolita, null]
[363, 364, mamy, mama, subst:pl:nom:f, pospolita, null]
[363, 364, mamy, mama, subst:pl:voc:f, pospolita, null]
[363, 364, mamy, mama, subst:sg:gen:f, pospolita, null]
[364, 365, ,, ,, interp, , null]
[365, 366, a, a, conj, pospolita, null]
[365, 366, a, a, interj, pospolita, null]
[365, 366, a, a, prep:nom, pospolita, null]
[365, 366, a, a, qub, pospolita, null]
[366, 367, ona, on, adj:sg:nom.voc:f:pos, pospolita, null]
[366, 367, ona, on, ppron3:sg:nom:f:ter:_:_, pospolita, null]
[367, 368, mówi, mówić, fin:sg:ter:imperf, pospolita, null]
[368, 369, ,, ,, interp, , null]
[369, 370, że, że, comp, pospolita, null]
[369, 370, że, że, qub, pospolita, null]
[370, 371, idę, iść, fin:sg:pri:imperf, pospolita, null]
[371, 372, do, do, subst:pl:acc:n2, pospolita, null]
[371, 372, do, do, subst:pl:dat:n2, pospolita, null]
[371, 372, do, do, subst:pl:gen:n2, pospolita, null]
[371, 372, do, do, subst:pl:inst:n2, pospolita, null]
[371, 372, do, do, subst:pl:loc:n2, pospolita, null]
[371, 372, do, do, subst:pl:nom:n2, pospolita, null]
[371, 372, do, do, subst:pl:voc:n2, pospolita, null]
[371, 372, do, do, subst:sg:acc:n2, pospolita, null]
[371, 372, do, do, subst:sg:dat:n2, pospolita, null]
[371, 372, do, do, subst:sg:gen:n2, pospolita, null]
[371, 372, do, do, subst:sg:inst:n2, pospolita, null]
[371, 372, do, do, subst:sg:loc:n2, pospolita, null]
[371, 372, do, do, subst:sg:nom:n2, pospolita, null]
[371, 372, do, do, subst:sg:voc:n2, pospolita, null]
[371, 372, do, do, prep:gen, pospolita, null]
[372, 373, szkoły, szkoła, subst:pl:acc:f, pospolita, null]
[372, 373, szkoły, szkoła, subst:pl:nom:f, pospolita, null]
[372, 373, szkoły, szkoła, subst:pl:voc:f, pospolita, null]
[372, 373, szkoły, szkoła, subst:sg:gen:f, pospolita, null]
[373, 374, i, i, interj, pospolita, null]
[373, 374, i, i, qub, pospolita, null]
[373, 374, i, i, conj, pospolita, null]
[374, 375, daje, dawać, fin:sg:ter:imperf, pospolita, null]
[375, 376, zalecania, zalecać, ger:sg:gen:n2:imperf:aff, pospolita, null]
[376, 377, ,, ,, interp, , null]
[377, 378, poczym, poczym, ign, , null]
[378, 379, albo, alba, subst:sg:voc:f, pospolita, null]
[378, 379, albo, albo, conj, pospolita, null]
[378, 379, albo, albo, qub, pospolita, null]
[379, 380, gada, gad, subst:sg:acc:m1, pospolita, null]
[379, 380, gada, gad, subst:sg:acc:m2, pospolita, null]
[379, 380, gada, gad, subst:sg:gen:m1, pospolita, null]
[379, 380, gada, gad, subst:sg:gen:m2, pospolita, null]
[379, 380, gada, gadać, fin:sg:ter:imperf, pospolita, null]
[380, 381, z, z, prep:acc:nwok, pospolita, null]
[380, 381, z, z, prep:gen:nwok, pospolita, null]
[380, 381, z, z, prep:inst:nwok, pospolita, null]
[381, 382, koleżankami, koleżanka, subst:pl:inst:f, pospolita, null]
[382, 383, z, z, prep:acc:nwok, pospolita, null]
[382, 383, z, z, prep:gen:nwok, pospolita, null]
[382, 383, z, z, prep:inst:nwok, pospolita, null]
[383, 384, pracy, praca, subst:sg:dat:f, pospolita, null]
[383, 384, pracy, praca, subst:sg:gen:f, pospolita, null]
[383, 384, pracy, praca, subst:sg:loc:f, pospolita, null]
[384, 385, lub, lubić, impt:sg:sec:imperf, pospolita, null]
[384, 385, lub, lub, conj, pospolita, null]
[385, 386, dzwoni, dzwonić, fin:sg:ter:imperf, pospolita, null]
[386, 387, do, do, subst:pl:acc:n2, pospolita, null]
[386, 387, do, do, subst:pl:dat:n2, pospolita, null]
[386, 387, do, do, subst:pl:gen:n2, pospolita, null]
[386, 387, do, do, subst:pl:inst:n2, pospolita, null]
[386, 387, do, do, subst:pl:loc:n2, pospolita, null]
[386, 387, do, do, subst:pl:nom:n2, pospolita, null]
[386, 387, do, do, subst:pl:voc:n2, pospolita, null]
[386, 387, do, do, subst:sg:acc:n2, pospolita, null]
[386, 387, do, do, subst:sg:dat:n2, pospolita, null]
[386, 387, do, do, subst:sg:gen:n2, pospolita, null]
[386, 387, do, do, subst:sg:inst:n2, pospolita, null]
[386, 387, do, do, subst:sg:loc:n2, pospolita, null]
[386, 387, do, do, subst:sg:nom:n2, pospolita, null]
[386, 387, do, do, subst:sg:voc:n2, pospolita, null]
[386, 387, do, do, prep:gen, pospolita, null]
[387, 388, ojca, ojciec, subst:sg:acc:m1, pospolita, null]
[387, 388, ojca, ojciec, subst:sg:gen:m1, pospolita, null]
[388, 389, ., ., interp, , null]
[389, 390, Potem, Pot, subst:sg:inst:m1, nazwisko, null]
[389, 390, Potem, pot, subst:sg:inst:m3, pospolita, null]
[389, 390, Potem, potem, adv, pospolita, null]
[390, 391, oddzwania, oddzwaniać, fin:sg:ter:imperf, pospolita, null]
[391, 392, do, do, subst:pl:acc:n2, pospolita, null]
[391, 392, do, do, subst:pl:dat:n2, pospolita, null]
[391, 392, do, do, subst:pl:gen:n2, pospolita, null]
[391, 392, do, do, subst:pl:inst:n2, pospolita, null]
[391, 392, do, do, subst:pl:loc:n2, pospolita, null]
[391, 392, do, do, subst:pl:nom:n2, pospolita, null]
[391, 392, do, do, subst:pl:voc:n2, pospolita, null]
[391, 392, do, do, subst:sg:acc:n2, pospolita, null]
[391, 392, do, do, subst:sg:dat:n2, pospolita, null]
[391, 392, do, do, subst:sg:gen:n2, pospolita, null]
[391, 392, do, do, subst:sg:inst:n2, pospolita, null]
[391, 392, do, do, subst:sg:loc:n2, pospolita, null]
[391, 392, do, do, subst:sg:nom:n2, pospolita, null]
[391, 392, do, do, subst:sg:voc:n2, pospolita, null]
[391, 392, do, do, prep:gen, pospolita, null]
[392, 393, mnie, miąć, fin:sg:ter:imperf, pospolita, null]
[392, 393, mnie, ja, ppron12:sg:acc:m1.m2.m3.f.n1.n2:pri:akc, pospolita, null]
[392, 393, mnie, ja, ppron12:sg:dat:m1.m2.m3.f.n1.n2:pri:akc, pospolita, null]
[392, 393, mnie, ja, ppron12:sg:gen:m1.m2.m3.f.n1.n2:pri:akc, pospolita, null]
[392, 393, mnie, ja, ppron12:sg:loc:m1.m2.m3.f.n1.n2:pri, pospolita, null]
[393, 394, i, i, interj, pospolita, null]
[393, 394, i, i, qub, pospolita, null]
[393, 394, i, i, conj, pospolita, null]
[394, 395, mówi, mówić, fin:sg:ter:imperf, pospolita, null]
[395, 396, ,, ,, interp, , null]
[396, 397, że, że, comp, pospolita, null]
[396, 397, że, że, qub, pospolita, null]
[397, 398, mam, mieć, fin:sg:pri:imperf, pospolita, null]
[397, 398, mam, mamić, impt:sg:sec:imperf, pospolita, null]
[397, 398, mam, mama, subst:pl:gen:f, pospolita, null]
[398, 399, zostać, zostać, inf:perf, pospolita, null]
[399, 400, w, w, prep:acc:nwok, pospolita, null]
[399, 400, w, w, prep:loc:nwok, pospolita, null]
[400, 401, domu, dom, subst:sg:gen:m3, pospolita, null]
[400, 401, domu, dom, subst:sg:loc:m3, pospolita, null]
[400, 401, domu, dom, subst:sg:voc:m3, pospolita, null]
[401, 402, :, :, interp, , null]
[401, 403, :), :), emoticon, , null]
[402, 403, ), ), interp, , null]
[403, 404, Dziś, dziś, adv, pospolita, null]
[403, 404, Dziś, dziś, subst:pl:acc:n2, pospolita, null]
[403, 404, Dziś, dziś, subst:pl:dat:n2, pospolita, null]
[403, 404, Dziś, dziś, subst:pl:gen:n2, pospolita, null]
[403, 404, Dziś, dziś, subst:pl:inst:n2, pospolita, null]
[403, 404, Dziś, dziś, subst:pl:loc:n2, pospolita, null]
[403, 404, Dziś, dziś, subst:pl:nom:n2, pospolita, null]
[403, 404, Dziś, dziś, subst:pl:voc:n2, pospolita, null]
[403, 404, Dziś, dziś, subst:sg:acc:n2, pospolita, null]
[403, 404, Dziś, dziś, subst:sg:dat:n2, pospolita, null]
[403, 404, Dziś, dziś, subst:sg:gen:n2, pospolita, null]
[403, 404, Dziś, dziś, subst:sg:inst:n2, pospolita, null]
[403, 404, Dziś, dziś, subst:sg:loc:n2, pospolita, null]
[403, 404, Dziś, dziś, subst:sg:nom:n2, pospolita, null]
[403, 404, Dziś, dziś, subst:sg:voc:n2, pospolita, null]
[404, 405, to, ten, adj:sg:acc:n1.n2:pos, pospolita, null]
[404, 405, to, ten, adj:sg:nom.voc:n1.n2:pos, pospolita, null]
[404, 405, to, to, qub, pospolita, null]
[404, 405, to, to, subst:sg:acc:n2, pospolita, null]
[404, 405, to, to, subst:sg:nom:n2, pospolita, null]
[404, 405, to, to, conj, pospolita, null]
[404, 405, to, to, pred, , null]
[405, 406, zadziałało, zadziałać, praet:sg:n1.n2:perf, pospolita, null]
[406, 407, !, !, interp, , null]
[407, 408, P, P, ign, , null]
[408, 409, ., ., interp, , null]
[409, 410, S, S, ign, , null]
[410, 411, ., ., interp, , null]
[411, 412, Dzień, dzienić, impt:sg:sec:imperf, pospolita, null]
[411, 412, Dzień, dzień, subst:sg:acc:f, pospolita, null]
[411, 412, Dzień, dzień, subst:sg:acc:m3, pospolita, null]
[411, 412, Dzień, dzień, subst:sg:nom:f, pospolita, null]
[411, 412, Dzień, dzień, subst:sg:nom:m3, pospolita, null]
[411, 412, Dzień, dzienia, subst:pl:gen:f, pospolita, null]
[411, 412, Dzień, dzienie, subst:pl:gen:n2, pospolita, null]
[412, 413, poprzedzający, poprzedzać, pact:pl:nom.voc:m1.p1:imperf:aff, pospolita, null]
[412, 413, poprzedzający, poprzedzać, pact:sg:acc:m3:imperf:aff, pospolita, null]
[412, 413, poprzedzający, poprzedzać, pact:sg:nom.voc:m1.m2.m3:imperf:aff, pospolita, null]
[413, 414, ", ", interp, , null]
[414, 415, akcję, akcja, subst:sg:acc:f, pospolita, null]
[415, 416, ", ", interp, , null]
[416, 417, ,, ,, interp, , null]
[417, 418, zjedz, zjeść, impt:sg:sec:perf, pospolita, null]
[418, 419, McDonald'a, McDonald'a, ign, , null]
[419, 420, ,, ,, interp, , null]
[420, 421, KFC, KFC, ign, , null]
[421, 422, lub, lubić, impt:sg:sec:imperf, pospolita, null]
[421, 422, lub, lub, conj, pospolita, null]
[422, 423, innego, inny, subst:sg:acc:m1, pospolita, null]
[422, 423, innego, inny, subst:sg:gen:m1, pospolita, null]
[422, 423, innego, inny, adj:sg:acc:m1.m2:pos, pospolita, null]
[422, 423, innego, inny, adj:sg:gen:m1.m2.m3.n1.n2:pos, pospolita, null]
[423, 424, fastfood'a, fastfood'a, ign, , null]
[424, 425, lub, lubić, impt:sg:sec:imperf, pospolita, null]
[424, 425, lub, lub, conj, pospolita, null]
[425, 426, czego, co, subst:sg:gen:n2, pospolita, null]
[425, 427, czegoś, coś, subst:sg:gen:n2, pospolita, null]
[426, 427, ś, być, aglt:sg:sec:imperf:nwok, pospolita, null]
[427, 428, się, się, qub, , null]
[427, 428, się, się, qub, pospolita, null]
[428, 429, nażryj, nażreć, impt:sg:sec:perf, pospolita, null]
[429, 430, w, w, prep:acc:nwok, pospolita, null]
[429, 430, w, w, prep:loc:nwok, pospolita, null]
[430, 431, domu, dom, subst:sg:gen:m3, pospolita, null]
[430, 431, domu, dom, subst:sg:loc:m3, pospolita, null]
[430, 431, domu, dom, subst:sg:voc:m3, pospolita, null]
[431, 432, ,, ,, interp, , null]
[432, 433, by, by, qub, pospolita, null]
[432, 433, by, by, comp, pospolita, null]
[433, 434, móc, móc, inf:imperf, pospolita, null]
[434, 435, dobrze, dobrze, adv:pos, pospolita, null]
[435, 436, wcisnąć, wcisnąć, inf:perf, pospolita, null]
[436, 437, kit, kit, subst:sg:acc:m3, pospolita, null]
[436, 437, kit, kit, subst:sg:nom:m3, pospolita, null]
[436, 437, kit, kita, subst:pl:gen:f, pospolita, null]
[437, 438, ., ., interp, , null]
